<?xml version='1.0' encoding='UTF-8' ?>
<svg xmlns='http://www.w3.org/2000/svg' xmlns:xlink='http://www.w3.org/1999/xlink' class='svglite' width='576.00pt' height='180.00pt' viewBox='0 0 576.00 180.00'>
<defs>
  <style type='text/css'><![CDATA[
    .svglite line, .svglite polyline, .svglite polygon, .svglite path, .svglite rect, .svglite circle {
      fill: none;
      stroke: #000000;
      stroke-linecap: round;
      stroke-linejoin: round;
      stroke-miterlimit: 10.00;
    }
  ]]></style>
</defs>
<rect width='100%' height='100%' style='stroke: none; fill: none;'/>
<defs>
  <clipPath id='cpMC4wMHw1NzYuMDB8MC4wMHwxODAuMDA='>
    <rect x='0.00' y='0.00' width='576.00' height='180.00' />
  </clipPath>
</defs>
<g clip-path='url(#cpMC4wMHw1NzYuMDB8MC4wMHwxODAuMDA=)'>
</g>
<defs>
  <clipPath id='cpMC4wMHw1NzYuMDB8MC4wMHw5MC4wMA=='>
    <rect x='0.000000000000050' y='0.00' width='576.00' height='90.00' />
  </clipPath>
</defs>
<g clip-path='url(#cpMC4wMHw1NzYuMDB8MC4wMHw5MC4wMA==)'>
</g>
<g clip-path='url(#cpMC4wMHw1NzYuMDB8MC4wMHwxODAuMDA=)'>
</g>
<defs>
  <clipPath id='cpMTAuNDF8NTcwLjUyfDUuNDh8NzEuNDk='>
    <rect x='10.41' y='5.48' width='560.11' height='66.01' />
  </clipPath>
</defs>
<g clip-path='url(#cpMTAuNDF8NTcwLjUyfDUuNDh8NzEuNDk=)'>
<polyline points='86.79,71.49 86.79,5.48 ' style='stroke-width: 0.53; stroke: #EBEBEB; stroke-linecap: butt;' />
<polyline points='188.63,71.49 188.63,5.48 ' style='stroke-width: 0.53; stroke: #EBEBEB; stroke-linecap: butt;' />
<polyline points='290.47,71.49 290.47,5.48 ' style='stroke-width: 0.53; stroke: #EBEBEB; stroke-linecap: butt;' />
<polyline points='392.30,71.49 392.30,5.48 ' style='stroke-width: 0.53; stroke: #EBEBEB; stroke-linecap: butt;' />
<polyline points='494.14,71.49 494.14,5.48 ' style='stroke-width: 0.53; stroke: #EBEBEB; stroke-linecap: butt;' />
<polyline points='10.41,40.81 570.52,40.81 ' style='stroke-width: 1.07; stroke: #EBEBEB; stroke-linecap: butt;' />
<polyline points='35.87,71.49 35.87,5.48 ' style='stroke-width: 1.07; stroke: #EBEBEB; stroke-linecap: butt;' />
<polyline points='137.71,71.49 137.71,5.48 ' style='stroke-width: 1.07; stroke: #EBEBEB; stroke-linecap: butt;' />
<polyline points='239.55,71.49 239.55,5.48 ' style='stroke-width: 1.07; stroke: #EBEBEB; stroke-linecap: butt;' />
<polyline points='341.38,71.49 341.38,5.48 ' style='stroke-width: 1.07; stroke: #EBEBEB; stroke-linecap: butt;' />
<polyline points='443.22,71.49 443.22,5.48 ' style='stroke-width: 1.07; stroke: #EBEBEB; stroke-linecap: butt;' />
<polyline points='545.06,71.49 545.06,5.48 ' style='stroke-width: 1.07; stroke: #EBEBEB; stroke-linecap: butt;' />
<polygon points='10.74,40.81 11.95,40.81 13.17,40.80 14.38,40.80 15.60,40.80 16.81,40.80 18.03,40.80 19.24,40.80 20.45,40.79 21.67,40.79 22.88,40.79 24.10,40.79 25.31,40.78 26.53,40.78 27.74,40.78 28.95,40.77 30.17,40.77 31.38,40.76 32.60,40.75 33.81,40.75 35.03,40.74 36.24,40.73 37.46,40.73 38.67,40.72 39.88,40.71 41.10,40.70 42.31,40.69 43.53,40.67 44.74,40.66 45.96,40.65 47.17,40.63 48.38,40.61 49.60,40.60 50.81,40.58 52.03,40.56 53.24,40.54 54.46,40.51 55.67,40.49 56.89,40.46 58.10,40.44 59.31,40.41 60.53,40.38 61.74,40.35 62.96,40.31 64.17,40.28 65.39,40.24 66.60,40.20 67.82,40.16 69.03,40.12 70.24,40.07 71.46,40.03 72.67,39.98 73.89,39.93 75.10,39.87 76.32,39.82 77.53,39.76 78.74,39.70 79.96,39.64 81.17,39.58 82.39,39.51 83.60,39.45 84.82,39.38 86.03,39.31 87.25,39.23 88.46,39.16 89.67,39.08 90.89,39.00 92.10,38.92 93.32,38.83 94.53,38.75 95.75,38.66 96.96,38.57 98.18,38.48 99.39,38.39 100.60,38.29 101.82,38.20 103.03,38.10 104.25,38.00 105.46,37.90 106.68,37.79 107.89,37.69 109.10,37.58 110.32,37.47 111.53,37.36 112.75,37.25 113.96,37.14 115.18,37.02 116.39,36.90 117.61,36.79 118.82,36.67 120.03,36.55 121.25,36.42 122.46,36.30 123.68,36.18 124.89,36.05 126.11,35.92 127.32,35.79 128.54,35.66 129.75,35.53 130.96,35.40 132.18,35.27 133.39,35.13 134.61,34.99 135.82,34.85 137.04,34.71 138.25,34.57 139.46,34.43 140.68,34.29 141.89,34.14 143.11,33.99 144.32,33.84 145.54,33.69 146.75,33.54 147.97,33.39 149.18,33.23 150.39,33.07 151.61,32.91 152.82,32.75 154.04,32.58 155.25,32.42 156.47,32.25 157.68,32.08 158.90,31.90 160.11,31.73 161.32,31.55 162.54,31.36 163.75,31.18 164.97,30.99 166.18,30.80 167.40,30.61 168.61,30.41 169.82,30.21 171.04,30.00 172.25,29.80 173.47,29.59 174.68,29.37 175.90,29.15 177.11,28.93 178.33,28.71 179.54,28.48 180.75,28.25 181.97,28.01 183.18,27.77 184.40,27.53 185.61,27.28 186.83,27.03 188.04,26.78 189.26,26.52 190.47,26.26 191.68,25.99 192.90,25.73 194.11,25.45 195.33,25.18 196.54,24.90 197.76,24.62 198.97,24.34 200.18,24.05 201.40,23.77 202.61,23.47 203.83,23.18 205.04,22.89 206.26,22.59 207.47,22.29 208.69,21.99 209.90,21.69 211.11,21.39 212.33,21.08 213.54,20.78 214.76,20.48 215.97,20.17 217.19,19.87 218.40,19.56 219.62,19.26 220.83,18.96 222.04,18.66 223.26,18.36 224.47,18.06 225.69,17.77 226.90,17.47 228.12,17.19 229.33,16.90 230.54,16.62 231.76,16.34 232.97,16.07 234.19,15.80 235.40,15.53 236.62,15.28 237.83,15.02 239.05,14.78 240.26,14.53 241.47,14.30 242.69,14.07 243.90,13.85 245.12,13.64 246.33,13.44 247.55,13.24 248.76,13.05 249.97,12.86 251.19,12.69 252.40,12.52 253.62,12.37 254.83,12.22 256.05,12.08 257.26,11.94 258.48,11.82 259.69,11.70 260.90,11.59 262.12,11.49 263.33,11.39 264.55,11.30 265.76,11.22 266.98,11.15 268.19,11.08 269.41,11.02 270.62,10.96 271.83,10.91 273.05,10.86 274.26,10.82 275.48,10.77 276.69,10.74 277.91,10.70 279.12,10.67 280.33,10.64 281.55,10.61 282.76,10.58 283.98,10.55 285.19,10.52 286.41,10.49 287.62,10.45 288.84,10.42 290.05,10.38 291.26,10.34 292.48,10.30 293.69,10.25 294.91,10.20 296.12,10.14 297.34,10.09 298.55,10.02 299.77,9.95 300.98,9.88 302.19,9.80 303.41,9.72 304.62,9.63 305.84,9.54 307.05,9.44 308.27,9.34 309.48,9.23 310.69,9.12 311.91,9.00 313.12,8.88 314.34,8.76 315.55,8.63 316.77,8.50 317.98,8.37 319.20,8.24 320.41,8.11 321.62,7.97 322.84,7.83 324.05,7.70 325.27,7.56 326.48,7.43 327.70,7.30 328.91,7.17 330.13,7.04 331.34,6.91 332.55,6.79 333.77,6.67 334.98,6.56 336.20,6.45 337.41,6.35 338.63,6.25 339.84,6.15 341.05,6.07 342.27,5.98 343.48,5.91 344.70,5.84 345.91,5.78 347.13,5.72 348.34,5.67 349.56,5.62 350.77,5.59 351.98,5.55 353.20,5.53 354.41,5.51 355.63,5.49 356.84,5.48 358.06,5.48 359.27,5.48 360.49,5.49 361.70,5.50 362.91,5.51 364.13,5.53 365.34,5.55 366.56,5.58 367.77,5.60 368.99,5.63 370.20,5.67 371.41,5.70 372.63,5.74 373.84,5.78 375.06,5.82 376.27,5.86 377.49,5.91 378.70,5.95 379.92,6.00 381.13,6.04 382.34,6.09 383.56,6.14 384.77,6.19 385.99,6.25 387.20,6.30 388.42,6.36 389.63,6.42 390.85,6.48 392.06,6.55 393.27,6.62 394.49,6.69 395.70,6.77 396.92,6.85 398.13,6.94 399.35,7.04 400.56,7.14 401.77,7.25 402.99,7.38 404.20,7.51 405.42,7.64 406.63,7.79 407.85,7.95 409.06,8.13 410.28,8.31 411.49,8.51 412.70,8.72 413.92,8.95 415.13,9.18 416.35,9.44 417.56,9.71 418.78,9.99 419.99,10.29 421.20,10.61 422.42,10.94 423.63,11.29 424.85,11.65 426.06,12.02 427.28,12.42 428.49,12.82 429.71,13.24 430.92,13.67 432.13,14.12 433.35,14.57 434.56,15.04 435.78,15.52 436.99,16.00 438.21,16.50 439.42,17.00 440.64,17.51 441.85,18.02 443.06,18.54 444.28,19.06 445.49,19.58 446.71,20.11 447.92,20.63 449.14,21.15 450.35,21.67 451.56,22.19 452.78,22.70 453.99,23.20 455.21,23.71 456.42,24.20 457.64,24.68 458.85,25.16 460.07,25.63 461.28,26.08 462.49,26.53 463.71,26.97 464.92,27.39 466.14,27.80 467.35,28.20 468.57,28.59 469.78,28.97 471.00,29.33 472.21,29.68 473.42,30.02 474.64,30.34 475.85,30.65 477.07,30.95 478.28,31.24 479.50,31.51 480.71,31.77 481.92,32.02 483.14,32.25 484.35,32.47 485.57,32.68 486.78,32.88 488.00,33.07 489.21,33.25 490.43,33.41 491.64,33.57 492.85,33.71 494.07,33.84 495.28,33.97 496.50,34.08 497.71,34.18 498.93,34.27 500.14,34.36 501.36,34.43 502.57,34.50 503.78,34.55 505.00,34.60 506.21,34.64 507.43,34.67 508.64,34.70 509.86,34.72 511.07,34.73 512.28,34.74 513.50,34.74 514.71,34.73 515.93,34.72 517.14,34.71 518.36,34.69 519.57,34.67 520.79,34.65 522.00,34.62 523.21,34.59 524.43,34.57 525.64,34.54 526.86,34.51 528.07,34.48 529.29,34.46 530.50,34.43 531.72,34.41 532.93,34.40 534.14,34.39 535.36,34.38 536.57,34.37 537.79,34.38 539.00,34.38 540.22,34.40 541.43,34.42 542.64,34.44 543.86,34.48 545.07,34.52 546.29,34.57 547.50,34.62 548.72,34.69 549.93,34.76 551.15,34.84 552.36,34.92 553.57,35.02 554.79,35.11 556.00,35.22 557.22,35.33 558.43,35.45 559.65,35.57 560.86,35.70 562.08,35.84 563.29,35.98 564.50,36.12 565.72,36.26 566.93,36.41 568.15,36.56 569.36,36.71 570.58,36.86 571.79,37.02 573.00,37.17 574.22,37.32 575.43,37.48 576.65,37.63 577.86,37.78 579.08,37.92 580.29,38.07 581.51,38.21 582.72,38.35 583.93,38.49 585.15,38.62 586.36,38.75 587.58,38.87 588.79,38.99 590.01,39.11 591.22,39.22 592.43,39.32 593.65,39.42 594.86,39.52 596.08,39.61 597.29,39.70 598.51,39.79 599.72,39.86 600.94,39.94 602.15,40.01 603.36,40.07 604.58,40.13 605.79,40.19 607.01,40.25 608.22,40.30 609.44,40.34 610.65,40.38 611.87,40.42 613.08,40.46 614.29,40.49 615.51,40.53 616.72,40.55 617.94,40.58 619.15,40.60 620.37,40.63 621.58,40.65 622.79,40.66 624.01,40.68 625.22,40.69 626.44,40.71 627.65,40.72 628.87,40.73 630.08,40.74 631.30,40.75 631.30,40.81 630.08,40.81 628.87,40.81 627.65,40.81 626.44,40.81 625.22,40.81 624.01,40.81 622.79,40.81 621.58,40.81 620.37,40.81 619.15,40.81 617.94,40.81 616.72,40.81 615.51,40.81 614.29,40.81 613.08,40.81 611.87,40.81 610.65,40.81 609.44,40.81 608.22,40.81 607.01,40.81 605.79,40.81 604.58,40.81 603.36,40.81 602.15,40.81 600.94,40.81 599.72,40.81 598.51,40.81 597.29,40.81 596.08,40.81 594.86,40.81 593.65,40.81 592.43,40.81 591.22,40.81 590.01,40.81 588.79,40.81 587.58,40.81 586.36,40.81 585.15,40.81 583.93,40.81 582.72,40.81 581.51,40.81 580.29,40.81 579.08,40.81 577.86,40.81 576.65,40.81 575.43,40.81 574.22,40.81 573.00,40.81 571.79,40.81 570.58,40.81 569.36,40.81 568.15,40.81 566.93,40.81 565.72,40.81 564.50,40.81 563.29,40.81 562.08,40.81 560.86,40.81 559.65,40.81 558.43,40.81 557.22,40.81 556.00,40.81 554.79,40.81 553.57,40.81 552.36,40.81 551.15,40.81 549.93,40.81 548.72,40.81 547.50,40.81 546.29,40.81 545.07,40.81 543.86,40.81 542.64,40.81 541.43,40.81 540.22,40.81 539.00,40.81 537.79,40.81 536.57,40.81 535.36,40.81 534.14,40.81 532.93,40.81 531.72,40.81 530.50,40.81 529.29,40.81 528.07,40.81 526.86,40.81 525.64,40.81 524.43,40.81 523.21,40.81 522.00,40.81 520.79,40.81 519.57,40.81 518.36,40.81 517.14,40.81 515.93,40.81 514.71,40.81 513.50,40.81 512.28,40.81 511.07,40.81 509.86,40.81 508.64,40.81 507.43,40.81 506.21,40.81 505.00,40.81 503.78,40.81 502.57,40.81 501.36,40.81 500.14,40.81 498.93,40.81 497.71,40.81 496.50,40.81 495.28,40.81 494.07,40.81 492.85,40.81 491.64,40.81 490.43,40.81 489.21,40.81 488.00,40.81 486.78,40.81 485.57,40.81 484.35,40.81 483.14,40.81 481.92,40.81 480.71,40.81 479.50,40.81 478.28,40.81 477.07,40.81 475.85,40.81 474.64,40.81 473.42,40.81 472.21,40.81 471.00,40.81 469.78,40.81 468.57,40.81 467.35,40.81 466.14,40.81 464.92,40.81 463.71,40.81 462.49,40.81 461.28,40.81 460.07,40.81 458.85,40.81 457.64,40.81 456.42,40.81 455.21,40.81 453.99,40.81 452.78,40.81 451.56,40.81 450.35,40.81 449.14,40.81 447.92,40.81 446.71,40.81 445.49,40.81 444.28,40.81 443.06,40.81 441.85,40.81 440.64,40.81 439.42,40.81 438.21,40.81 436.99,40.81 435.78,40.81 434.56,40.81 433.35,40.81 432.13,40.81 430.92,40.81 429.71,40.81 428.49,40.81 427.28,40.81 426.06,40.81 424.85,40.81 423.63,40.81 422.42,40.81 421.20,40.81 419.99,40.81 418.78,40.81 417.56,40.81 416.35,40.81 415.13,40.81 413.92,40.81 412.70,40.81 411.49,40.81 410.28,40.81 409.06,40.81 407.85,40.81 406.63,40.81 405.42,40.81 404.20,40.81 402.99,40.81 401.77,40.81 400.56,40.81 399.35,40.81 398.13,40.81 396.92,40.81 395.70,40.81 394.49,40.81 393.27,40.81 392.06,40.81 390.85,40.81 389.63,40.81 388.42,40.81 387.20,40.81 385.99,40.81 384.77,40.81 383.56,40.81 382.34,40.81 381.13,40.81 379.92,40.81 378.70,40.81 377.49,40.81 376.27,40.81 375.06,40.81 373.84,40.81 372.63,40.81 371.41,40.81 370.20,40.81 368.99,40.81 367.77,40.81 366.56,40.81 365.34,40.81 364.13,40.81 362.91,40.81 361.70,40.81 360.49,40.81 359.27,40.81 358.06,40.81 356.84,40.81 355.63,40.81 354.41,40.81 353.20,40.81 351.98,40.81 350.77,40.81 349.56,40.81 348.34,40.81 347.13,40.81 345.91,40.81 344.70,40.81 343.48,40.81 342.27,40.81 341.05,40.81 339.84,40.81 338.63,40.81 337.41,40.81 336.20,40.81 334.98,40.81 333.77,40.81 332.55,40.81 331.34,40.81 330.13,40.81 328.91,40.81 327.70,40.81 326.48,40.81 325.27,40.81 324.05,40.81 322.84,40.81 321.62,40.81 320.41,40.81 319.20,40.81 317.98,40.81 316.77,40.81 315.55,40.81 314.34,40.81 313.12,40.81 311.91,40.81 310.69,40.81 309.48,40.81 308.27,40.81 307.05,40.81 305.84,40.81 304.62,40.81 303.41,40.81 302.19,40.81 300.98,40.81 299.77,40.81 298.55,40.81 297.34,40.81 296.12,40.81 294.91,40.81 293.69,40.81 292.48,40.81 291.26,40.81 290.05,40.81 288.84,40.81 287.62,40.81 286.41,40.81 285.19,40.81 283.98,40.81 282.76,40.81 281.55,40.81 280.33,40.81 279.12,40.81 277.91,40.81 276.69,40.81 275.48,40.81 274.26,40.81 273.05,40.81 271.83,40.81 270.62,40.81 269.41,40.81 268.19,40.81 266.98,40.81 265.76,40.81 264.55,40.81 263.33,40.81 262.12,40.81 260.90,40.81 259.69,40.81 258.48,40.81 257.26,40.81 256.05,40.81 254.83,40.81 253.62,40.81 252.40,40.81 251.19,40.81 249.97,40.81 248.76,40.81 247.55,40.81 246.33,40.81 245.12,40.81 243.90,40.81 242.69,40.81 241.47,40.81 240.26,40.81 239.05,40.81 237.83,40.81 236.62,40.81 235.40,40.81 234.19,40.81 232.97,40.81 231.76,40.81 230.54,40.81 229.33,40.81 228.12,40.81 226.90,40.81 225.69,40.81 224.47,40.81 223.26,40.81 222.04,40.81 220.83,40.81 219.62,40.81 218.40,40.81 217.19,40.81 215.97,40.81 214.76,40.81 213.54,40.81 212.33,40.81 211.11,40.81 209.90,40.81 208.69,40.81 207.47,40.81 206.26,40.81 205.04,40.81 203.83,40.81 202.61,40.81 201.40,40.81 200.18,40.81 198.97,40.81 197.76,40.81 196.54,40.81 195.33,40.81 194.11,40.81 192.90,40.81 191.68,40.81 190.47,40.81 189.26,40.81 188.04,40.81 186.83,40.81 185.61,40.81 184.40,40.81 183.18,40.81 181.97,40.81 180.75,40.81 179.54,40.81 178.33,40.81 177.11,40.81 175.90,40.81 174.68,40.81 173.47,40.81 172.25,40.81 171.04,40.81 169.82,40.81 168.61,40.81 167.40,40.81 166.18,40.81 164.97,40.81 163.75,40.81 162.54,40.81 161.32,40.81 160.11,40.81 158.90,40.81 157.68,40.81 156.47,40.81 155.25,40.81 154.04,40.81 152.82,40.81 151.61,40.81 150.39,40.81 149.18,40.81 147.97,40.81 146.75,40.81 145.54,40.81 144.32,40.81 143.11,40.81 141.89,40.81 140.68,40.81 139.46,40.81 138.25,40.81 137.04,40.81 135.82,40.81 134.61,40.81 133.39,40.81 132.18,40.81 130.96,40.81 129.75,40.81 128.54,40.81 127.32,40.81 126.11,40.81 124.89,40.81 123.68,40.81 122.46,40.81 121.25,40.81 120.03,40.81 118.82,40.81 117.61,40.81 116.39,40.81 115.18,40.81 113.96,40.81 112.75,40.81 111.53,40.81 110.32,40.81 109.10,40.81 107.89,40.81 106.68,40.81 105.46,40.81 104.25,40.81 103.03,40.81 101.82,40.81 100.60,40.81 99.39,40.81 98.18,40.81 96.96,40.81 95.75,40.81 94.53,40.81 93.32,40.81 92.10,40.81 90.89,40.81 89.67,40.81 88.46,40.81 87.25,40.81 86.03,40.81 84.82,40.81 83.60,40.81 82.39,40.81 81.17,40.81 79.96,40.81 78.74,40.81 77.53,40.81 76.32,40.81 75.10,40.81 73.89,40.81 72.67,40.81 71.46,40.81 70.24,40.81 69.03,40.81 67.82,40.81 66.60,40.81 65.39,40.81 64.17,40.81 62.96,40.81 61.74,40.81 60.53,40.81 59.31,40.81 58.10,40.81 56.89,40.81 55.67,40.81 54.46,40.81 53.24,40.81 52.03,40.81 50.81,40.81 49.60,40.81 48.38,40.81 47.17,40.81 45.96,40.81 44.74,40.81 43.53,40.81 42.31,40.81 41.10,40.81 39.88,40.81 38.67,40.81 37.46,40.81 36.24,40.81 35.03,40.81 33.81,40.81 32.60,40.81 31.38,40.81 30.17,40.81 28.95,40.81 27.74,40.81 26.53,40.81 25.31,40.81 24.10,40.81 22.88,40.81 21.67,40.81 20.45,40.81 19.24,40.81 18.03,40.81 16.81,40.81 15.60,40.81 14.38,40.81 13.17,40.81 11.95,40.81 10.74,40.81 ' style='stroke-width: 0.75; stroke: none; fill: #B3B3B3; fill-opacity: 0.25;' />
<polyline points='10.74,40.81 11.95,40.81 13.17,40.80 14.38,40.80 15.60,40.80 16.81,40.80 18.03,40.80 19.24,40.80 20.45,40.79 21.67,40.79 22.88,40.79 24.10,40.79 25.31,40.78 26.53,40.78 27.74,40.78 28.95,40.77 30.17,40.77 31.38,40.76 32.60,40.75 33.81,40.75 35.03,40.74 36.24,40.73 37.46,40.73 38.67,40.72 39.88,40.71 41.10,40.70 42.31,40.69 43.53,40.67 44.74,40.66 45.96,40.65 47.17,40.63 48.38,40.61 49.60,40.60 50.81,40.58 52.03,40.56 53.24,40.54 54.46,40.51 55.67,40.49 56.89,40.46 58.10,40.44 59.31,40.41 60.53,40.38 61.74,40.35 62.96,40.31 64.17,40.28 65.39,40.24 66.60,40.20 67.82,40.16 69.03,40.12 70.24,40.07 71.46,40.03 72.67,39.98 73.89,39.93 75.10,39.87 76.32,39.82 77.53,39.76 78.74,39.70 79.96,39.64 81.17,39.58 82.39,39.51 83.60,39.45 84.82,39.38 86.03,39.31 87.25,39.23 88.46,39.16 89.67,39.08 90.89,39.00 92.10,38.92 93.32,38.83 94.53,38.75 95.75,38.66 96.96,38.57 98.18,38.48 99.39,38.39 100.60,38.29 101.82,38.20 103.03,38.10 104.25,38.00 105.46,37.90 106.68,37.79 107.89,37.69 109.10,37.58 110.32,37.47 111.53,37.36 112.75,37.25 113.96,37.14 115.18,37.02 116.39,36.90 117.61,36.79 118.82,36.67 120.03,36.55 121.25,36.42 122.46,36.30 123.68,36.18 124.89,36.05 126.11,35.92 127.32,35.79 128.54,35.66 129.75,35.53 130.96,35.40 132.18,35.27 133.39,35.13 134.61,34.99 135.82,34.85 137.04,34.71 138.25,34.57 139.46,34.43 140.68,34.29 141.89,34.14 143.11,33.99 144.32,33.84 145.54,33.69 146.75,33.54 147.97,33.39 149.18,33.23 150.39,33.07 151.61,32.91 152.82,32.75 154.04,32.58 155.25,32.42 156.47,32.25 157.68,32.08 158.90,31.90 160.11,31.73 161.32,31.55 162.54,31.36 163.75,31.18 164.97,30.99 166.18,30.80 167.40,30.61 168.61,30.41 169.82,30.21 171.04,30.00 172.25,29.80 173.47,29.59 174.68,29.37 175.90,29.15 177.11,28.93 178.33,28.71 179.54,28.48 180.75,28.25 181.97,28.01 183.18,27.77 184.40,27.53 185.61,27.28 186.83,27.03 188.04,26.78 189.26,26.52 190.47,26.26 191.68,25.99 192.90,25.73 194.11,25.45 195.33,25.18 196.54,24.90 197.76,24.62 198.97,24.34 200.18,24.05 201.40,23.77 202.61,23.47 203.83,23.18 205.04,22.89 206.26,22.59 207.47,22.29 208.69,21.99 209.90,21.69 211.11,21.39 212.33,21.08 213.54,20.78 214.76,20.48 215.97,20.17 217.19,19.87 218.40,19.56 219.62,19.26 220.83,18.96 222.04,18.66 223.26,18.36 224.47,18.06 225.69,17.77 226.90,17.47 228.12,17.19 229.33,16.90 230.54,16.62 231.76,16.34 232.97,16.07 234.19,15.80 235.40,15.53 236.62,15.28 237.83,15.02 239.05,14.78 240.26,14.53 241.47,14.30 242.69,14.07 243.90,13.85 245.12,13.64 246.33,13.44 247.55,13.24 248.76,13.05 249.97,12.86 251.19,12.69 252.40,12.52 253.62,12.37 254.83,12.22 256.05,12.08 257.26,11.94 258.48,11.82 259.69,11.70 260.90,11.59 262.12,11.49 263.33,11.39 264.55,11.30 265.76,11.22 266.98,11.15 268.19,11.08 269.41,11.02 270.62,10.96 271.83,10.91 273.05,10.86 274.26,10.82 275.48,10.77 276.69,10.74 277.91,10.70 279.12,10.67 280.33,10.64 281.55,10.61 282.76,10.58 283.98,10.55 285.19,10.52 286.41,10.49 287.62,10.45 288.84,10.42 290.05,10.38 291.26,10.34 292.48,10.30 293.69,10.25 294.91,10.20 296.12,10.14 297.34,10.09 298.55,10.02 299.77,9.95 300.98,9.88 302.19,9.80 303.41,9.72 304.62,9.63 305.84,9.54 307.05,9.44 308.27,9.34 309.48,9.23 310.69,9.12 311.91,9.00 313.12,8.88 314.34,8.76 315.55,8.63 316.77,8.50 317.98,8.37 319.20,8.24 320.41,8.11 321.62,7.97 322.84,7.83 324.05,7.70 325.27,7.56 326.48,7.43 327.70,7.30 328.91,7.17 330.13,7.04 331.34,6.91 332.55,6.79 333.77,6.67 334.98,6.56 336.20,6.45 337.41,6.35 338.63,6.25 339.84,6.15 341.05,6.07 342.27,5.98 343.48,5.91 344.70,5.84 345.91,5.78 347.13,5.72 348.34,5.67 349.56,5.62 350.77,5.59 351.98,5.55 353.20,5.53 354.41,5.51 355.63,5.49 356.84,5.48 358.06,5.48 359.27,5.48 360.49,5.49 361.70,5.50 362.91,5.51 364.13,5.53 365.34,5.55 366.56,5.58 367.77,5.60 368.99,5.63 370.20,5.67 371.41,5.70 372.63,5.74 373.84,5.78 375.06,5.82 376.27,5.86 377.49,5.91 378.70,5.95 379.92,6.00 381.13,6.04 382.34,6.09 383.56,6.14 384.77,6.19 385.99,6.25 387.20,6.30 388.42,6.36 389.63,6.42 390.85,6.48 392.06,6.55 393.27,6.62 394.49,6.69 395.70,6.77 396.92,6.85 398.13,6.94 399.35,7.04 400.56,7.14 401.77,7.25 402.99,7.38 404.20,7.51 405.42,7.64 406.63,7.79 407.85,7.95 409.06,8.13 410.28,8.31 411.49,8.51 412.70,8.72 413.92,8.95 415.13,9.18 416.35,9.44 417.56,9.71 418.78,9.99 419.99,10.29 421.20,10.61 422.42,10.94 423.63,11.29 424.85,11.65 426.06,12.02 427.28,12.42 428.49,12.82 429.71,13.24 430.92,13.67 432.13,14.12 433.35,14.57 434.56,15.04 435.78,15.52 436.99,16.00 438.21,16.50 439.42,17.00 440.64,17.51 441.85,18.02 443.06,18.54 444.28,19.06 445.49,19.58 446.71,20.11 447.92,20.63 449.14,21.15 450.35,21.67 451.56,22.19 452.78,22.70 453.99,23.20 455.21,23.71 456.42,24.20 457.64,24.68 458.85,25.16 460.07,25.63 461.28,26.08 462.49,26.53 463.71,26.97 464.92,27.39 466.14,27.80 467.35,28.20 468.57,28.59 469.78,28.97 471.00,29.33 472.21,29.68 473.42,30.02 474.64,30.34 475.85,30.65 477.07,30.95 478.28,31.24 479.50,31.51 480.71,31.77 481.92,32.02 483.14,32.25 484.35,32.47 485.57,32.68 486.78,32.88 488.00,33.07 489.21,33.25 490.43,33.41 491.64,33.57 492.85,33.71 494.07,33.84 495.28,33.97 496.50,34.08 497.71,34.18 498.93,34.27 500.14,34.36 501.36,34.43 502.57,34.50 503.78,34.55 505.00,34.60 506.21,34.64 507.43,34.67 508.64,34.70 509.86,34.72 511.07,34.73 512.28,34.74 513.50,34.74 514.71,34.73 515.93,34.72 517.14,34.71 518.36,34.69 519.57,34.67 520.79,34.65 522.00,34.62 523.21,34.59 524.43,34.57 525.64,34.54 526.86,34.51 528.07,34.48 529.29,34.46 530.50,34.43 531.72,34.41 532.93,34.40 534.14,34.39 535.36,34.38 536.57,34.37 537.79,34.38 539.00,34.38 540.22,34.40 541.43,34.42 542.64,34.44 543.86,34.48 545.07,34.52 546.29,34.57 547.50,34.62 548.72,34.69 549.93,34.76 551.15,34.84 552.36,34.92 553.57,35.02 554.79,35.11 556.00,35.22 557.22,35.33 558.43,35.45 559.65,35.57 560.86,35.70 562.08,35.84 563.29,35.98 564.50,36.12 565.72,36.26 566.93,36.41 568.15,36.56 569.36,36.71 570.58,36.86 571.79,37.02 573.00,37.17 574.22,37.32 575.43,37.48 576.65,37.63 577.86,37.78 579.08,37.92 580.29,38.07 581.51,38.21 582.72,38.35 583.93,38.49 585.15,38.62 586.36,38.75 587.58,38.87 588.79,38.99 590.01,39.11 591.22,39.22 592.43,39.32 593.65,39.42 594.86,39.52 596.08,39.61 597.29,39.70 598.51,39.79 599.72,39.86 600.94,39.94 602.15,40.01 603.36,40.07 604.58,40.13 605.79,40.19 607.01,40.25 608.22,40.30 609.44,40.34 610.65,40.38 611.87,40.42 613.08,40.46 614.29,40.49 615.51,40.53 616.72,40.55 617.94,40.58 619.15,40.60 620.37,40.63 621.58,40.65 622.79,40.66 624.01,40.68 625.22,40.69 626.44,40.71 627.65,40.72 628.87,40.73 630.08,40.74 631.30,40.75 ' style='stroke-width: 1.07;' />
</g>
<g clip-path='url(#cpMC4wMHw1NzYuMDB8MC4wMHwxODAuMDA=)'>
<polyline points='35.87,74.23 35.87,71.49 ' style='stroke-width: 1.07; stroke-linecap: butt;' />
<polyline points='137.71,74.23 137.71,71.49 ' style='stroke-width: 1.07; stroke-linecap: butt;' />
<polyline points='239.55,74.23 239.55,71.49 ' style='stroke-width: 1.07; stroke-linecap: butt;' />
<polyline points='341.38,74.23 341.38,71.49 ' style='stroke-width: 1.07; stroke-linecap: butt;' />
<polyline points='443.22,74.23 443.22,71.49 ' style='stroke-width: 1.07; stroke-linecap: butt;' />
<polyline points='545.06,74.23 545.06,71.49 ' style='stroke-width: 1.07; stroke-linecap: butt;' />
<text x='35.87' y='82.72' text-anchor='middle' style='font-size: 8.80px; fill: #4D4D4D; font-family: Arial;' textLength='4.90px' lengthAdjust='spacingAndGlyphs'>2</text>
<text x='137.71' y='82.72' text-anchor='middle' style='font-size: 8.80px; fill: #4D4D4D; font-family: Arial;' textLength='4.90px' lengthAdjust='spacingAndGlyphs'>3</text>
<text x='239.55' y='82.72' text-anchor='middle' style='font-size: 8.80px; fill: #4D4D4D; font-family: Arial;' textLength='4.90px' lengthAdjust='spacingAndGlyphs'>4</text>
<text x='341.38' y='82.72' text-anchor='middle' style='font-size: 8.80px; fill: #4D4D4D; font-family: Arial;' textLength='4.90px' lengthAdjust='spacingAndGlyphs'>5</text>
<text x='443.22' y='82.72' text-anchor='middle' style='font-size: 8.80px; fill: #4D4D4D; font-family: Arial;' textLength='4.90px' lengthAdjust='spacingAndGlyphs'>6</text>
<text x='545.06' y='82.72' text-anchor='middle' style='font-size: 8.80px; fill: #4D4D4D; font-family: Arial;' textLength='4.90px' lengthAdjust='spacingAndGlyphs'>7</text>
</g>
<defs>
  <clipPath id='cpMC4wMHw1NzYuMDB8OTAuMDB8MTgwLjAw'>
    <rect x='0.000000000000050' y='90.00' width='576.00' height='90.00' />
  </clipPath>
</defs>
<g clip-path='url(#cpMC4wMHw1NzYuMDB8OTAuMDB8MTgwLjAw)'>
<rect x='0.000000000000064' y='90.00' width='576.00' height='90.00' style='stroke-width: 1.07; stroke: #FFFFFF; fill: #FFFFFF;' />
</g>
<g clip-path='url(#cpMC4wMHw1NzYuMDB8MC4wMHwxODAuMDA=)'>
</g>
<defs>
  <clipPath id='cpMTAuNDF8NTcwLjUyfDk1LjQ4fDE0OC43MQ=='>
    <rect x='10.41' y='95.48' width='560.11' height='53.23' />
  </clipPath>
</defs>
<g clip-path='url(#cpMTAuNDF8NTcwLjUyfDk1LjQ4fDE0OC43MQ==)'>
<rect x='10.41' y='95.48' width='560.11' height='53.23' style='stroke-width: 1.07; stroke: none; fill: #FFFFFF;' />
<polyline points='86.79,148.71 86.79,95.48 ' style='stroke-width: 0.53; stroke: #EBEBEB; stroke-linecap: butt;' />
<polyline points='188.63,148.71 188.63,95.48 ' style='stroke-width: 0.53; stroke: #EBEBEB; stroke-linecap: butt;' />
<polyline points='290.47,148.71 290.47,95.48 ' style='stroke-width: 0.53; stroke: #EBEBEB; stroke-linecap: butt;' />
<polyline points='392.30,148.71 392.30,95.48 ' style='stroke-width: 0.53; stroke: #EBEBEB; stroke-linecap: butt;' />
<polyline points='494.14,148.71 494.14,95.48 ' style='stroke-width: 0.53; stroke: #EBEBEB; stroke-linecap: butt;' />
<polyline points='10.41,122.20 570.52,122.20 ' style='stroke-width: 1.07; stroke: #EBEBEB; stroke-linecap: butt;' />
<polyline points='35.87,148.71 35.87,95.48 ' style='stroke-width: 1.07; stroke: #EBEBEB; stroke-linecap: butt;' />
<polyline points='137.71,148.71 137.71,95.48 ' style='stroke-width: 1.07; stroke: #EBEBEB; stroke-linecap: butt;' />
<polyline points='239.55,148.71 239.55,95.48 ' style='stroke-width: 1.07; stroke: #EBEBEB; stroke-linecap: butt;' />
<polyline points='341.38,148.71 341.38,95.48 ' style='stroke-width: 1.07; stroke: #EBEBEB; stroke-linecap: butt;' />
<polyline points='443.22,148.71 443.22,95.48 ' style='stroke-width: 1.07; stroke: #EBEBEB; stroke-linecap: butt;' />
<polyline points='545.06,148.71 545.06,95.48 ' style='stroke-width: 1.07; stroke: #EBEBEB; stroke-linecap: butt;' />
<circle cx='411.37' cy='125.63' r='3.20' style='stroke-width: 0.00; stroke: #444444; stroke-opacity: 0.10; fill: #444444; fill-opacity: 0.10;' />
<circle cx='509.99' cy='131.35' r='3.20' style='stroke-width: 0.00; stroke: #444444; stroke-opacity: 0.10; fill: #444444; fill-opacity: 0.10;' />
<circle cx='443.13' cy='101.44' r='3.20' style='stroke-width: 0.00; stroke: #444444; stroke-opacity: 0.10; fill: #444444; fill-opacity: 0.10;' />
<circle cx='330.85' cy='117.44' r='3.20' style='stroke-width: 0.00; stroke: #444444; stroke-opacity: 0.10; fill: #444444; fill-opacity: 0.10;' />
<circle cx='312.82' cy='130.41' r='3.20' style='stroke-width: 0.00; stroke: #444444; stroke-opacity: 0.10; fill: #444444; fill-opacity: 0.10;' />
<circle cx='339.13' cy='107.30' r='3.20' style='stroke-width: 0.00; stroke: #444444; stroke-opacity: 0.10; fill: #444444; fill-opacity: 0.10;' />
<circle cx='236.95' cy='120.76' r='3.20' style='stroke-width: 0.00; stroke: #444444; stroke-opacity: 0.10; fill: #444444; fill-opacity: 0.10;' />
<circle cx='310.39' cy='113.89' r='3.20' style='stroke-width: 0.00; stroke: #444444; stroke-opacity: 0.10; fill: #444444; fill-opacity: 0.10;' />
<circle cx='215.71' cy='103.65' r='3.20' style='stroke-width: 0.00; stroke: #444444; stroke-opacity: 0.10; fill: #444444; fill-opacity: 0.10;' />
<circle cx='181.02' cy='107.28' r='3.20' style='stroke-width: 0.00; stroke: #444444; stroke-opacity: 0.10; fill: #444444; fill-opacity: 0.10;' />
<circle cx='424.56' cy='133.67' r='3.20' style='stroke-width: 0.00; stroke: #444444; stroke-opacity: 0.10; fill: #444444; fill-opacity: 0.10;' />
<circle cx='381.69' cy='133.58' r='3.20' style='stroke-width: 0.00; stroke: #444444; stroke-opacity: 0.10; fill: #444444; fill-opacity: 0.10;' />
<circle cx='183.29' cy='123.11' r='3.20' style='stroke-width: 0.00; stroke: #444444; stroke-opacity: 0.10; fill: #444444; fill-opacity: 0.10;' />
<circle cx='393.45' cy='126.36' r='3.20' style='stroke-width: 0.00; stroke: #444444; stroke-opacity: 0.10; fill: #444444; fill-opacity: 0.10;' />
<circle cx='440.31' cy='144.58' r='3.20' style='stroke-width: 0.00; stroke: #444444; stroke-opacity: 0.10; fill: #444444; fill-opacity: 0.10;' />
<circle cx='238.73' cy='108.70' r='3.20' style='stroke-width: 0.00; stroke: #444444; stroke-opacity: 0.10; fill: #444444; fill-opacity: 0.10;' />
<circle cx='222.74' cy='122.18' r='3.20' style='stroke-width: 0.00; stroke: #444444; stroke-opacity: 0.10; fill: #444444; fill-opacity: 0.10;' />
<circle cx='193.46' cy='107.94' r='3.20' style='stroke-width: 0.00; stroke: #444444; stroke-opacity: 0.10; fill: #444444; fill-opacity: 0.10;' />
<circle cx='177.47' cy='133.40' r='3.20' style='stroke-width: 0.00; stroke: #444444; stroke-opacity: 0.10; fill: #444444; fill-opacity: 0.10;' />
<circle cx='358.73' cy='144.93' r='3.20' style='stroke-width: 0.00; stroke: #444444; stroke-opacity: 0.10; fill: #444444; fill-opacity: 0.10;' />
<circle cx='379.88' cy='116.26' r='3.20' style='stroke-width: 0.00; stroke: #444444; stroke-opacity: 0.10; fill: #444444; fill-opacity: 0.10;' />
<circle cx='265.34' cy='146.29' r='3.20' style='stroke-width: 0.00; stroke: #444444; stroke-opacity: 0.10; fill: #444444; fill-opacity: 0.10;' />
<circle cx='376.83' cy='105.87' r='3.20' style='stroke-width: 0.00; stroke: #444444; stroke-opacity: 0.10; fill: #444444; fill-opacity: 0.10;' />
<circle cx='121.86' cy='145.34' r='3.20' style='stroke-width: 0.00; stroke: #444444; stroke-opacity: 0.10; fill: #444444; fill-opacity: 0.10;' />
<circle cx='229.87' cy='124.89' r='3.20' style='stroke-width: 0.00; stroke: #444444; stroke-opacity: 0.10; fill: #444444; fill-opacity: 0.10;' />
<circle cx='360.59' cy='111.68' r='3.20' style='stroke-width: 0.00; stroke: #444444; stroke-opacity: 0.10; fill: #444444; fill-opacity: 0.10;' />
<circle cx='256.71' cy='106.05' r='3.20' style='stroke-width: 0.00; stroke: #444444; stroke-opacity: 0.10; fill: #444444; fill-opacity: 0.10;' />
<circle cx='406.08' cy='125.09' r='3.20' style='stroke-width: 0.00; stroke: #444444; stroke-opacity: 0.10; fill: #444444; fill-opacity: 0.10;' />
<circle cx='473.05' cy='125.59' r='3.20' style='stroke-width: 0.00; stroke: #444444; stroke-opacity: 0.10; fill: #444444; fill-opacity: 0.10;' />
<circle cx='259.68' cy='136.23' r='3.20' style='stroke-width: 0.00; stroke: #444444; stroke-opacity: 0.10; fill: #444444; fill-opacity: 0.10;' />
<circle cx='356.59' cy='115.25' r='3.20' style='stroke-width: 0.00; stroke: #444444; stroke-opacity: 0.10; fill: #444444; fill-opacity: 0.10;' />
<circle cx='304.61' cy='135.32' r='3.20' style='stroke-width: 0.00; stroke: #444444; stroke-opacity: 0.10; fill: #444444; fill-opacity: 0.10;' />
<circle cx='329.13' cy='99.66' r='3.20' style='stroke-width: 0.00; stroke: #444444; stroke-opacity: 0.10; fill: #444444; fill-opacity: 0.10;' />
<circle cx='378.81' cy='119.96' r='3.20' style='stroke-width: 0.00; stroke: #444444; stroke-opacity: 0.10; fill: #444444; fill-opacity: 0.10;' />
<circle cx='157.13' cy='116.65' r='3.20' style='stroke-width: 0.00; stroke: #444444; stroke-opacity: 0.10; fill: #444444; fill-opacity: 0.10;' />
<circle cx='227.51' cy='126.61' r='3.20' style='stroke-width: 0.00; stroke: #444444; stroke-opacity: 0.10; fill: #444444; fill-opacity: 0.10;' />
<circle cx='309.19' cy='112.04' r='3.20' style='stroke-width: 0.00; stroke: #444444; stroke-opacity: 0.10; fill: #444444; fill-opacity: 0.10;' />
<circle cx='396.81' cy='101.28' r='3.20' style='stroke-width: 0.00; stroke: #444444; stroke-opacity: 0.10; fill: #444444; fill-opacity: 0.10;' />
<circle cx='294.09' cy='144.74' r='3.20' style='stroke-width: 0.00; stroke: #444444; stroke-opacity: 0.10; fill: #444444; fill-opacity: 0.10;' />
<circle cx='341.59' cy='119.65' r='3.20' style='stroke-width: 0.00; stroke: #444444; stroke-opacity: 0.10; fill: #444444; fill-opacity: 0.10;' />
<circle cx='425.40' cy='104.95' r='3.20' style='stroke-width: 0.00; stroke: #444444; stroke-opacity: 0.10; fill: #444444; fill-opacity: 0.10;' />
<circle cx='176.66' cy='126.72' r='3.20' style='stroke-width: 0.00; stroke: #444444; stroke-opacity: 0.10; fill: #444444; fill-opacity: 0.10;' />
<circle cx='130.71' cy='143.08' r='3.20' style='stroke-width: 0.00; stroke: #444444; stroke-opacity: 0.10; fill: #444444; fill-opacity: 0.10;' />
<circle cx='393.64' cy='122.04' r='3.20' style='stroke-width: 0.00; stroke: #444444; stroke-opacity: 0.10; fill: #444444; fill-opacity: 0.10;' />
<circle cx='408.94' cy='102.97' r='3.20' style='stroke-width: 0.00; stroke: #444444; stroke-opacity: 0.10; fill: #444444; fill-opacity: 0.10;' />
<circle cx='437.83' cy='131.62' r='3.20' style='stroke-width: 0.00; stroke: #444444; stroke-opacity: 0.10; fill: #444444; fill-opacity: 0.10;' />
<circle cx='404.23' cy='124.98' r='3.20' style='stroke-width: 0.00; stroke: #444444; stroke-opacity: 0.10; fill: #444444; fill-opacity: 0.10;' />
<circle cx='356.25' cy='114.95' r='3.20' style='stroke-width: 0.00; stroke: #444444; stroke-opacity: 0.10; fill: #444444; fill-opacity: 0.10;' />
<circle cx='417.64' cy='102.23' r='3.20' style='stroke-width: 0.00; stroke: #444444; stroke-opacity: 0.10; fill: #444444; fill-opacity: 0.10;' />
<circle cx='182.79' cy='137.23' r='3.20' style='stroke-width: 0.00; stroke: #444444; stroke-opacity: 0.10; fill: #444444; fill-opacity: 0.10;' />
<circle cx='264.11' cy='143.37' r='3.20' style='stroke-width: 0.00; stroke: #444444; stroke-opacity: 0.10; fill: #444444; fill-opacity: 0.10;' />
<circle cx='381.02' cy='113.91' r='3.20' style='stroke-width: 0.00; stroke: #444444; stroke-opacity: 0.10; fill: #444444; fill-opacity: 0.10;' />
<circle cx='342.47' cy='99.43' r='3.20' style='stroke-width: 0.00; stroke: #444444; stroke-opacity: 0.10; fill: #444444; fill-opacity: 0.10;' />
<circle cx='462.31' cy='130.25' r='3.20' style='stroke-width: 0.00; stroke: #444444; stroke-opacity: 0.10; fill: #444444; fill-opacity: 0.10;' />
<circle cx='547.53' cy='135.17' r='3.20' style='stroke-width: 0.00; stroke: #444444; stroke-opacity: 0.10; fill: #444444; fill-opacity: 0.10;' />
<circle cx='344.37' cy='118.74' r='3.20' style='stroke-width: 0.00; stroke: #444444; stroke-opacity: 0.10; fill: #444444; fill-opacity: 0.10;' />
<circle cx='259.38' cy='107.82' r='3.20' style='stroke-width: 0.00; stroke: #444444; stroke-opacity: 0.10; fill: #444444; fill-opacity: 0.10;' />
<circle cx='489.67' cy='124.55' r='3.20' style='stroke-width: 0.00; stroke: #444444; stroke-opacity: 0.10; fill: #444444; fill-opacity: 0.10;' />
<circle cx='374.26' cy='103.67' r='3.20' style='stroke-width: 0.00; stroke: #444444; stroke-opacity: 0.10; fill: #444444; fill-opacity: 0.10;' />
<circle cx='161.95' cy='125.88' r='3.20' style='stroke-width: 0.00; stroke: #444444; stroke-opacity: 0.10; fill: #444444; fill-opacity: 0.10;' />
<circle cx='396.24' cy='132.65' r='3.20' style='stroke-width: 0.00; stroke: #444444; stroke-opacity: 0.10; fill: #444444; fill-opacity: 0.10;' />
<circle cx='373.52' cy='115.90' r='3.20' style='stroke-width: 0.00; stroke: #444444; stroke-opacity: 0.10; fill: #444444; fill-opacity: 0.10;' />
<circle cx='346.62' cy='145.07' r='3.20' style='stroke-width: 0.00; stroke: #444444; stroke-opacity: 0.10; fill: #444444; fill-opacity: 0.10;' />
<circle cx='124.11' cy='129.05' r='3.20' style='stroke-width: 0.00; stroke: #444444; stroke-opacity: 0.10; fill: #444444; fill-opacity: 0.10;' />
<circle cx='410.09' cy='127.95' r='3.20' style='stroke-width: 0.00; stroke: #444444; stroke-opacity: 0.10; fill: #444444; fill-opacity: 0.10;' />
<circle cx='306.34' cy='102.80' r='3.20' style='stroke-width: 0.00; stroke: #444444; stroke-opacity: 0.10; fill: #444444; fill-opacity: 0.10;' />
<circle cx='266.96' cy='122.64' r='3.20' style='stroke-width: 0.00; stroke: #444444; stroke-opacity: 0.10; fill: #444444; fill-opacity: 0.10;' />
<circle cx='451.37' cy='109.75' r='3.20' style='stroke-width: 0.00; stroke: #444444; stroke-opacity: 0.10; fill: #444444; fill-opacity: 0.10;' />
<circle cx='409.18' cy='109.04' r='3.20' style='stroke-width: 0.00; stroke: #444444; stroke-opacity: 0.10; fill: #444444; fill-opacity: 0.10;' />
<circle cx='545.12' cy='109.23' r='3.20' style='stroke-width: 0.00; stroke: #444444; stroke-opacity: 0.10; fill: #444444; fill-opacity: 0.10;' />
<circle cx='397.06' cy='132.10' r='3.20' style='stroke-width: 0.00; stroke: #444444; stroke-opacity: 0.10; fill: #444444; fill-opacity: 0.10;' />
<circle cx='243.50' cy='116.48' r='3.20' style='stroke-width: 0.00; stroke: #444444; stroke-opacity: 0.10; fill: #444444; fill-opacity: 0.10;' />
<circle cx='380.33' cy='145.86' r='3.20' style='stroke-width: 0.00; stroke: #444444; stroke-opacity: 0.10; fill: #444444; fill-opacity: 0.10;' />
<circle cx='321.95' cy='99.12' r='3.20' style='stroke-width: 0.00; stroke: #444444; stroke-opacity: 0.10; fill: #444444; fill-opacity: 0.10;' />
<circle cx='310.18' cy='112.32' r='3.20' style='stroke-width: 0.00; stroke: #444444; stroke-opacity: 0.10; fill: #444444; fill-opacity: 0.10;' />
<circle cx='326.04' cy='101.46' r='3.20' style='stroke-width: 0.00; stroke: #444444; stroke-opacity: 0.10; fill: #444444; fill-opacity: 0.10;' />
<circle cx='243.64' cy='103.58' r='3.20' style='stroke-width: 0.00; stroke: #444444; stroke-opacity: 0.10; fill: #444444; fill-opacity: 0.10;' />
<circle cx='265.67' cy='111.96' r='3.20' style='stroke-width: 0.00; stroke: #444444; stroke-opacity: 0.10; fill: #444444; fill-opacity: 0.10;' />
<circle cx='269.19' cy='133.47' r='3.20' style='stroke-width: 0.00; stroke: #444444; stroke-opacity: 0.10; fill: #444444; fill-opacity: 0.10;' />
<circle cx='341.58' cy='126.15' r='3.20' style='stroke-width: 0.00; stroke: #444444; stroke-opacity: 0.10; fill: #444444; fill-opacity: 0.10;' />
<circle cx='355.12' cy='118.03' r='3.20' style='stroke-width: 0.00; stroke: #444444; stroke-opacity: 0.10; fill: #444444; fill-opacity: 0.10;' />
<circle cx='264.23' cy='133.31' r='3.20' style='stroke-width: 0.00; stroke: #444444; stroke-opacity: 0.10; fill: #444444; fill-opacity: 0.10;' />
<circle cx='384.97' cy='124.47' r='3.20' style='stroke-width: 0.00; stroke: #444444; stroke-opacity: 0.10; fill: #444444; fill-opacity: 0.10;' />
<circle cx='279.23' cy='108.89' r='3.20' style='stroke-width: 0.00; stroke: #444444; stroke-opacity: 0.10; fill: #444444; fill-opacity: 0.10;' />
<circle cx='387.76' cy='127.03' r='3.20' style='stroke-width: 0.00; stroke: #444444; stroke-opacity: 0.10; fill: #444444; fill-opacity: 0.10;' />
<circle cx='445.64' cy='125.37' r='3.20' style='stroke-width: 0.00; stroke: #444444; stroke-opacity: 0.10; fill: #444444; fill-opacity: 0.10;' />
<circle cx='236.08' cy='106.81' r='3.20' style='stroke-width: 0.00; stroke: #444444; stroke-opacity: 0.10; fill: #444444; fill-opacity: 0.10;' />
<circle cx='408.02' cy='114.01' r='3.20' style='stroke-width: 0.00; stroke: #444444; stroke-opacity: 0.10; fill: #444444; fill-opacity: 0.10;' />
<circle cx='383.77' cy='126.36' r='3.20' style='stroke-width: 0.00; stroke: #444444; stroke-opacity: 0.10; fill: #444444; fill-opacity: 0.10;' />
<circle cx='312.00' cy='121.39' r='3.20' style='stroke-width: 0.00; stroke: #444444; stroke-opacity: 0.10; fill: #444444; fill-opacity: 0.10;' />
<circle cx='351.34' cy='113.34' r='3.20' style='stroke-width: 0.00; stroke: #444444; stroke-opacity: 0.10; fill: #444444; fill-opacity: 0.10;' />
<circle cx='537.73' cy='142.83' r='3.20' style='stroke-width: 0.00; stroke: #444444; stroke-opacity: 0.10; fill: #444444; fill-opacity: 0.10;' />
<circle cx='432.29' cy='130.01' r='3.20' style='stroke-width: 0.00; stroke: #444444; stroke-opacity: 0.10; fill: #444444; fill-opacity: 0.10;' />
<circle cx='191.15' cy='145.23' r='3.20' style='stroke-width: 0.00; stroke: #444444; stroke-opacity: 0.10; fill: #444444; fill-opacity: 0.10;' />
<circle cx='305.68' cy='120.73' r='3.20' style='stroke-width: 0.00; stroke: #444444; stroke-opacity: 0.10; fill: #444444; fill-opacity: 0.10;' />
<circle cx='331.86' cy='144.40' r='3.20' style='stroke-width: 0.00; stroke: #444444; stroke-opacity: 0.10; fill: #444444; fill-opacity: 0.10;' />
<circle cx='271.35' cy='114.97' r='3.20' style='stroke-width: 0.00; stroke: #444444; stroke-opacity: 0.10; fill: #444444; fill-opacity: 0.10;' />
<circle cx='459.22' cy='109.59' r='3.20' style='stroke-width: 0.00; stroke: #444444; stroke-opacity: 0.10; fill: #444444; fill-opacity: 0.10;' />
<circle cx='316.87' cy='129.86' r='3.20' style='stroke-width: 0.00; stroke: #444444; stroke-opacity: 0.10; fill: #444444; fill-opacity: 0.10;' />
<circle cx='216.69' cy='139.48' r='3.20' style='stroke-width: 0.00; stroke: #444444; stroke-opacity: 0.10; fill: #444444; fill-opacity: 0.10;' />
<circle cx='438.83' cy='103.91' r='3.20' style='stroke-width: 0.00; stroke: #444444; stroke-opacity: 0.10; fill: #444444; fill-opacity: 0.10;' />
<circle cx='270.10' cy='123.31' r='3.20' style='stroke-width: 0.00; stroke: #444444; stroke-opacity: 0.10; fill: #444444; fill-opacity: 0.10;' />
<circle cx='419.16' cy='98.50' r='3.20' style='stroke-width: 0.00; stroke: #444444; stroke-opacity: 0.10; fill: #444444; fill-opacity: 0.10;' />
<circle cx='269.69' cy='143.55' r='3.20' style='stroke-width: 0.00; stroke: #444444; stroke-opacity: 0.10; fill: #444444; fill-opacity: 0.10;' />
<circle cx='409.62' cy='119.89' r='3.20' style='stroke-width: 0.00; stroke: #444444; stroke-opacity: 0.10; fill: #444444; fill-opacity: 0.10;' />
<circle cx='107.85' cy='138.72' r='3.20' style='stroke-width: 0.00; stroke: #444444; stroke-opacity: 0.10; fill: #444444; fill-opacity: 0.10;' />
<circle cx='257.06' cy='107.57' r='3.20' style='stroke-width: 0.00; stroke: #444444; stroke-opacity: 0.10; fill: #444444; fill-opacity: 0.10;' />
<circle cx='365.47' cy='112.44' r='3.20' style='stroke-width: 0.00; stroke: #444444; stroke-opacity: 0.10; fill: #444444; fill-opacity: 0.10;' />
<circle cx='404.94' cy='141.52' r='3.20' style='stroke-width: 0.00; stroke: #444444; stroke-opacity: 0.10; fill: #444444; fill-opacity: 0.10;' />
<circle cx='328.62' cy='140.77' r='3.20' style='stroke-width: 0.00; stroke: #444444; stroke-opacity: 0.10; fill: #444444; fill-opacity: 0.10;' />
<circle cx='128.83' cy='129.50' r='3.20' style='stroke-width: 0.00; stroke: #444444; stroke-opacity: 0.10; fill: #444444; fill-opacity: 0.10;' />
<circle cx='412.32' cy='100.29' r='3.20' style='stroke-width: 0.00; stroke: #444444; stroke-opacity: 0.10; fill: #444444; fill-opacity: 0.10;' />
<circle cx='237.40' cy='140.67' r='3.20' style='stroke-width: 0.00; stroke: #444444; stroke-opacity: 0.10; fill: #444444; fill-opacity: 0.10;' />
<circle cx='207.79' cy='119.57' r='3.20' style='stroke-width: 0.00; stroke: #444444; stroke-opacity: 0.10; fill: #444444; fill-opacity: 0.10;' />
<circle cx='400.48' cy='125.42' r='3.20' style='stroke-width: 0.00; stroke: #444444; stroke-opacity: 0.10; fill: #444444; fill-opacity: 0.10;' />
<circle cx='323.29' cy='129.81' r='3.20' style='stroke-width: 0.00; stroke: #444444; stroke-opacity: 0.10; fill: #444444; fill-opacity: 0.10;' />
<circle cx='304.75' cy='115.00' r='3.20' style='stroke-width: 0.00; stroke: #444444; stroke-opacity: 0.10; fill: #444444; fill-opacity: 0.10;' />
<circle cx='286.96' cy='134.04' r='3.20' style='stroke-width: 0.00; stroke: #444444; stroke-opacity: 0.10; fill: #444444; fill-opacity: 0.10;' />
<circle cx='285.61' cy='142.59' r='3.20' style='stroke-width: 0.00; stroke: #444444; stroke-opacity: 0.10; fill: #444444; fill-opacity: 0.10;' />
<circle cx='430.73' cy='138.28' r='3.20' style='stroke-width: 0.00; stroke: #444444; stroke-opacity: 0.10; fill: #444444; fill-opacity: 0.10;' />
<circle cx='269.65' cy='114.47' r='3.20' style='stroke-width: 0.00; stroke: #444444; stroke-opacity: 0.10; fill: #444444; fill-opacity: 0.10;' />
<circle cx='193.30' cy='142.65' r='3.20' style='stroke-width: 0.00; stroke: #444444; stroke-opacity: 0.10; fill: #444444; fill-opacity: 0.10;' />
<circle cx='274.25' cy='102.01' r='3.20' style='stroke-width: 0.00; stroke: #444444; stroke-opacity: 0.10; fill: #444444; fill-opacity: 0.10;' />
<circle cx='405.77' cy='97.90' r='3.20' style='stroke-width: 0.00; stroke: #444444; stroke-opacity: 0.10; fill: #444444; fill-opacity: 0.10;' />
<circle cx='157.87' cy='113.47' r='3.20' style='stroke-width: 0.00; stroke: #444444; stroke-opacity: 0.10; fill: #444444; fill-opacity: 0.10;' />
<circle cx='389.66' cy='143.94' r='3.20' style='stroke-width: 0.00; stroke: #444444; stroke-opacity: 0.10; fill: #444444; fill-opacity: 0.10;' />
<circle cx='400.44' cy='123.63' r='3.20' style='stroke-width: 0.00; stroke: #444444; stroke-opacity: 0.10; fill: #444444; fill-opacity: 0.10;' />
<circle cx='270.03' cy='114.74' r='3.20' style='stroke-width: 0.00; stroke: #444444; stroke-opacity: 0.10; fill: #444444; fill-opacity: 0.10;' />
<circle cx='215.67' cy='111.36' r='3.20' style='stroke-width: 0.00; stroke: #444444; stroke-opacity: 0.10; fill: #444444; fill-opacity: 0.10;' />
<circle cx='353.45' cy='118.38' r='3.20' style='stroke-width: 0.00; stroke: #444444; stroke-opacity: 0.10; fill: #444444; fill-opacity: 0.10;' />
<circle cx='264.41' cy='129.59' r='3.20' style='stroke-width: 0.00; stroke: #444444; stroke-opacity: 0.10; fill: #444444; fill-opacity: 0.10;' />
<circle cx='240.54' cy='109.82' r='3.20' style='stroke-width: 0.00; stroke: #444444; stroke-opacity: 0.10; fill: #444444; fill-opacity: 0.10;' />
<circle cx='356.79' cy='137.64' r='3.20' style='stroke-width: 0.00; stroke: #444444; stroke-opacity: 0.10; fill: #444444; fill-opacity: 0.10;' />
<circle cx='304.58' cy='120.84' r='3.20' style='stroke-width: 0.00; stroke: #444444; stroke-opacity: 0.10; fill: #444444; fill-opacity: 0.10;' />
<circle cx='217.25' cy='123.73' r='3.20' style='stroke-width: 0.00; stroke: #444444; stroke-opacity: 0.10; fill: #444444; fill-opacity: 0.10;' />
<circle cx='350.06' cy='99.62' r='3.20' style='stroke-width: 0.00; stroke: #444444; stroke-opacity: 0.10; fill: #444444; fill-opacity: 0.10;' />
<circle cx='318.97' cy='122.94' r='3.20' style='stroke-width: 0.00; stroke: #444444; stroke-opacity: 0.10; fill: #444444; fill-opacity: 0.10;' />
<circle cx='405.51' cy='132.05' r='3.20' style='stroke-width: 0.00; stroke: #444444; stroke-opacity: 0.10; fill: #444444; fill-opacity: 0.10;' />
<circle cx='321.87' cy='108.79' r='3.20' style='stroke-width: 0.00; stroke: #444444; stroke-opacity: 0.10; fill: #444444; fill-opacity: 0.10;' />
<circle cx='275.99' cy='116.69' r='3.20' style='stroke-width: 0.00; stroke: #444444; stroke-opacity: 0.10; fill: #444444; fill-opacity: 0.10;' />
<circle cx='418.59' cy='111.75' r='3.20' style='stroke-width: 0.00; stroke: #444444; stroke-opacity: 0.10; fill: #444444; fill-opacity: 0.10;' />
<circle cx='397.65' cy='101.84' r='3.20' style='stroke-width: 0.00; stroke: #444444; stroke-opacity: 0.10; fill: #444444; fill-opacity: 0.10;' />
<circle cx='297.06' cy='128.26' r='3.20' style='stroke-width: 0.00; stroke: #444444; stroke-opacity: 0.10; fill: #444444; fill-opacity: 0.10;' />
<circle cx='246.43' cy='123.31' r='3.20' style='stroke-width: 0.00; stroke: #444444; stroke-opacity: 0.10; fill: #444444; fill-opacity: 0.10;' />
<circle cx='276.87' cy='117.48' r='3.20' style='stroke-width: 0.00; stroke: #444444; stroke-opacity: 0.10; fill: #444444; fill-opacity: 0.10;' />
<circle cx='150.65' cy='135.03' r='3.20' style='stroke-width: 0.00; stroke: #444444; stroke-opacity: 0.10; fill: #444444; fill-opacity: 0.10;' />
<circle cx='325.41' cy='112.77' r='3.20' style='stroke-width: 0.00; stroke: #444444; stroke-opacity: 0.10; fill: #444444; fill-opacity: 0.10;' />
<circle cx='324.80' cy='112.09' r='3.20' style='stroke-width: 0.00; stroke: #444444; stroke-opacity: 0.10; fill: #444444; fill-opacity: 0.10;' />
<circle cx='250.68' cy='124.64' r='3.20' style='stroke-width: 0.00; stroke: #444444; stroke-opacity: 0.10; fill: #444444; fill-opacity: 0.10;' />
<circle cx='424.60' cy='129.70' r='3.20' style='stroke-width: 0.00; stroke: #444444; stroke-opacity: 0.10; fill: #444444; fill-opacity: 0.10;' />
<circle cx='375.80' cy='145.06' r='3.20' style='stroke-width: 0.00; stroke: #444444; stroke-opacity: 0.10; fill: #444444; fill-opacity: 0.10;' />
<circle cx='333.33' cy='113.64' r='3.20' style='stroke-width: 0.00; stroke: #444444; stroke-opacity: 0.10; fill: #444444; fill-opacity: 0.10;' />
<circle cx='410.88' cy='128.08' r='3.20' style='stroke-width: 0.00; stroke: #444444; stroke-opacity: 0.10; fill: #444444; fill-opacity: 0.10;' />
<circle cx='285.81' cy='112.24' r='3.20' style='stroke-width: 0.00; stroke: #444444; stroke-opacity: 0.10; fill: #444444; fill-opacity: 0.10;' />
<circle cx='516.04' cy='117.41' r='3.20' style='stroke-width: 0.00; stroke: #444444; stroke-opacity: 0.10; fill: #444444; fill-opacity: 0.10;' />
<circle cx='103.76' cy='137.98' r='3.20' style='stroke-width: 0.00; stroke: #444444; stroke-opacity: 0.10; fill: #444444; fill-opacity: 0.10;' />
<circle cx='467.45' cy='117.04' r='3.20' style='stroke-width: 0.00; stroke: #444444; stroke-opacity: 0.10; fill: #444444; fill-opacity: 0.10;' />
<circle cx='411.32' cy='100.96' r='3.20' style='stroke-width: 0.00; stroke: #444444; stroke-opacity: 0.10; fill: #444444; fill-opacity: 0.10;' />
<circle cx='327.60' cy='142.54' r='3.20' style='stroke-width: 0.00; stroke: #444444; stroke-opacity: 0.10; fill: #444444; fill-opacity: 0.10;' />
<circle cx='442.42' cy='106.21' r='3.20' style='stroke-width: 0.00; stroke: #444444; stroke-opacity: 0.10; fill: #444444; fill-opacity: 0.10;' />
<circle cx='161.56' cy='114.44' r='3.20' style='stroke-width: 0.00; stroke: #444444; stroke-opacity: 0.10; fill: #444444; fill-opacity: 0.10;' />
<circle cx='499.10' cy='110.93' r='3.20' style='stroke-width: 0.00; stroke: #444444; stroke-opacity: 0.10; fill: #444444; fill-opacity: 0.10;' />
<circle cx='311.01' cy='116.26' r='3.20' style='stroke-width: 0.00; stroke: #444444; stroke-opacity: 0.10; fill: #444444; fill-opacity: 0.10;' />
<circle cx='465.42' cy='131.00' r='3.20' style='stroke-width: 0.00; stroke: #444444; stroke-opacity: 0.10; fill: #444444; fill-opacity: 0.10;' />
<circle cx='325.32' cy='99.36' r='3.20' style='stroke-width: 0.00; stroke: #444444; stroke-opacity: 0.10; fill: #444444; fill-opacity: 0.10;' />
<circle cx='372.99' cy='126.85' r='3.20' style='stroke-width: 0.00; stroke: #444444; stroke-opacity: 0.10; fill: #444444; fill-opacity: 0.10;' />
<circle cx='250.86' cy='114.56' r='3.20' style='stroke-width: 0.00; stroke: #444444; stroke-opacity: 0.10; fill: #444444; fill-opacity: 0.10;' />
<circle cx='472.14' cy='125.25' r='3.20' style='stroke-width: 0.00; stroke: #444444; stroke-opacity: 0.10; fill: #444444; fill-opacity: 0.10;' />
<circle cx='567.12' cy='98.95' r='3.20' style='stroke-width: 0.00; stroke: #444444; stroke-opacity: 0.10; fill: #444444; fill-opacity: 0.10;' />
<circle cx='318.81' cy='144.35' r='3.20' style='stroke-width: 0.00; stroke: #444444; stroke-opacity: 0.10; fill: #444444; fill-opacity: 0.10;' />
<circle cx='111.84' cy='138.71' r='3.20' style='stroke-width: 0.00; stroke: #444444; stroke-opacity: 0.10; fill: #444444; fill-opacity: 0.10;' />
<circle cx='212.74' cy='122.97' r='3.20' style='stroke-width: 0.00; stroke: #444444; stroke-opacity: 0.10; fill: #444444; fill-opacity: 0.10;' />
<circle cx='200.83' cy='112.39' r='3.20' style='stroke-width: 0.00; stroke: #444444; stroke-opacity: 0.10; fill: #444444; fill-opacity: 0.10;' />
<circle cx='397.33' cy='146.17' r='3.20' style='stroke-width: 0.00; stroke: #444444; stroke-opacity: 0.10; fill: #444444; fill-opacity: 0.10;' />
<circle cx='402.40' cy='134.78' r='3.20' style='stroke-width: 0.00; stroke: #444444; stroke-opacity: 0.10; fill: #444444; fill-opacity: 0.10;' />
<circle cx='344.82' cy='117.75' r='3.20' style='stroke-width: 0.00; stroke: #444444; stroke-opacity: 0.10; fill: #444444; fill-opacity: 0.10;' />
<circle cx='393.76' cy='125.26' r='3.20' style='stroke-width: 0.00; stroke: #444444; stroke-opacity: 0.10; fill: #444444; fill-opacity: 0.10;' />
<circle cx='300.11' cy='108.60' r='3.20' style='stroke-width: 0.00; stroke: #444444; stroke-opacity: 0.10; fill: #444444; fill-opacity: 0.10;' />
<circle cx='409.18' cy='111.16' r='3.20' style='stroke-width: 0.00; stroke: #444444; stroke-opacity: 0.10; fill: #444444; fill-opacity: 0.10;' />
<circle cx='388.45' cy='108.18' r='3.20' style='stroke-width: 0.00; stroke: #444444; stroke-opacity: 0.10; fill: #444444; fill-opacity: 0.10;' />
<circle cx='411.12' cy='112.53' r='3.20' style='stroke-width: 0.00; stroke: #444444; stroke-opacity: 0.10; fill: #444444; fill-opacity: 0.10;' />
<circle cx='305.87' cy='123.05' r='3.20' style='stroke-width: 0.00; stroke: #444444; stroke-opacity: 0.10; fill: #444444; fill-opacity: 0.10;' />
<circle cx='365.43' cy='141.79' r='3.20' style='stroke-width: 0.00; stroke: #444444; stroke-opacity: 0.10; fill: #444444; fill-opacity: 0.10;' />
<circle cx='436.81' cy='105.98' r='3.20' style='stroke-width: 0.00; stroke: #444444; stroke-opacity: 0.10; fill: #444444; fill-opacity: 0.10;' />
<circle cx='262.39' cy='142.94' r='3.20' style='stroke-width: 0.00; stroke: #444444; stroke-opacity: 0.10; fill: #444444; fill-opacity: 0.10;' />
<circle cx='184.98' cy='135.26' r='3.20' style='stroke-width: 0.00; stroke: #444444; stroke-opacity: 0.10; fill: #444444; fill-opacity: 0.10;' />
<circle cx='412.53' cy='123.65' r='3.20' style='stroke-width: 0.00; stroke: #444444; stroke-opacity: 0.10; fill: #444444; fill-opacity: 0.10;' />
<circle cx='255.27' cy='131.04' r='3.20' style='stroke-width: 0.00; stroke: #444444; stroke-opacity: 0.10; fill: #444444; fill-opacity: 0.10;' />
<circle cx='337.20' cy='103.16' r='3.20' style='stroke-width: 0.00; stroke: #444444; stroke-opacity: 0.10; fill: #444444; fill-opacity: 0.10;' />
<circle cx='276.99' cy='140.38' r='3.20' style='stroke-width: 0.00; stroke: #444444; stroke-opacity: 0.10; fill: #444444; fill-opacity: 0.10;' />
<circle cx='297.84' cy='141.71' r='3.20' style='stroke-width: 0.00; stroke: #444444; stroke-opacity: 0.10; fill: #444444; fill-opacity: 0.10;' />
<circle cx='211.01' cy='123.10' r='3.20' style='stroke-width: 0.00; stroke: #444444; stroke-opacity: 0.10; fill: #444444; fill-opacity: 0.10;' />
<circle cx='422.03' cy='125.38' r='3.20' style='stroke-width: 0.00; stroke: #444444; stroke-opacity: 0.10; fill: #444444; fill-opacity: 0.10;' />
<circle cx='313.53' cy='131.59' r='3.20' style='stroke-width: 0.00; stroke: #444444; stroke-opacity: 0.10; fill: #444444; fill-opacity: 0.10;' />
<circle cx='338.45' cy='108.04' r='3.20' style='stroke-width: 0.00; stroke: #444444; stroke-opacity: 0.10; fill: #444444; fill-opacity: 0.10;' />
<circle cx='570.67' cy='128.06' r='3.20' style='stroke-width: 0.00; stroke: #444444; stroke-opacity: 0.10; fill: #444444; fill-opacity: 0.10;' />
<circle cx='367.33' cy='111.21' r='3.20' style='stroke-width: 0.00; stroke: #444444; stroke-opacity: 0.10; fill: #444444; fill-opacity: 0.10;' />
<circle cx='373.03' cy='106.17' r='3.20' style='stroke-width: 0.00; stroke: #444444; stroke-opacity: 0.10; fill: #444444; fill-opacity: 0.10;' />
<circle cx='291.39' cy='140.12' r='3.20' style='stroke-width: 0.00; stroke: #444444; stroke-opacity: 0.10; fill: #444444; fill-opacity: 0.10;' />
<circle cx='395.61' cy='132.05' r='3.20' style='stroke-width: 0.00; stroke: #444444; stroke-opacity: 0.10; fill: #444444; fill-opacity: 0.10;' />
<circle cx='390.17' cy='121.13' r='3.20' style='stroke-width: 0.00; stroke: #444444; stroke-opacity: 0.10; fill: #444444; fill-opacity: 0.10;' />
<circle cx='265.06' cy='128.08' r='3.20' style='stroke-width: 0.00; stroke: #444444; stroke-opacity: 0.10; fill: #444444; fill-opacity: 0.10;' />
<circle cx='383.72' cy='103.31' r='3.20' style='stroke-width: 0.00; stroke: #444444; stroke-opacity: 0.10; fill: #444444; fill-opacity: 0.10;' />
<circle cx='339.05' cy='110.32' r='3.20' style='stroke-width: 0.00; stroke: #444444; stroke-opacity: 0.10; fill: #444444; fill-opacity: 0.10;' />
<circle cx='356.53' cy='143.09' r='3.20' style='stroke-width: 0.00; stroke: #444444; stroke-opacity: 0.10; fill: #444444; fill-opacity: 0.10;' />
<circle cx='174.07' cy='128.49' r='3.20' style='stroke-width: 0.00; stroke: #444444; stroke-opacity: 0.10; fill: #444444; fill-opacity: 0.10;' />
<circle cx='341.78' cy='99.42' r='3.20' style='stroke-width: 0.00; stroke: #444444; stroke-opacity: 0.10; fill: #444444; fill-opacity: 0.10;' />
<circle cx='267.02' cy='124.58' r='3.20' style='stroke-width: 0.00; stroke: #444444; stroke-opacity: 0.10; fill: #444444; fill-opacity: 0.10;' />
<circle cx='543.29' cy='145.85' r='3.20' style='stroke-width: 0.00; stroke: #444444; stroke-opacity: 0.10; fill: #444444; fill-opacity: 0.10;' />
<circle cx='420.90' cy='138.98' r='3.20' style='stroke-width: 0.00; stroke: #444444; stroke-opacity: 0.10; fill: #444444; fill-opacity: 0.10;' />
<circle cx='232.62' cy='110.22' r='3.20' style='stroke-width: 0.00; stroke: #444444; stroke-opacity: 0.10; fill: #444444; fill-opacity: 0.10;' />
<circle cx='432.35' cy='110.77' r='3.20' style='stroke-width: 0.00; stroke: #444444; stroke-opacity: 0.10; fill: #444444; fill-opacity: 0.10;' />
<circle cx='274.85' cy='133.68' r='3.20' style='stroke-width: 0.00; stroke: #444444; stroke-opacity: 0.10; fill: #444444; fill-opacity: 0.10;' />
<circle cx='483.12' cy='130.97' r='3.20' style='stroke-width: 0.00; stroke: #444444; stroke-opacity: 0.10; fill: #444444; fill-opacity: 0.10;' />
<circle cx='319.32' cy='118.22' r='3.20' style='stroke-width: 0.00; stroke: #444444; stroke-opacity: 0.10; fill: #444444; fill-opacity: 0.10;' />
<circle cx='338.72' cy='107.03' r='3.20' style='stroke-width: 0.00; stroke: #444444; stroke-opacity: 0.10; fill: #444444; fill-opacity: 0.10;' />
<circle cx='318.80' cy='138.74' r='3.20' style='stroke-width: 0.00; stroke: #444444; stroke-opacity: 0.10; fill: #444444; fill-opacity: 0.10;' />
<circle cx='520.07' cy='135.43' r='3.20' style='stroke-width: 0.00; stroke: #444444; stroke-opacity: 0.10; fill: #444444; fill-opacity: 0.10;' />
<circle cx='417.08' cy='126.00' r='3.20' style='stroke-width: 0.00; stroke: #444444; stroke-opacity: 0.10; fill: #444444; fill-opacity: 0.10;' />
<circle cx='185.77' cy='136.29' r='3.20' style='stroke-width: 0.00; stroke: #444444; stroke-opacity: 0.10; fill: #444444; fill-opacity: 0.10;' />
<circle cx='542.82' cy='109.17' r='3.20' style='stroke-width: 0.00; stroke: #444444; stroke-opacity: 0.10; fill: #444444; fill-opacity: 0.10;' />
<circle cx='522.25' cy='135.65' r='3.20' style='stroke-width: 0.00; stroke: #444444; stroke-opacity: 0.10; fill: #444444; fill-opacity: 0.10;' />
<circle cx='476.02' cy='140.28' r='3.20' style='stroke-width: 0.00; stroke: #444444; stroke-opacity: 0.10; fill: #444444; fill-opacity: 0.10;' />
<circle cx='288.46' cy='116.28' r='3.20' style='stroke-width: 0.00; stroke: #444444; stroke-opacity: 0.10; fill: #444444; fill-opacity: 0.10;' />
<circle cx='301.54' cy='133.26' r='3.20' style='stroke-width: 0.00; stroke: #444444; stroke-opacity: 0.10; fill: #444444; fill-opacity: 0.10;' />
<circle cx='355.49' cy='119.52' r='3.20' style='stroke-width: 0.00; stroke: #444444; stroke-opacity: 0.10; fill: #444444; fill-opacity: 0.10;' />
<circle cx='316.49' cy='112.64' r='3.20' style='stroke-width: 0.00; stroke: #444444; stroke-opacity: 0.10; fill: #444444; fill-opacity: 0.10;' />
<circle cx='463.34' cy='135.13' r='3.20' style='stroke-width: 0.00; stroke: #444444; stroke-opacity: 0.10; fill: #444444; fill-opacity: 0.10;' />
<circle cx='388.81' cy='119.55' r='3.20' style='stroke-width: 0.00; stroke: #444444; stroke-opacity: 0.10; fill: #444444; fill-opacity: 0.10;' />
<circle cx='316.07' cy='141.59' r='3.20' style='stroke-width: 0.00; stroke: #444444; stroke-opacity: 0.10; fill: #444444; fill-opacity: 0.10;' />
<circle cx='481.48' cy='117.89' r='3.20' style='stroke-width: 0.00; stroke: #444444; stroke-opacity: 0.10; fill: #444444; fill-opacity: 0.10;' />
<circle cx='410.25' cy='115.68' r='3.20' style='stroke-width: 0.00; stroke: #444444; stroke-opacity: 0.10; fill: #444444; fill-opacity: 0.10;' />
<circle cx='389.06' cy='132.25' r='3.20' style='stroke-width: 0.00; stroke: #444444; stroke-opacity: 0.10; fill: #444444; fill-opacity: 0.10;' />
<circle cx='400.97' cy='102.32' r='3.20' style='stroke-width: 0.00; stroke: #444444; stroke-opacity: 0.10; fill: #444444; fill-opacity: 0.10;' />
<circle cx='357.76' cy='113.94' r='3.20' style='stroke-width: 0.00; stroke: #444444; stroke-opacity: 0.10; fill: #444444; fill-opacity: 0.10;' />
<circle cx='376.83' cy='103.69' r='3.20' style='stroke-width: 0.00; stroke: #444444; stroke-opacity: 0.10; fill: #444444; fill-opacity: 0.10;' />
<circle cx='435.24' cy='106.42' r='3.20' style='stroke-width: 0.00; stroke: #444444; stroke-opacity: 0.10; fill: #444444; fill-opacity: 0.10;' />
<circle cx='435.77' cy='104.56' r='3.20' style='stroke-width: 0.00; stroke: #444444; stroke-opacity: 0.10; fill: #444444; fill-opacity: 0.10;' />
<circle cx='237.90' cy='134.48' r='3.20' style='stroke-width: 0.00; stroke: #444444; stroke-opacity: 0.10; fill: #444444; fill-opacity: 0.10;' />
<circle cx='347.67' cy='128.13' r='3.20' style='stroke-width: 0.00; stroke: #444444; stroke-opacity: 0.10; fill: #444444; fill-opacity: 0.10;' />
<circle cx='374.03' cy='121.08' r='3.20' style='stroke-width: 0.00; stroke: #444444; stroke-opacity: 0.10; fill: #444444; fill-opacity: 0.10;' />
<circle cx='297.30' cy='120.71' r='3.20' style='stroke-width: 0.00; stroke: #444444; stroke-opacity: 0.10; fill: #444444; fill-opacity: 0.10;' />
<circle cx='215.95' cy='121.31' r='3.20' style='stroke-width: 0.00; stroke: #444444; stroke-opacity: 0.10; fill: #444444; fill-opacity: 0.10;' />
<circle cx='232.72' cy='128.40' r='3.20' style='stroke-width: 0.00; stroke: #444444; stroke-opacity: 0.10; fill: #444444; fill-opacity: 0.10;' />
<circle cx='218.05' cy='131.44' r='3.20' style='stroke-width: 0.00; stroke: #444444; stroke-opacity: 0.10; fill: #444444; fill-opacity: 0.10;' />
<circle cx='235.27' cy='104.81' r='3.20' style='stroke-width: 0.00; stroke: #444444; stroke-opacity: 0.10; fill: #444444; fill-opacity: 0.10;' />
<circle cx='131.33' cy='129.09' r='3.20' style='stroke-width: 0.00; stroke: #444444; stroke-opacity: 0.10; fill: #444444; fill-opacity: 0.10;' />
<circle cx='523.06' cy='132.71' r='3.20' style='stroke-width: 0.00; stroke: #444444; stroke-opacity: 0.10; fill: #444444; fill-opacity: 0.10;' />
<circle cx='168.00' cy='111.11' r='3.20' style='stroke-width: 0.00; stroke: #444444; stroke-opacity: 0.10; fill: #444444; fill-opacity: 0.10;' />
<polygon points='321.76,122.20 333.78,131.32 345.80,122.20 333.78,113.08 321.76,122.20 ' style='stroke-width: 1.07; fill: #000000;' />
<rect x='10.41' y='95.48' width='560.11' height='53.23' style='stroke-width: 1.07; stroke: #333333;' />
</g>
<g clip-path='url(#cpMC4wMHw1NzYuMDB8MC4wMHwxODAuMDA=)'>
<polyline points='7.67,122.20 10.41,122.20 ' style='stroke-width: 1.07; stroke: #333333; stroke-linecap: butt;' />
<polyline points='35.87,151.45 35.87,148.71 ' style='stroke-width: 1.07; stroke: #333333; stroke-linecap: butt;' />
<polyline points='137.71,151.45 137.71,148.71 ' style='stroke-width: 1.07; stroke: #333333; stroke-linecap: butt;' />
<polyline points='239.55,151.45 239.55,148.71 ' style='stroke-width: 1.07; stroke: #333333; stroke-linecap: butt;' />
<polyline points='341.38,151.45 341.38,148.71 ' style='stroke-width: 1.07; stroke: #333333; stroke-linecap: butt;' />
<polyline points='443.22,151.45 443.22,148.71 ' style='stroke-width: 1.07; stroke: #333333; stroke-linecap: butt;' />
<polyline points='545.06,151.45 545.06,148.71 ' style='stroke-width: 1.07; stroke: #333333; stroke-linecap: butt;' />
<text x='35.87' y='159.94' text-anchor='middle' style='font-size: 8.80px; fill: #4D4D4D; font-family: Arial;' textLength='4.90px' lengthAdjust='spacingAndGlyphs'>2</text>
<text x='137.71' y='159.94' text-anchor='middle' style='font-size: 8.80px; fill: #4D4D4D; font-family: Arial;' textLength='4.90px' lengthAdjust='spacingAndGlyphs'>3</text>
<text x='239.55' y='159.94' text-anchor='middle' style='font-size: 8.80px; fill: #4D4D4D; font-family: Arial;' textLength='4.90px' lengthAdjust='spacingAndGlyphs'>4</text>
<text x='341.38' y='159.94' text-anchor='middle' style='font-size: 8.80px; fill: #4D4D4D; font-family: Arial;' textLength='4.90px' lengthAdjust='spacingAndGlyphs'>5</text>
<text x='443.22' y='159.94' text-anchor='middle' style='font-size: 8.80px; fill: #4D4D4D; font-family: Arial;' textLength='4.90px' lengthAdjust='spacingAndGlyphs'>6</text>
<text x='545.06' y='159.94' text-anchor='middle' style='font-size: 8.80px; fill: #4D4D4D; font-family: Arial;' textLength='4.90px' lengthAdjust='spacingAndGlyphs'>7</text>
<text x='290.47' y='172.36' text-anchor='middle' style='font-size: 11.00px; font-family: Arial;' textLength='91.75px' lengthAdjust='spacingAndGlyphs'>Scores and means</text>
</g>
</svg>
