<?xml version='1.0' encoding='UTF-8' ?>
<svg xmlns='http://www.w3.org/2000/svg' xmlns:xlink='http://www.w3.org/1999/xlink' class='svglite' width='566.93pt' height='510.24pt' viewBox='0 0 566.93 510.24'>
<defs>
  <style type='text/css'><![CDATA[
    .svglite line, .svglite polyline, .svglite polygon, .svglite path, .svglite rect, .svglite circle {
      fill: none;
      stroke: #000000;
      stroke-linecap: round;
      stroke-linejoin: round;
      stroke-miterlimit: 10.00;
    }
  ]]></style>
</defs>
<rect width='100%' height='100%' style='stroke: none; fill: none;'/>
<defs>
  <clipPath id='cpMC4wMHw1NjYuOTN8MC4wMHw1MTAuMjQ='>
    <rect x='0.00' y='0.00' width='566.93' height='510.24' />
  </clipPath>
</defs>
<g clip-path='url(#cpMC4wMHw1NjYuOTN8MC4wMHw1MTAuMjQ=)'>
<rect x='0.00' y='0.00' width='566.93' height='510.24' style='stroke-width: 1.07; stroke: #FFFFFF; fill: #FFFFFF;' />
</g>
<defs>
  <clipPath id='cpMzguMDN8NTYxLjQ1fDUuNDh8NDc4Ljc0'>
    <rect x='38.03' y='5.48' width='523.42' height='473.26' />
  </clipPath>
</defs>
<g clip-path='url(#cpMzguMDN8NTYxLjQ1fDUuNDh8NDc4Ljc0)'>
<rect x='38.03' y='5.48' width='523.42' height='473.26' style='stroke-width: 1.07; stroke: none; fill: #FFFFFF;' />
<polyline points='38.03,434.21 561.45,434.21 ' style='stroke-width: 0.53; stroke: #EBEBEB; stroke-linecap: butt;' />
<polyline points='38.03,317.86 561.45,317.86 ' style='stroke-width: 0.53; stroke: #EBEBEB; stroke-linecap: butt;' />
<polyline points='38.03,201.51 561.45,201.51 ' style='stroke-width: 0.53; stroke: #EBEBEB; stroke-linecap: butt;' />
<polyline points='38.03,85.16 561.45,85.16 ' style='stroke-width: 0.53; stroke: #EBEBEB; stroke-linecap: butt;' />
<polyline points='46.96,478.74 46.96,5.48 ' style='stroke-width: 0.53; stroke: #EBEBEB; stroke-linecap: butt;' />
<polyline points='76.70,478.74 76.70,5.48 ' style='stroke-width: 0.53; stroke: #EBEBEB; stroke-linecap: butt;' />
<polyline points='106.43,478.74 106.43,5.48 ' style='stroke-width: 0.53; stroke: #EBEBEB; stroke-linecap: butt;' />
<polyline points='136.17,478.74 136.17,5.48 ' style='stroke-width: 0.53; stroke: #EBEBEB; stroke-linecap: butt;' />
<polyline points='165.91,478.74 165.91,5.48 ' style='stroke-width: 0.53; stroke: #EBEBEB; stroke-linecap: butt;' />
<polyline points='195.65,478.74 195.65,5.48 ' style='stroke-width: 0.53; stroke: #EBEBEB; stroke-linecap: butt;' />
<polyline points='225.39,478.74 225.39,5.48 ' style='stroke-width: 0.53; stroke: #EBEBEB; stroke-linecap: butt;' />
<polyline points='255.13,478.74 255.13,5.48 ' style='stroke-width: 0.53; stroke: #EBEBEB; stroke-linecap: butt;' />
<polyline points='284.87,478.74 284.87,5.48 ' style='stroke-width: 0.53; stroke: #EBEBEB; stroke-linecap: butt;' />
<polyline points='314.61,478.74 314.61,5.48 ' style='stroke-width: 0.53; stroke: #EBEBEB; stroke-linecap: butt;' />
<polyline points='344.35,478.74 344.35,5.48 ' style='stroke-width: 0.53; stroke: #EBEBEB; stroke-linecap: butt;' />
<polyline points='374.09,478.74 374.09,5.48 ' style='stroke-width: 0.53; stroke: #EBEBEB; stroke-linecap: butt;' />
<polyline points='403.83,478.74 403.83,5.48 ' style='stroke-width: 0.53; stroke: #EBEBEB; stroke-linecap: butt;' />
<polyline points='433.57,478.74 433.57,5.48 ' style='stroke-width: 0.53; stroke: #EBEBEB; stroke-linecap: butt;' />
<polyline points='463.31,478.74 463.31,5.48 ' style='stroke-width: 0.53; stroke: #EBEBEB; stroke-linecap: butt;' />
<polyline points='493.05,478.74 493.05,5.48 ' style='stroke-width: 0.53; stroke: #EBEBEB; stroke-linecap: butt;' />
<polyline points='522.79,478.74 522.79,5.48 ' style='stroke-width: 0.53; stroke: #EBEBEB; stroke-linecap: butt;' />
<polyline points='552.53,478.74 552.53,5.48 ' style='stroke-width: 0.53; stroke: #EBEBEB; stroke-linecap: butt;' />
<polyline points='38.03,376.03 561.45,376.03 ' style='stroke-width: 1.07; stroke: #EBEBEB; stroke-linecap: butt;' />
<polyline points='38.03,259.69 561.45,259.69 ' style='stroke-width: 1.07; stroke: #EBEBEB; stroke-linecap: butt;' />
<polyline points='38.03,143.34 561.45,143.34 ' style='stroke-width: 1.07; stroke: #EBEBEB; stroke-linecap: butt;' />
<polyline points='38.03,26.99 561.45,26.99 ' style='stroke-width: 1.07; stroke: #EBEBEB; stroke-linecap: butt;' />
<polyline points='61.83,478.74 61.83,5.48 ' style='stroke-width: 1.07; stroke: #EBEBEB; stroke-linecap: butt;' />
<polyline points='91.57,478.74 91.57,5.48 ' style='stroke-width: 1.07; stroke: #EBEBEB; stroke-linecap: butt;' />
<polyline points='121.30,478.74 121.30,5.48 ' style='stroke-width: 1.07; stroke: #EBEBEB; stroke-linecap: butt;' />
<polyline points='151.04,478.74 151.04,5.48 ' style='stroke-width: 1.07; stroke: #EBEBEB; stroke-linecap: butt;' />
<polyline points='180.78,478.74 180.78,5.48 ' style='stroke-width: 1.07; stroke: #EBEBEB; stroke-linecap: butt;' />
<polyline points='210.52,478.74 210.52,5.48 ' style='stroke-width: 1.07; stroke: #EBEBEB; stroke-linecap: butt;' />
<polyline points='240.26,478.74 240.26,5.48 ' style='stroke-width: 1.07; stroke: #EBEBEB; stroke-linecap: butt;' />
<polyline points='270.00,478.74 270.00,5.48 ' style='stroke-width: 1.07; stroke: #EBEBEB; stroke-linecap: butt;' />
<polyline points='299.74,478.74 299.74,5.48 ' style='stroke-width: 1.07; stroke: #EBEBEB; stroke-linecap: butt;' />
<polyline points='329.48,478.74 329.48,5.48 ' style='stroke-width: 1.07; stroke: #EBEBEB; stroke-linecap: butt;' />
<polyline points='359.22,478.74 359.22,5.48 ' style='stroke-width: 1.07; stroke: #EBEBEB; stroke-linecap: butt;' />
<polyline points='388.96,478.74 388.96,5.48 ' style='stroke-width: 1.07; stroke: #EBEBEB; stroke-linecap: butt;' />
<polyline points='418.70,478.74 418.70,5.48 ' style='stroke-width: 1.07; stroke: #EBEBEB; stroke-linecap: butt;' />
<polyline points='448.44,478.74 448.44,5.48 ' style='stroke-width: 1.07; stroke: #EBEBEB; stroke-linecap: butt;' />
<polyline points='478.18,478.74 478.18,5.48 ' style='stroke-width: 1.07; stroke: #EBEBEB; stroke-linecap: butt;' />
<polyline points='507.92,478.74 507.92,5.48 ' style='stroke-width: 1.07; stroke: #EBEBEB; stroke-linecap: butt;' />
<polyline points='537.66,478.74 537.66,5.48 ' style='stroke-width: 1.07; stroke: #EBEBEB; stroke-linecap: butt;' />
<circle cx='61.83' cy='26.99' r='4.62' style='stroke-width: 0.71; fill: #000000;' />
<circle cx='91.57' cy='256.96' r='4.62' style='stroke-width: 0.71; fill: #000000;' />
<circle cx='121.30' cy='365.26' r='4.62' style='stroke-width: 0.71; fill: #000000;' />
<circle cx='151.04' cy='370.47' r='4.62' style='stroke-width: 0.71; fill: #000000;' />
<circle cx='180.78' cy='390.24' r='4.62' style='stroke-width: 0.71; fill: #000000;' />
<circle cx='210.52' cy='402.90' r='4.62' style='stroke-width: 0.71; fill: #000000;' />
<circle cx='240.26' cy='406.57' r='4.62' style='stroke-width: 0.71; fill: #000000;' />
<circle cx='270.00' cy='414.26' r='4.62' style='stroke-width: 0.71; fill: #000000;' />
<circle cx='299.74' cy='418.05' r='4.62' style='stroke-width: 0.71; fill: #000000;' />
<circle cx='329.48' cy='425.74' r='4.62' style='stroke-width: 0.71; fill: #000000;' />
<circle cx='359.22' cy='428.94' r='4.62' style='stroke-width: 0.71; fill: #000000;' />
<circle cx='388.96' cy='438.88' r='4.62' style='stroke-width: 0.71; fill: #000000;' />
<circle cx='418.70' cy='443.26' r='4.62' style='stroke-width: 0.71; fill: #000000;' />
<circle cx='448.44' cy='446.93' r='4.62' style='stroke-width: 0.71; fill: #000000;' />
<circle cx='478.18' cy='447.17' r='4.62' style='stroke-width: 0.71; fill: #000000;' />
<circle cx='507.92' cy='456.28' r='4.62' style='stroke-width: 0.71; fill: #000000;' />
<circle cx='537.66' cy='457.23' r='4.62' style='stroke-width: 0.71; fill: #000000;' />
<polyline points='61.83,26.99 91.57,256.96 121.30,365.26 151.04,370.47 180.78,390.24 210.52,402.90 240.26,406.57 270.00,414.26 299.74,418.05 329.48,425.74 359.22,428.94 388.96,438.88 418.70,443.26 448.44,446.93 478.18,447.17 507.92,456.28 537.66,457.23 ' style='stroke-width: 2.13; stroke-linecap: butt;' />
<line x1='71.58' y1='26.99' x2='70.22' y2='26.99' style='stroke-width: 1.07; stroke: #2A5581;' />
<line x1='105.28' y1='256.96' x2='99.96' y2='256.96' style='stroke-width: 1.07; stroke: #2A5581;' />
<line x1='160.58' y1='363.23' x2='157.48' y2='365.59' style='stroke-width: 1.07; stroke: #2A5581;' />
<line x1='249.92' y1='392.43' x2='244.68' y2='400.11' style='stroke-width: 1.07; stroke: #2A5581;' />
<line x1='309.74' y1='403.40' x2='304.15' y2='411.59' style='stroke-width: 1.07; stroke: #2A5581;' />
<line x1='372.93' y1='428.52' x2='367.61' y2='428.68' style='stroke-width: 1.07; stroke: #2A5581;' />
<line x1='409.40' y1='433.16' x2='396.98' y2='436.64' style='stroke-width: 1.07; stroke: #2A5581;' />
<line x1='444.36' y1='436.82' x2='426.79' y2='441.23' style='stroke-width: 1.07; stroke: #2A5581;' />
<line x1='479.12' y1='432.31' x2='478.66' y2='439.59' style='stroke-width: 1.07; stroke: #2A5581;' />
<line x1='514.23' y1='449.92' x2='513.53' y2='450.63' style='stroke-width: 1.07; stroke: #2A5581;' />
<text x='91.56' y='32.08' text-anchor='middle' style='font-size: 14.23px; fill: #2A5581; font-family: Arial;' textLength='36.36px' lengthAdjust='spacingAndGlyphs'>100%</text>
<text x='121.30' y='262.05' text-anchor='middle' style='font-size: 14.23px; fill: #2A5581; font-family: Arial;' textLength='28.45px' lengthAdjust='spacingAndGlyphs'>51%</text>
<text x='140.85' y='365.04' text-anchor='middle' style='font-size: 14.23px; fill: #2A5581; font-family: Arial;' textLength='28.45px' lengthAdjust='spacingAndGlyphs'>27%</text>
<text x='176.61' y='366.30' text-anchor='middle' style='font-size: 14.23px; fill: #2A5581; font-family: Arial;' textLength='28.45px' lengthAdjust='spacingAndGlyphs'>26%</text>
<text x='195.92' y='383.98' text-anchor='middle' style='font-size: 14.23px; fill: #2A5581; font-family: Arial;' textLength='28.45px' lengthAdjust='spacingAndGlyphs'>22%</text>
<text x='230.20' y='401.37' text-anchor='middle' style='font-size: 14.23px; fill: #2A5581; font-family: Arial;' textLength='28.45px' lengthAdjust='spacingAndGlyphs'>19%</text>
<text x='265.95' y='395.41' text-anchor='middle' style='font-size: 14.23px; fill: #2A5581; font-family: Arial;' textLength='28.45px' lengthAdjust='spacingAndGlyphs'>18%</text>
<text x='289.56' y='412.87' text-anchor='middle' style='font-size: 14.23px; fill: #2A5581; font-family: Arial;' textLength='28.45px' lengthAdjust='spacingAndGlyphs'>17%</text>
<text x='325.76' y='406.44' text-anchor='middle' style='font-size: 14.23px; fill: #2A5581; font-family: Arial;' textLength='28.45px' lengthAdjust='spacingAndGlyphs'>16%</text>
<text x='349.40' y='423.76' text-anchor='middle' style='font-size: 14.23px; fill: #2A5581; font-family: Arial;' textLength='28.45px' lengthAdjust='spacingAndGlyphs'>14%</text>
<text x='388.96' y='433.61' text-anchor='middle' style='font-size: 14.23px; fill: #2A5581; font-family: Arial;' textLength='28.45px' lengthAdjust='spacingAndGlyphs'>14%</text>
<text x='424.90' y='437.96' text-anchor='middle' style='font-size: 14.23px; fill: #2A5581; font-family: Arial;' textLength='27.40px' lengthAdjust='spacingAndGlyphs'>11%</text>
<text x='459.86' y='441.64' text-anchor='middle' style='font-size: 14.23px; fill: #2A5581; font-family: Arial;' textLength='27.40px' lengthAdjust='spacingAndGlyphs'>11%</text>
<text x='466.72' y='462.59' text-anchor='middle' style='font-size: 14.23px; fill: #2A5581; font-family: Arial;' textLength='28.45px' lengthAdjust='spacingAndGlyphs'>10%</text>
<text x='495.15' y='434.71' text-anchor='middle' style='font-size: 14.23px; fill: #2A5581; font-family: Arial;' textLength='28.45px' lengthAdjust='spacingAndGlyphs'>10%</text>
<text x='526.31' y='452.03' text-anchor='middle' style='font-size: 14.23px; fill: #2A5581; font-family: Arial;' textLength='20.55px' lengthAdjust='spacingAndGlyphs'>8%</text>
<text x='547.58' y='472.65' text-anchor='middle' style='font-size: 14.23px; fill: #2A5581; font-family: Arial;' textLength='20.55px' lengthAdjust='spacingAndGlyphs'>8%</text>
<rect x='38.03' y='5.48' width='523.42' height='473.26' style='stroke-width: 1.07; stroke: #333333;' />
</g>
<g clip-path='url(#cpMC4wMHw1NjYuOTN8MC4wMHw1MTAuMjQ=)'>
<text x='33.10' y='379.18' text-anchor='end' style='font-size: 8.80px; fill: #4D4D4D; font-family: Arial;' textLength='9.79px' lengthAdjust='spacingAndGlyphs'>25</text>
<text x='33.10' y='262.84' text-anchor='end' style='font-size: 8.80px; fill: #4D4D4D; font-family: Arial;' textLength='9.79px' lengthAdjust='spacingAndGlyphs'>50</text>
<text x='33.10' y='146.49' text-anchor='end' style='font-size: 8.80px; fill: #4D4D4D; font-family: Arial;' textLength='9.79px' lengthAdjust='spacingAndGlyphs'>75</text>
<text x='33.10' y='30.14' text-anchor='end' style='font-size: 8.80px; fill: #4D4D4D; font-family: Arial;' textLength='14.69px' lengthAdjust='spacingAndGlyphs'>100</text>
<polyline points='35.29,376.03 38.03,376.03 ' style='stroke-width: 1.07; stroke: #333333; stroke-linecap: butt;' />
<polyline points='35.29,259.69 38.03,259.69 ' style='stroke-width: 1.07; stroke: #333333; stroke-linecap: butt;' />
<polyline points='35.29,143.34 38.03,143.34 ' style='stroke-width: 1.07; stroke: #333333; stroke-linecap: butt;' />
<polyline points='35.29,26.99 38.03,26.99 ' style='stroke-width: 1.07; stroke: #333333; stroke-linecap: butt;' />
<polyline points='61.83,481.48 61.83,478.74 ' style='stroke-width: 1.07; stroke: #333333; stroke-linecap: butt;' />
<polyline points='91.57,481.48 91.57,478.74 ' style='stroke-width: 1.07; stroke: #333333; stroke-linecap: butt;' />
<polyline points='121.30,481.48 121.30,478.74 ' style='stroke-width: 1.07; stroke: #333333; stroke-linecap: butt;' />
<polyline points='151.04,481.48 151.04,478.74 ' style='stroke-width: 1.07; stroke: #333333; stroke-linecap: butt;' />
<polyline points='180.78,481.48 180.78,478.74 ' style='stroke-width: 1.07; stroke: #333333; stroke-linecap: butt;' />
<polyline points='210.52,481.48 210.52,478.74 ' style='stroke-width: 1.07; stroke: #333333; stroke-linecap: butt;' />
<polyline points='240.26,481.48 240.26,478.74 ' style='stroke-width: 1.07; stroke: #333333; stroke-linecap: butt;' />
<polyline points='270.00,481.48 270.00,478.74 ' style='stroke-width: 1.07; stroke: #333333; stroke-linecap: butt;' />
<polyline points='299.74,481.48 299.74,478.74 ' style='stroke-width: 1.07; stroke: #333333; stroke-linecap: butt;' />
<polyline points='329.48,481.48 329.48,478.74 ' style='stroke-width: 1.07; stroke: #333333; stroke-linecap: butt;' />
<polyline points='359.22,481.48 359.22,478.74 ' style='stroke-width: 1.07; stroke: #333333; stroke-linecap: butt;' />
<polyline points='388.96,481.48 388.96,478.74 ' style='stroke-width: 1.07; stroke: #333333; stroke-linecap: butt;' />
<polyline points='418.70,481.48 418.70,478.74 ' style='stroke-width: 1.07; stroke: #333333; stroke-linecap: butt;' />
<polyline points='448.44,481.48 448.44,478.74 ' style='stroke-width: 1.07; stroke: #333333; stroke-linecap: butt;' />
<polyline points='478.18,481.48 478.18,478.74 ' style='stroke-width: 1.07; stroke: #333333; stroke-linecap: butt;' />
<polyline points='507.92,481.48 507.92,478.74 ' style='stroke-width: 1.07; stroke: #333333; stroke-linecap: butt;' />
<polyline points='537.66,481.48 537.66,478.74 ' style='stroke-width: 1.07; stroke: #333333; stroke-linecap: butt;' />
<text x='61.83' y='489.97' text-anchor='middle' style='font-size: 8.80px; fill: #4D4D4D; font-family: Arial;' textLength='4.90px' lengthAdjust='spacingAndGlyphs'>1</text>
<text x='91.57' y='489.97' text-anchor='middle' style='font-size: 8.80px; fill: #4D4D4D; font-family: Arial;' textLength='4.90px' lengthAdjust='spacingAndGlyphs'>2</text>
<text x='121.30' y='489.97' text-anchor='middle' style='font-size: 8.80px; fill: #4D4D4D; font-family: Arial;' textLength='4.90px' lengthAdjust='spacingAndGlyphs'>3</text>
<text x='151.04' y='489.97' text-anchor='middle' style='font-size: 8.80px; fill: #4D4D4D; font-family: Arial;' textLength='4.90px' lengthAdjust='spacingAndGlyphs'>4</text>
<text x='180.78' y='489.97' text-anchor='middle' style='font-size: 8.80px; fill: #4D4D4D; font-family: Arial;' textLength='4.90px' lengthAdjust='spacingAndGlyphs'>5</text>
<text x='210.52' y='489.97' text-anchor='middle' style='font-size: 8.80px; fill: #4D4D4D; font-family: Arial;' textLength='4.90px' lengthAdjust='spacingAndGlyphs'>6</text>
<text x='240.26' y='489.97' text-anchor='middle' style='font-size: 8.80px; fill: #4D4D4D; font-family: Arial;' textLength='4.90px' lengthAdjust='spacingAndGlyphs'>7</text>
<text x='270.00' y='489.97' text-anchor='middle' style='font-size: 8.80px; fill: #4D4D4D; font-family: Arial;' textLength='4.90px' lengthAdjust='spacingAndGlyphs'>8</text>
<text x='299.74' y='489.97' text-anchor='middle' style='font-size: 8.80px; fill: #4D4D4D; font-family: Arial;' textLength='4.90px' lengthAdjust='spacingAndGlyphs'>9</text>
<text x='329.48' y='489.97' text-anchor='middle' style='font-size: 8.80px; fill: #4D4D4D; font-family: Arial;' textLength='9.79px' lengthAdjust='spacingAndGlyphs'>10</text>
<text x='359.22' y='489.97' text-anchor='middle' style='font-size: 8.80px; fill: #4D4D4D; font-family: Arial;' textLength='9.14px' lengthAdjust='spacingAndGlyphs'>11</text>
<text x='388.96' y='489.97' text-anchor='middle' style='font-size: 8.80px; fill: #4D4D4D; font-family: Arial;' textLength='9.79px' lengthAdjust='spacingAndGlyphs'>12</text>
<text x='418.70' y='489.97' text-anchor='middle' style='font-size: 8.80px; fill: #4D4D4D; font-family: Arial;' textLength='9.79px' lengthAdjust='spacingAndGlyphs'>13</text>
<text x='448.44' y='489.97' text-anchor='middle' style='font-size: 8.80px; fill: #4D4D4D; font-family: Arial;' textLength='9.79px' lengthAdjust='spacingAndGlyphs'>14</text>
<text x='478.18' y='489.97' text-anchor='middle' style='font-size: 8.80px; fill: #4D4D4D; font-family: Arial;' textLength='9.79px' lengthAdjust='spacingAndGlyphs'>15</text>
<text x='507.92' y='489.97' text-anchor='middle' style='font-size: 8.80px; fill: #4D4D4D; font-family: Arial;' textLength='9.79px' lengthAdjust='spacingAndGlyphs'>16</text>
<text x='537.66' y='489.97' text-anchor='middle' style='font-size: 8.80px; fill: #4D4D4D; font-family: Arial;' textLength='9.79px' lengthAdjust='spacingAndGlyphs'>17</text>
<text x='299.74' y='502.44' text-anchor='middle' style='font-size: 11.00px; font-family: Arial;' textLength='124.80px' lengthAdjust='spacingAndGlyphs'>Page in the questionnaire</text>
<text transform='translate(13.36,242.11) rotate(-90)' text-anchor='middle' style='font-size: 11.00px; font-family: Arial;' textLength='127.85px' lengthAdjust='spacingAndGlyphs'>Percentage of participants</text>
</g>
</svg>
