<?xml version='1.0' encoding='UTF-8' ?>
<svg xmlns='http://www.w3.org/2000/svg' xmlns:xlink='http://www.w3.org/1999/xlink' viewBox='0 0 1152.00 288.00'>
<defs>
  <style type='text/css'><![CDATA[
    line, polyline, path, rect, circle {
      fill: none;
      stroke: #000000;
      stroke-linecap: round;
      stroke-linejoin: round;
      stroke-miterlimit: 10.00;
    }
  ]]></style>
</defs>
<rect width='100%' height='100%' style='stroke: none; fill: none;'/>
<rect x='0.00' y='0.00' width='1152.00' height='288.00' style='stroke-width: 1.07; stroke: none;' />
<defs>
  <clipPath id='cpNDQxLjE1OXwxMTQ2LjUyfDI0OC4zNjZ8NS40Nzk0NQ=='>
    <rect x='441.16' y='5.48' width='705.36' height='242.89' />
  </clipPath>
</defs>
<rect x='473.22' y='220.65' width='1.68' height='23.76' style='stroke-width: 1.07; stroke: none; stroke-linecap: butt; fill: #31688E;' clip-path='url(#cpNDQxLjE1OXwxMTQ2LjUyfDI0OC4zNjZ8NS40Nzk0NQ==)' />
<rect x='474.90' y='220.65' width='21.88' height='23.76' style='stroke-width: 1.07; stroke: none; stroke-linecap: butt; fill: #21908C;' clip-path='url(#cpNDQxLjE1OXwxMTQ2LjUyfDI0OC4zNjZ8NS40Nzk0NQ==)' />
<rect x='496.78' y='220.65' width='6.73' height='23.76' style='stroke-width: 1.07; stroke: none; stroke-linecap: butt; fill: #35B779;' clip-path='url(#cpNDQxLjE1OXwxMTQ2LjUyfDI0OC4zNjZ8NS40Nzk0NQ==)' />
<rect x='503.52' y='220.65' width='65.64' height='23.76' style='stroke-width: 1.07; stroke: none; stroke-linecap: butt; fill: #8FD744;' clip-path='url(#cpNDQxLjE1OXwxMTQ2LjUyfDI0OC4zNjZ8NS40Nzk0NQ==)' />
<rect x='569.15' y='220.65' width='545.30' height='23.76' style='stroke-width: 1.07; stroke: none; stroke-linecap: butt; fill: #FDE725;' clip-path='url(#cpNDQxLjE1OXwxMTQ2LjUyfDI0OC4zNjZ8NS40Nzk0NQ==)' />
<rect x='473.22' y='194.24' width='1.68' height='23.76' style='stroke-width: 1.07; stroke: none; stroke-linecap: butt; fill: #440154;' clip-path='url(#cpNDQxLjE1OXwxMTQ2LjUyfDI0OC4zNjZ8NS40Nzk0NQ==)' />
<rect x='474.90' y='194.24' width='1.68' height='23.76' style='stroke-width: 1.07; stroke: none; stroke-linecap: butt; fill: #443A83;' clip-path='url(#cpNDQxLjE1OXwxMTQ2LjUyfDI0OC4zNjZ8NS40Nzk0NQ==)' />
<rect x='476.58' y='194.24' width='3.36' height='23.76' style='stroke-width: 1.07; stroke: none; stroke-linecap: butt; fill: #31688E;' clip-path='url(#cpNDQxLjE1OXwxMTQ2LjUyfDI0OC4zNjZ8NS40Nzk0NQ==)' />
<rect x='479.94' y='194.24' width='48.68' height='23.76' style='stroke-width: 1.07; stroke: none; stroke-linecap: butt; fill: #21908C;' clip-path='url(#cpNDQxLjE1OXwxMTQ2LjUyfDI0OC4zNjZ8NS40Nzk0NQ==)' />
<rect x='528.62' y='194.24' width='100.72' height='23.76' style='stroke-width: 1.07; stroke: none; stroke-linecap: butt; fill: #35B779;' clip-path='url(#cpNDQxLjE1OXwxMTQ2LjUyfDI0OC4zNjZ8NS40Nzk0NQ==)' />
<rect x='629.33' y='194.24' width='235.01' height='23.76' style='stroke-width: 1.07; stroke: none; stroke-linecap: butt; fill: #8FD744;' clip-path='url(#cpNDQxLjE1OXwxMTQ2LjUyfDI0OC4zNjZ8NS40Nzk0NQ==)' />
<rect x='864.34' y='194.24' width='250.12' height='23.76' style='stroke-width: 1.07; stroke: none; stroke-linecap: butt; fill: #FDE725;' clip-path='url(#cpNDQxLjE1OXwxMTQ2LjUyfDI0OC4zNjZ8NS40Nzk0NQ==)' />
<rect x='473.22' y='167.84' width='1.68' height='23.76' style='stroke-width: 1.07; stroke: none; stroke-linecap: butt; fill: #440154;' clip-path='url(#cpNDQxLjE1OXwxMTQ2LjUyfDI0OC4zNjZ8NS40Nzk0NQ==)' />
<rect x='474.90' y='167.84' width='1.68' height='23.76' style='stroke-width: 1.07; stroke: none; stroke-linecap: butt; fill: #443A83;' clip-path='url(#cpNDQxLjE1OXwxMTQ2LjUyfDI0OC4zNjZ8NS40Nzk0NQ==)' />
<rect x='476.58' y='167.84' width='13.43' height='23.76' style='stroke-width: 1.07; stroke: none; stroke-linecap: butt; fill: #31688E;' clip-path='url(#cpNDQxLjE1OXwxMTQ2LjUyfDI0OC4zNjZ8NS40Nzk0NQ==)' />
<rect x='490.01' y='167.84' width='53.72' height='23.76' style='stroke-width: 1.07; stroke: none; stroke-linecap: butt; fill: #21908C;' clip-path='url(#cpNDQxLjE1OXwxMTQ2LjUyfDI0OC4zNjZ8NS40Nzk0NQ==)' />
<rect x='543.72' y='167.84' width='120.86' height='23.76' style='stroke-width: 1.07; stroke: none; stroke-linecap: butt; fill: #35B779;' clip-path='url(#cpNDQxLjE1OXwxMTQ2LjUyfDI0OC4zNjZ8NS40Nzk0NQ==)' />
<rect x='664.58' y='167.84' width='236.69' height='23.76' style='stroke-width: 1.07; stroke: none; stroke-linecap: butt; fill: #8FD744;' clip-path='url(#cpNDQxLjE1OXwxMTQ2LjUyfDI0OC4zNjZ8NS40Nzk0NQ==)' />
<rect x='901.27' y='167.84' width='213.19' height='23.76' style='stroke-width: 1.07; stroke: none; stroke-linecap: butt; fill: #FDE725;' clip-path='url(#cpNDQxLjE1OXwxMTQ2LjUyfDI0OC4zNjZ8NS40Nzk0NQ==)' />
<rect x='473.22' y='141.44' width='5.05' height='23.76' style='stroke-width: 1.07; stroke: none; stroke-linecap: butt; fill: #440154;' clip-path='url(#cpNDQxLjE1OXwxMTQ2LjUyfDI0OC4zNjZ8NS40Nzk0NQ==)' />
<rect x='478.27' y='141.44' width='45.44' height='23.76' style='stroke-width: 1.07; stroke: none; stroke-linecap: butt; fill: #443A83;' clip-path='url(#cpNDQxLjE1OXwxMTQ2LjUyfDI0OC4zNjZ8NS40Nzk0NQ==)' />
<rect x='523.71' y='141.44' width='72.37' height='23.76' style='stroke-width: 1.07; stroke: none; stroke-linecap: butt; fill: #31688E;' clip-path='url(#cpNDQxLjE1OXwxMTQ2LjUyfDI0OC4zNjZ8NS40Nzk0NQ==)' />
<rect x='596.08' y='141.44' width='149.79' height='23.76' style='stroke-width: 1.07; stroke: none; stroke-linecap: butt; fill: #21908C;' clip-path='url(#cpNDQxLjE1OXwxMTQ2LjUyfDI0OC4zNjZ8NS40Nzk0NQ==)' />
<rect x='745.87' y='141.44' width='191.87' height='23.76' style='stroke-width: 1.07; stroke: none; stroke-linecap: butt; fill: #35B779;' clip-path='url(#cpNDQxLjE1OXwxMTQ2LjUyfDI0OC4zNjZ8NS40Nzk0NQ==)' />
<rect x='937.74' y='141.44' width='122.86' height='23.76' style='stroke-width: 1.07; stroke: none; stroke-linecap: butt; fill: #8FD744;' clip-path='url(#cpNDQxLjE1OXwxMTQ2LjUyfDI0OC4zNjZ8NS40Nzk0NQ==)' />
<rect x='1060.60' y='141.44' width='53.86' height='23.76' style='stroke-width: 1.07; stroke: none; stroke-linecap: butt; fill: #FDE725;' clip-path='url(#cpNDQxLjE1OXwxMTQ2LjUyfDI0OC4zNjZ8NS40Nzk0NQ==)' />
<rect x='473.22' y='115.04' width='25.18' height='23.76' style='stroke-width: 1.07; stroke: none; stroke-linecap: butt; fill: #440154;' clip-path='url(#cpNDQxLjE1OXwxMTQ2LjUyfDI0OC4zNjZ8NS40Nzk0NQ==)' />
<rect x='498.40' y='115.04' width='72.18' height='23.76' style='stroke-width: 1.07; stroke: none; stroke-linecap: butt; fill: #443A83;' clip-path='url(#cpNDQxLjE1OXwxMTQ2LjUyfDI0OC4zNjZ8NS40Nzk0NQ==)' />
<rect x='570.58' y='115.04' width='82.25' height='23.76' style='stroke-width: 1.07; stroke: none; stroke-linecap: butt; fill: #31688E;' clip-path='url(#cpNDQxLjE1OXwxMTQ2LjUyfDI0OC4zNjZ8NS40Nzk0NQ==)' />
<rect x='652.83' y='115.04' width='135.97' height='23.76' style='stroke-width: 1.07; stroke: none; stroke-linecap: butt; fill: #21908C;' clip-path='url(#cpNDQxLjE1OXwxMTQ2LjUyfDI0OC4zNjZ8NS40Nzk0NQ==)' />
<rect x='788.80' y='115.04' width='141.01' height='23.76' style='stroke-width: 1.07; stroke: none; stroke-linecap: butt; fill: #35B779;' clip-path='url(#cpNDQxLjE1OXwxMTQ2LjUyfDI0OC4zNjZ8NS40Nzk0NQ==)' />
<rect x='929.81' y='115.04' width='129.25' height='23.76' style='stroke-width: 1.07; stroke: none; stroke-linecap: butt; fill: #8FD744;' clip-path='url(#cpNDQxLjE1OXwxMTQ2LjUyfDI0OC4zNjZ8NS40Nzk0NQ==)' />
<rect x='1059.06' y='115.04' width='55.39' height='23.76' style='stroke-width: 1.07; stroke: none; stroke-linecap: butt; fill: #FDE725;' clip-path='url(#cpNDQxLjE1OXwxMTQ2LjUyfDI0OC4zNjZ8NS40Nzk0NQ==)' />
<rect x='473.22' y='88.64' width='31.89' height='23.76' style='stroke-width: 1.07; stroke: none; stroke-linecap: butt; fill: #440154;' clip-path='url(#cpNDQxLjE1OXwxMTQ2LjUyfDI0OC4zNjZ8NS40Nzk0NQ==)' />
<rect x='505.11' y='88.64' width='52.04' height='23.76' style='stroke-width: 1.07; stroke: none; stroke-linecap: butt; fill: #443A83;' clip-path='url(#cpNDQxLjE1OXwxMTQ2LjUyfDI0OC4zNjZ8NS40Nzk0NQ==)' />
<rect x='557.15' y='88.64' width='88.97' height='23.76' style='stroke-width: 1.07; stroke: none; stroke-linecap: butt; fill: #31688E;' clip-path='url(#cpNDQxLjE1OXwxMTQ2LjUyfDI0OC4zNjZ8NS40Nzk0NQ==)' />
<rect x='646.12' y='88.64' width='149.40' height='23.76' style='stroke-width: 1.07; stroke: none; stroke-linecap: butt; fill: #21908C;' clip-path='url(#cpNDQxLjE1OXwxMTQ2LjUyfDI0OC4zNjZ8NS40Nzk0NQ==)' />
<rect x='795.52' y='88.64' width='151.08' height='23.76' style='stroke-width: 1.07; stroke: none; stroke-linecap: butt; fill: #35B779;' clip-path='url(#cpNDQxLjE1OXwxMTQ2LjUyfDI0OC4zNjZ8NS40Nzk0NQ==)' />
<rect x='946.60' y='88.64' width='104.08' height='23.76' style='stroke-width: 1.07; stroke: none; stroke-linecap: butt; fill: #8FD744;' clip-path='url(#cpNDQxLjE1OXwxMTQ2LjUyfDI0OC4zNjZ8NS40Nzk0NQ==)' />
<rect x='1050.67' y='88.64' width='63.79' height='23.76' style='stroke-width: 1.07; stroke: none; stroke-linecap: butt; fill: #FDE725;' clip-path='url(#cpNDQxLjE1OXwxMTQ2LjUyfDI0OC4zNjZ8NS40Nzk0NQ==)' />
<rect x='473.22' y='62.24' width='31.89' height='23.76' style='stroke-width: 1.07; stroke: none; stroke-linecap: butt; fill: #440154;' clip-path='url(#cpNDQxLjE1OXwxMTQ2LjUyfDI0OC4zNjZ8NS40Nzk0NQ==)' />
<rect x='505.11' y='62.24' width='70.50' height='23.76' style='stroke-width: 1.07; stroke: none; stroke-linecap: butt; fill: #443A83;' clip-path='url(#cpNDQxLjE1OXwxMTQ2LjUyfDI0OC4zNjZ8NS40Nzk0NQ==)' />
<rect x='575.62' y='62.24' width='90.65' height='23.76' style='stroke-width: 1.07; stroke: none; stroke-linecap: butt; fill: #31688E;' clip-path='url(#cpNDQxLjE1OXwxMTQ2LjUyfDI0OC4zNjZ8NS40Nzk0NQ==)' />
<rect x='666.26' y='62.24' width='141.01' height='23.76' style='stroke-width: 1.07; stroke: none; stroke-linecap: butt; fill: #21908C;' clip-path='url(#cpNDQxLjE1OXwxMTQ2LjUyfDI0OC4zNjZ8NS40Nzk0NQ==)' />
<rect x='807.27' y='62.24' width='144.36' height='23.76' style='stroke-width: 1.07; stroke: none; stroke-linecap: butt; fill: #35B779;' clip-path='url(#cpNDQxLjE1OXwxMTQ2LjUyfDI0OC4zNjZ8NS40Nzk0NQ==)' />
<rect x='951.63' y='62.24' width='117.50' height='23.76' style='stroke-width: 1.07; stroke: none; stroke-linecap: butt; fill: #8FD744;' clip-path='url(#cpNDQxLjE1OXwxMTQ2LjUyfDI0OC4zNjZ8NS40Nzk0NQ==)' />
<rect x='1069.14' y='62.24' width='45.32' height='23.76' style='stroke-width: 1.07; stroke: none; stroke-linecap: butt; fill: #FDE725;' clip-path='url(#cpNDQxLjE1OXwxMTQ2LjUyfDI0OC4zNjZ8NS40Nzk0NQ==)' />
<rect x='473.22' y='35.84' width='43.76' height='23.76' style='stroke-width: 1.07; stroke: none; stroke-linecap: butt; fill: #440154;' clip-path='url(#cpNDQxLjE1OXwxMTQ2LjUyfDI0OC4zNjZ8NS40Nzk0NQ==)' />
<rect x='516.98' y='35.84' width='107.71' height='23.76' style='stroke-width: 1.07; stroke: none; stroke-linecap: butt; fill: #443A83;' clip-path='url(#cpNDQxLjE1OXwxMTQ2LjUyfDI0OC4zNjZ8NS40Nzk0NQ==)' />
<rect x='624.69' y='35.84' width='144.74' height='23.76' style='stroke-width: 1.07; stroke: none; stroke-linecap: butt; fill: #31688E;' clip-path='url(#cpNDQxLjE1OXwxMTQ2LjUyfDI0OC4zNjZ8NS40Nzk0NQ==)' />
<rect x='769.44' y='35.84' width='139.69' height='23.76' style='stroke-width: 1.07; stroke: none; stroke-linecap: butt; fill: #21908C;' clip-path='url(#cpNDQxLjE1OXwxMTQ2LjUyfDI0OC4zNjZ8NS40Nzk0NQ==)' />
<rect x='909.13' y='35.84' width='136.33' height='23.76' style='stroke-width: 1.07; stroke: none; stroke-linecap: butt; fill: #35B779;' clip-path='url(#cpNDQxLjE1OXwxMTQ2LjUyfDI0OC4zNjZ8NS40Nzk0NQ==)' />
<rect x='1045.45' y='35.84' width='47.13' height='23.76' style='stroke-width: 1.07; stroke: none; stroke-linecap: butt; fill: #8FD744;' clip-path='url(#cpNDQxLjE1OXwxMTQ2LjUyfDI0OC4zNjZ8NS40Nzk0NQ==)' />
<rect x='1092.58' y='35.84' width='21.88' height='23.76' style='stroke-width: 1.07; stroke: none; stroke-linecap: butt; fill: #FDE725;' clip-path='url(#cpNDQxLjE1OXwxMTQ2LjUyfDI0OC4zNjZ8NS40Nzk0NQ==)' />
<rect x='473.22' y='9.44' width='58.75' height='23.76' style='stroke-width: 1.07; stroke: none; stroke-linecap: butt; fill: #440154;' clip-path='url(#cpNDQxLjE1OXwxMTQ2LjUyfDI0OC4zNjZ8NS40Nzk0NQ==)' />
<rect x='531.97' y='9.44' width='110.79' height='23.76' style='stroke-width: 1.07; stroke: none; stroke-linecap: butt; fill: #443A83;' clip-path='url(#cpNDQxLjE1OXwxMTQ2LjUyfDI0OC4zNjZ8NS40Nzk0NQ==)' />
<rect x='642.76' y='9.44' width='112.47' height='23.76' style='stroke-width: 1.07; stroke: none; stroke-linecap: butt; fill: #31688E;' clip-path='url(#cpNDQxLjE1OXwxMTQ2LjUyfDI0OC4zNjZ8NS40Nzk0NQ==)' />
<rect x='755.23' y='9.44' width='156.11' height='23.76' style='stroke-width: 1.07; stroke: none; stroke-linecap: butt; fill: #21908C;' clip-path='url(#cpNDQxLjE1OXwxMTQ2LjUyfDI0OC4zNjZ8NS40Nzk0NQ==)' />
<rect x='911.34' y='9.44' width='119.18' height='23.76' style='stroke-width: 1.07; stroke: none; stroke-linecap: butt; fill: #35B779;' clip-path='url(#cpNDQxLjE1OXwxMTQ2LjUyfDI0OC4zNjZ8NS40Nzk0NQ==)' />
<rect x='1030.53' y='9.44' width='60.43' height='23.76' style='stroke-width: 1.07; stroke: none; stroke-linecap: butt; fill: #8FD744;' clip-path='url(#cpNDQxLjE1OXwxMTQ2LjUyfDI0OC4zNjZ8NS40Nzk0NQ==)' />
<rect x='1090.96' y='9.44' width='23.50' height='23.76' style='stroke-width: 1.07; stroke: none; stroke-linecap: butt; fill: #FDE725;' clip-path='url(#cpNDQxLjE1OXwxMTQ2LjUyfDI0OC4zNjZ8NS40Nzk0NQ==)' />
<g clip-path='url(#cpNDQxLjE1OXwxMTQ2LjUyfDI0OC4zNjZ8NS40Nzk0NQ==)'><text x='482.51' y='230.58' style='font-size: 5.69px; fill: none; font-family: Arial;' textLength='6.67px' lengthAdjust='spacingAndGlyphs'>13</text></g>
<g clip-path='url(#cpNDQxLjE1OXwxMTQ2LjUyfDI0OC4zNjZ8NS40Nzk0NQ==)'><text x='479.51' y='238.77' style='font-size: 5.69px; fill: none; font-family: Arial;' textLength='12.67px' lengthAdjust='spacingAndGlyphs'>(3%)</text></g>
<g clip-path='url(#cpNDQxLjE1OXwxMTQ2LjUyfDI0OC4zNjZ8NS40Nzk0NQ==)'><text x='498.48' y='230.58' style='font-size: 5.69px; fill: none; font-family: Arial;' textLength='3.34px' lengthAdjust='spacingAndGlyphs'>4</text></g>
<g clip-path='url(#cpNDQxLjE1OXwxMTQ2LjUyfDI0OC4zNjZ8NS40Nzk0NQ==)'><text x='493.82' y='238.77' style='font-size: 5.69px; fill: none; font-family: Arial;' textLength='12.67px' lengthAdjust='spacingAndGlyphs'>(1%)</text></g>
<g clip-path='url(#cpNDQxLjE1OXwxMTQ2LjUyfDI0OC4zNjZ8NS40Nzk0NQ==)'><text x='533.00' y='230.58' style='font-size: 5.69px; fill: none; font-family: Arial;' textLength='6.67px' lengthAdjust='spacingAndGlyphs'>39</text></g>
<g clip-path='url(#cpNDQxLjE1OXwxMTQ2LjUyfDI0OC4zNjZ8NS40Nzk0NQ==)'><text x='528.33' y='238.77' style='font-size: 5.69px; fill: none; font-family: Arial;' textLength='16.00px' lengthAdjust='spacingAndGlyphs'>(10%)</text></g>
<g clip-path='url(#cpNDQxLjE1OXwxMTQ2LjUyfDI0OC4zNjZ8NS40Nzk0NQ==)'><text x='836.80' y='230.58' style='font-size: 5.69px; fill: none; font-family: Arial;' textLength='10.01px' lengthAdjust='spacingAndGlyphs'>324</text></g>
<g clip-path='url(#cpNDQxLjE1OXwxMTQ2LjUyfDI0OC4zNjZ8NS40Nzk0NQ==)'><text x='833.80' y='238.77' style='font-size: 5.69px; fill: none; font-family: Arial;' textLength='16.00px' lengthAdjust='spacingAndGlyphs'>(85%)</text></g>
<g clip-path='url(#cpNDQxLjE1OXwxMTQ2LjUyfDI0OC4zNjZ8NS40Nzk0NQ==)'><text x='476.59' y='204.18' style='font-size: 5.69px; fill: none; font-family: Arial;' textLength='3.34px' lengthAdjust='spacingAndGlyphs'>2</text></g>
<g clip-path='url(#cpNDQxLjE1OXwxMTQ2LjUyfDI0OC4zNjZ8NS40Nzk0NQ==)'><text x='471.92' y='212.37' style='font-size: 5.69px; fill: none; font-family: Arial;' textLength='12.67px' lengthAdjust='spacingAndGlyphs'>(1%)</text></g>
<g clip-path='url(#cpNDQxLjE1OXwxMTQ2LjUyfDI0OC4zNjZ8NS40Nzk0NQ==)'><text x='500.94' y='204.18' style='font-size: 5.69px; fill: none; font-family: Arial;' textLength='6.67px' lengthAdjust='spacingAndGlyphs'>29</text></g>
<g clip-path='url(#cpNDQxLjE1OXwxMTQ2LjUyfDI0OC4zNjZ8NS40Nzk0NQ==)'><text x='497.94' y='212.37' style='font-size: 5.69px; fill: none; font-family: Arial;' textLength='12.67px' lengthAdjust='spacingAndGlyphs'>(8%)</text></g>
<g clip-path='url(#cpNDQxLjE1OXwxMTQ2LjUyfDI0OC4zNjZ8NS40Nzk0NQ==)'><text x='575.64' y='204.18' style='font-size: 5.69px; fill: none; font-family: Arial;' textLength='6.67px' lengthAdjust='spacingAndGlyphs'>60</text></g>
<g clip-path='url(#cpNDQxLjE1OXwxMTQ2LjUyfDI0OC4zNjZ8NS40Nzk0NQ==)'><text x='570.97' y='212.37' style='font-size: 5.69px; fill: none; font-family: Arial;' textLength='16.00px' lengthAdjust='spacingAndGlyphs'>(16%)</text></g>
<g clip-path='url(#cpNDQxLjE1OXwxMTQ2LjUyfDI0OC4zNjZ8NS40Nzk0NQ==)'><text x='741.83' y='204.18' style='font-size: 5.69px; fill: none; font-family: Arial;' textLength='10.01px' lengthAdjust='spacingAndGlyphs'>140</text></g>
<g clip-path='url(#cpNDQxLjE1OXwxMTQ2LjUyfDI0OC4zNjZ8NS40Nzk0NQ==)'><text x='738.84' y='212.37' style='font-size: 5.69px; fill: none; font-family: Arial;' textLength='16.00px' lengthAdjust='spacingAndGlyphs'>(37%)</text></g>
<g clip-path='url(#cpNDQxLjE1OXwxMTQ2LjUyfDI0OC4zNjZ8NS40Nzk0NQ==)'><text x='984.40' y='204.18' style='font-size: 5.69px; fill: none; font-family: Arial;' textLength='10.01px' lengthAdjust='spacingAndGlyphs'>149</text></g>
<g clip-path='url(#cpNDQxLjE1OXwxMTQ2LjUyfDI0OC4zNjZ8NS40Nzk0NQ==)'><text x='981.40' y='212.37' style='font-size: 5.69px; fill: none; font-family: Arial;' textLength='16.00px' lengthAdjust='spacingAndGlyphs'>(39%)</text></g>
<g clip-path='url(#cpNDQxLjE1OXwxMTQ2LjUyfDI0OC4zNjZ8NS40Nzk0NQ==)'><text x='481.62' y='177.78' style='font-size: 5.69px; fill: none; font-family: Arial;' textLength='3.34px' lengthAdjust='spacingAndGlyphs'>8</text></g>
<g clip-path='url(#cpNDQxLjE1OXwxMTQ2LjUyfDI0OC4zNjZ8NS40Nzk0NQ==)'><text x='476.96' y='185.97' style='font-size: 5.69px; fill: none; font-family: Arial;' textLength='12.67px' lengthAdjust='spacingAndGlyphs'>(2%)</text></g>
<g clip-path='url(#cpNDQxLjE1OXwxMTQ2LjUyfDI0OC4zNjZ8NS40Nzk0NQ==)'><text x='513.53' y='177.78' style='font-size: 5.69px; fill: none; font-family: Arial;' textLength='6.67px' lengthAdjust='spacingAndGlyphs'>32</text></g>
<g clip-path='url(#cpNDQxLjE1OXwxMTQ2LjUyfDI0OC4zNjZ8NS40Nzk0NQ==)'><text x='510.53' y='185.97' style='font-size: 5.69px; fill: none; font-family: Arial;' textLength='12.67px' lengthAdjust='spacingAndGlyphs'>(8%)</text></g>
<g clip-path='url(#cpNDQxLjE1OXwxMTQ2LjUyfDI0OC4zNjZ8NS40Nzk0NQ==)'><text x='600.82' y='177.78' style='font-size: 5.69px; fill: none; font-family: Arial;' textLength='6.67px' lengthAdjust='spacingAndGlyphs'>72</text></g>
<g clip-path='url(#cpNDQxLjE1OXwxMTQ2LjUyfDI0OC4zNjZ8NS40Nzk0NQ==)'><text x='596.15' y='185.97' style='font-size: 5.69px; fill: none; font-family: Arial;' textLength='16.00px' lengthAdjust='spacingAndGlyphs'>(19%)</text></g>
<g clip-path='url(#cpNDQxLjE1OXwxMTQ2LjUyfDI0OC4zNjZ8NS40Nzk0NQ==)'><text x='777.92' y='177.78' style='font-size: 5.69px; fill: none; font-family: Arial;' textLength='10.01px' lengthAdjust='spacingAndGlyphs'>141</text></g>
<g clip-path='url(#cpNDQxLjE1OXwxMTQ2LjUyfDI0OC4zNjZ8NS40Nzk0NQ==)'><text x='774.93' y='185.97' style='font-size: 5.69px; fill: none; font-family: Arial;' textLength='16.00px' lengthAdjust='spacingAndGlyphs'>(37%)</text></g>
<g clip-path='url(#cpNDQxLjE1OXwxMTQ2LjUyfDI0OC4zNjZ8NS40Nzk0NQ==)'><text x='1002.86' y='177.78' style='font-size: 5.69px; fill: none; font-family: Arial;' textLength='10.01px' lengthAdjust='spacingAndGlyphs'>127</text></g>
<g clip-path='url(#cpNDQxLjE1OXwxMTQ2LjUyfDI0OC4zNjZ8NS40Nzk0NQ==)'><text x='999.86' y='185.97' style='font-size: 5.69px; fill: none; font-family: Arial;' textLength='16.00px' lengthAdjust='spacingAndGlyphs'>(33%)</text></g>
<g clip-path='url(#cpNDQxLjE1OXwxMTQ2LjUyfDI0OC4zNjZ8NS40Nzk0NQ==)'><text x='474.08' y='151.37' style='font-size: 5.69px; fill: none; font-family: Arial;' textLength='3.34px' lengthAdjust='spacingAndGlyphs'>3</text></g>
<g clip-path='url(#cpNDQxLjE1OXwxMTQ2LjUyfDI0OC4zNjZ8NS40Nzk0NQ==)'><text x='469.41' y='159.57' style='font-size: 5.69px; fill: none; font-family: Arial;' textLength='12.67px' lengthAdjust='spacingAndGlyphs'>(1%)</text></g>
<g clip-path='url(#cpNDQxLjE1OXwxMTQ2LjUyfDI0OC4zNjZ8NS40Nzk0NQ==)'><text x='497.65' y='151.37' style='font-size: 5.69px; fill: none; font-family: Arial;' textLength='6.67px' lengthAdjust='spacingAndGlyphs'>27</text></g>
<g clip-path='url(#cpNDQxLjE1OXwxMTQ2LjUyfDI0OC4zNjZ8NS40Nzk0NQ==)'><text x='494.66' y='159.57' style='font-size: 5.69px; fill: none; font-family: Arial;' textLength='12.67px' lengthAdjust='spacingAndGlyphs'>(7%)</text></g>
<g clip-path='url(#cpNDQxLjE1OXwxMTQ2LjUyfDI0OC4zNjZ8NS40Nzk0NQ==)'><text x='556.56' y='151.37' style='font-size: 5.69px; fill: none; font-family: Arial;' textLength='6.67px' lengthAdjust='spacingAndGlyphs'>43</text></g>
<g clip-path='url(#cpNDQxLjE1OXwxMTQ2LjUyfDI0OC4zNjZ8NS40Nzk0NQ==)'><text x='551.89' y='159.57' style='font-size: 5.69px; fill: none; font-family: Arial;' textLength='16.00px' lengthAdjust='spacingAndGlyphs'>(11%)</text></g>
<g clip-path='url(#cpNDQxLjE1OXwxMTQ2LjUyfDI0OC4zNjZ8NS40Nzk0NQ==)'><text x='667.64' y='151.37' style='font-size: 5.69px; fill: none; font-family: Arial;' textLength='6.67px' lengthAdjust='spacingAndGlyphs'>89</text></g>
<g clip-path='url(#cpNDQxLjE1OXwxMTQ2LjUyfDI0OC4zNjZ8NS40Nzk0NQ==)'><text x='662.98' y='159.57' style='font-size: 5.69px; fill: none; font-family: Arial;' textLength='16.00px' lengthAdjust='spacingAndGlyphs'>(23%)</text></g>
<g clip-path='url(#cpNDQxLjE1OXwxMTQ2LjUyfDI0OC4zNjZ8NS40Nzk0NQ==)'><text x='836.80' y='151.37' style='font-size: 5.69px; fill: none; font-family: Arial;' textLength='10.01px' lengthAdjust='spacingAndGlyphs'>114</text></g>
<g clip-path='url(#cpNDQxLjE1OXwxMTQ2LjUyfDI0OC4zNjZ8NS40Nzk0NQ==)'><text x='833.80' y='159.57' style='font-size: 5.69px; fill: none; font-family: Arial;' textLength='16.00px' lengthAdjust='spacingAndGlyphs'>(30%)</text></g>
<g clip-path='url(#cpNDQxLjE1OXwxMTQ2LjUyfDI0OC4zNjZ8NS40Nzk0NQ==)'><text x='995.83' y='151.37' style='font-size: 5.69px; fill: none; font-family: Arial;' textLength='6.67px' lengthAdjust='spacingAndGlyphs'>73</text></g>
<g clip-path='url(#cpNDQxLjE1OXwxMTQ2LjUyfDI0OC4zNjZ8NS40Nzk0NQ==)'><text x='991.17' y='159.57' style='font-size: 5.69px; fill: none; font-family: Arial;' textLength='16.00px' lengthAdjust='spacingAndGlyphs'>(19%)</text></g>
<g clip-path='url(#cpNDQxLjE1OXwxMTQ2LjUyfDI0OC4zNjZ8NS40Nzk0NQ==)'><text x='1084.19' y='151.37' style='font-size: 5.69px; fill: none; font-family: Arial;' textLength='6.67px' lengthAdjust='spacingAndGlyphs'>32</text></g>
<g clip-path='url(#cpNDQxLjE1OXwxMTQ2LjUyfDI0OC4zNjZ8NS40Nzk0NQ==)'><text x='1081.20' y='159.57' style='font-size: 5.69px; fill: none; font-family: Arial;' textLength='12.67px' lengthAdjust='spacingAndGlyphs'>(8%)</text></g>
<g clip-path='url(#cpNDQxLjE1OXwxMTQ2LjUyfDI0OC4zNjZ8NS40Nzk0NQ==)'><text x='482.47' y='124.97' style='font-size: 5.69px; fill: none; font-family: Arial;' textLength='6.67px' lengthAdjust='spacingAndGlyphs'>15</text></g>
<g clip-path='url(#cpNDQxLjE1OXwxMTQ2LjUyfDI0OC4zNjZ8NS40Nzk0NQ==)'><text x='479.48' y='133.17' style='font-size: 5.69px; fill: none; font-family: Arial;' textLength='12.67px' lengthAdjust='spacingAndGlyphs'>(4%)</text></g>
<g clip-path='url(#cpNDQxLjE1OXwxMTQ2LjUyfDI0OC4zNjZ8NS40Nzk0NQ==)'><text x='531.15' y='124.97' style='font-size: 5.69px; fill: none; font-family: Arial;' textLength='6.67px' lengthAdjust='spacingAndGlyphs'>43</text></g>
<g clip-path='url(#cpNDQxLjE1OXwxMTQ2LjUyfDI0OC4zNjZ8NS40Nzk0NQ==)'><text x='526.49' y='133.17' style='font-size: 5.69px; fill: none; font-family: Arial;' textLength='16.00px' lengthAdjust='spacingAndGlyphs'>(11%)</text></g>
<g clip-path='url(#cpNDQxLjE1OXwxMTQ2LjUyfDI0OC4zNjZ8NS40Nzk0NQ==)'><text x='608.37' y='124.97' style='font-size: 5.69px; fill: none; font-family: Arial;' textLength='6.67px' lengthAdjust='spacingAndGlyphs'>49</text></g>
<g clip-path='url(#cpNDQxLjE1OXwxMTQ2LjUyfDI0OC4zNjZ8NS40Nzk0NQ==)'><text x='603.71' y='133.17' style='font-size: 5.69px; fill: none; font-family: Arial;' textLength='16.00px' lengthAdjust='spacingAndGlyphs'>(13%)</text></g>
<g clip-path='url(#cpNDQxLjE1OXwxMTQ2LjUyfDI0OC4zNjZ8NS40Nzk0NQ==)'><text x='717.48' y='124.97' style='font-size: 5.69px; fill: none; font-family: Arial;' textLength='6.67px' lengthAdjust='spacingAndGlyphs'>81</text></g>
<g clip-path='url(#cpNDQxLjE1OXwxMTQ2LjUyfDI0OC4zNjZ8NS40Nzk0NQ==)'><text x='712.82' y='133.17' style='font-size: 5.69px; fill: none; font-family: Arial;' textLength='16.00px' lengthAdjust='spacingAndGlyphs'>(21%)</text></g>
<g clip-path='url(#cpNDQxLjE1OXwxMTQ2LjUyfDI0OC4zNjZ8NS40Nzk0NQ==)'><text x='855.97' y='124.97' style='font-size: 5.69px; fill: none; font-family: Arial;' textLength='6.67px' lengthAdjust='spacingAndGlyphs'>84</text></g>
<g clip-path='url(#cpNDQxLjE1OXwxMTQ2LjUyfDI0OC4zNjZ8NS40Nzk0NQ==)'><text x='851.30' y='133.17' style='font-size: 5.69px; fill: none; font-family: Arial;' textLength='16.00px' lengthAdjust='spacingAndGlyphs'>(22%)</text></g>
<g clip-path='url(#cpNDQxLjE1OXwxMTQ2LjUyfDI0OC4zNjZ8NS40Nzk0NQ==)'><text x='991.10' y='124.97' style='font-size: 5.69px; fill: none; font-family: Arial;' textLength='6.67px' lengthAdjust='spacingAndGlyphs'>77</text></g>
<g clip-path='url(#cpNDQxLjE1OXwxMTQ2LjUyfDI0OC4zNjZ8NS40Nzk0NQ==)'><text x='986.43' y='133.17' style='font-size: 5.69px; fill: none; font-family: Arial;' textLength='16.00px' lengthAdjust='spacingAndGlyphs'>(20%)</text></g>
<g clip-path='url(#cpNDQxLjE1OXwxMTQ2LjUyfDI0OC4zNjZ8NS40Nzk0NQ==)'><text x='1083.42' y='124.97' style='font-size: 5.69px; fill: none; font-family: Arial;' textLength='6.67px' lengthAdjust='spacingAndGlyphs'>33</text></g>
<g clip-path='url(#cpNDQxLjE1OXwxMTQ2LjUyfDI0OC4zNjZ8NS40Nzk0NQ==)'><text x='1080.43' y='133.17' style='font-size: 5.69px; fill: none; font-family: Arial;' textLength='12.67px' lengthAdjust='spacingAndGlyphs'>(9%)</text></g>
<g clip-path='url(#cpNDQxLjE1OXwxMTQ2LjUyfDI0OC4zNjZ8NS40Nzk0NQ==)'><text x='485.83' y='98.57' style='font-size: 5.69px; fill: none; font-family: Arial;' textLength='6.67px' lengthAdjust='spacingAndGlyphs'>19</text></g>
<g clip-path='url(#cpNDQxLjE1OXwxMTQ2LjUyfDI0OC4zNjZ8NS40Nzk0NQ==)'><text x='482.83' y='106.77' style='font-size: 5.69px; fill: none; font-family: Arial;' textLength='12.67px' lengthAdjust='spacingAndGlyphs'>(5%)</text></g>
<g clip-path='url(#cpNDQxLjE1OXwxMTQ2LjUyfDI0OC4zNjZ8NS40Nzk0NQ==)'><text x='527.80' y='98.57' style='font-size: 5.69px; fill: none; font-family: Arial;' textLength='6.67px' lengthAdjust='spacingAndGlyphs'>31</text></g>
<g clip-path='url(#cpNDQxLjE1OXwxMTQ2LjUyfDI0OC4zNjZ8NS40Nzk0NQ==)'><text x='524.80' y='106.77' style='font-size: 5.69px; fill: none; font-family: Arial;' textLength='12.67px' lengthAdjust='spacingAndGlyphs'>(8%)</text></g>
<g clip-path='url(#cpNDQxLjE1OXwxMTQ2LjUyfDI0OC4zNjZ8NS40Nzk0NQ==)'><text x='598.30' y='98.57' style='font-size: 5.69px; fill: none; font-family: Arial;' textLength='6.67px' lengthAdjust='spacingAndGlyphs'>53</text></g>
<g clip-path='url(#cpNDQxLjE1OXwxMTQ2LjUyfDI0OC4zNjZ8NS40Nzk0NQ==)'><text x='593.63' y='106.77' style='font-size: 5.69px; fill: none; font-family: Arial;' textLength='16.00px' lengthAdjust='spacingAndGlyphs'>(14%)</text></g>
<g clip-path='url(#cpNDQxLjE1OXwxMTQ2LjUyfDI0OC4zNjZ8NS40Nzk0NQ==)'><text x='717.48' y='98.57' style='font-size: 5.69px; fill: none; font-family: Arial;' textLength='6.67px' lengthAdjust='spacingAndGlyphs'>89</text></g>
<g clip-path='url(#cpNDQxLjE1OXwxMTQ2LjUyfDI0OC4zNjZ8NS40Nzk0NQ==)'><text x='712.82' y='106.77' style='font-size: 5.69px; fill: none; font-family: Arial;' textLength='16.00px' lengthAdjust='spacingAndGlyphs'>(23%)</text></g>
<g clip-path='url(#cpNDQxLjE1OXwxMTQ2LjUyfDI0OC4zNjZ8NS40Nzk0NQ==)'><text x='867.72' y='98.57' style='font-size: 5.69px; fill: none; font-family: Arial;' textLength='6.67px' lengthAdjust='spacingAndGlyphs'>90</text></g>
<g clip-path='url(#cpNDQxLjE1OXwxMTQ2LjUyfDI0OC4zNjZ8NS40Nzk0NQ==)'><text x='863.05' y='106.77' style='font-size: 5.69px; fill: none; font-family: Arial;' textLength='16.00px' lengthAdjust='spacingAndGlyphs'>(24%)</text></g>
<g clip-path='url(#cpNDQxLjE1OXwxMTQ2LjUyfDI0OC4zNjZ8NS40Nzk0NQ==)'><text x='995.30' y='98.57' style='font-size: 5.69px; fill: none; font-family: Arial;' textLength='6.67px' lengthAdjust='spacingAndGlyphs'>62</text></g>
<g clip-path='url(#cpNDQxLjE1OXwxMTQ2LjUyfDI0OC4zNjZ8NS40Nzk0NQ==)'><text x='990.63' y='106.77' style='font-size: 5.69px; fill: none; font-family: Arial;' textLength='16.00px' lengthAdjust='spacingAndGlyphs'>(16%)</text></g>
<g clip-path='url(#cpNDQxLjE1OXwxMTQ2LjUyfDI0OC4zNjZ8NS40Nzk0NQ==)'><text x='1079.23' y='98.57' style='font-size: 5.69px; fill: none; font-family: Arial;' textLength='6.67px' lengthAdjust='spacingAndGlyphs'>38</text></g>
<g clip-path='url(#cpNDQxLjE1OXwxMTQ2LjUyfDI0OC4zNjZ8NS40Nzk0NQ==)'><text x='1074.56' y='106.77' style='font-size: 5.69px; fill: none; font-family: Arial;' textLength='16.00px' lengthAdjust='spacingAndGlyphs'>(10%)</text></g>
<g clip-path='url(#cpNDQxLjE1OXwxMTQ2LjUyfDI0OC4zNjZ8NS40Nzk0NQ==)'><text x='485.83' y='72.17' style='font-size: 5.69px; fill: none; font-family: Arial;' textLength='6.67px' lengthAdjust='spacingAndGlyphs'>19</text></g>
<g clip-path='url(#cpNDQxLjE1OXwxMTQ2LjUyfDI0OC4zNjZ8NS40Nzk0NQ==)'><text x='482.83' y='80.37' style='font-size: 5.69px; fill: none; font-family: Arial;' textLength='12.67px' lengthAdjust='spacingAndGlyphs'>(5%)</text></g>
<g clip-path='url(#cpNDQxLjE1OXwxMTQ2LjUyfDI0OC4zNjZ8NS40Nzk0NQ==)'><text x='537.03' y='72.17' style='font-size: 5.69px; fill: none; font-family: Arial;' textLength='6.67px' lengthAdjust='spacingAndGlyphs'>42</text></g>
<g clip-path='url(#cpNDQxLjE1OXwxMTQ2LjUyfDI0OC4zNjZ8NS40Nzk0NQ==)'><text x='532.36' y='80.37' style='font-size: 5.69px; fill: none; font-family: Arial;' textLength='16.00px' lengthAdjust='spacingAndGlyphs'>(11%)</text></g>
<g clip-path='url(#cpNDQxLjE1OXwxMTQ2LjUyfDI0OC4zNjZ8NS40Nzk0NQ==)'><text x='617.60' y='72.17' style='font-size: 5.69px; fill: none; font-family: Arial;' textLength='6.67px' lengthAdjust='spacingAndGlyphs'>54</text></g>
<g clip-path='url(#cpNDQxLjE1OXwxMTQ2LjUyfDI0OC4zNjZ8NS40Nzk0NQ==)'><text x='612.94' y='80.37' style='font-size: 5.69px; fill: none; font-family: Arial;' textLength='16.00px' lengthAdjust='spacingAndGlyphs'>(14%)</text></g>
<g clip-path='url(#cpNDQxLjE1OXwxMTQ2LjUyfDI0OC4zNjZ8NS40Nzk0NQ==)'><text x='733.43' y='72.17' style='font-size: 5.69px; fill: none; font-family: Arial;' textLength='6.67px' lengthAdjust='spacingAndGlyphs'>84</text></g>
<g clip-path='url(#cpNDQxLjE1OXwxMTQ2LjUyfDI0OC4zNjZ8NS40Nzk0NQ==)'><text x='728.76' y='80.37' style='font-size: 5.69px; fill: none; font-family: Arial;' textLength='16.00px' lengthAdjust='spacingAndGlyphs'>(22%)</text></g>
<g clip-path='url(#cpNDQxLjE1OXwxMTQ2LjUyfDI0OC4zNjZ8NS40Nzk0NQ==)'><text x='876.11' y='72.17' style='font-size: 5.69px; fill: none; font-family: Arial;' textLength='6.67px' lengthAdjust='spacingAndGlyphs'>86</text></g>
<g clip-path='url(#cpNDQxLjE1OXwxMTQ2LjUyfDI0OC4zNjZ8NS40Nzk0NQ==)'><text x='871.45' y='80.37' style='font-size: 5.69px; fill: none; font-family: Arial;' textLength='16.00px' lengthAdjust='spacingAndGlyphs'>(23%)</text></g>
<g clip-path='url(#cpNDQxLjE1OXwxMTQ2LjUyfDI0OC4zNjZ8NS40Nzk0NQ==)'><text x='1007.05' y='72.17' style='font-size: 5.69px; fill: none; font-family: Arial;' textLength='6.67px' lengthAdjust='spacingAndGlyphs'>70</text></g>
<g clip-path='url(#cpNDQxLjE1OXwxMTQ2LjUyfDI0OC4zNjZ8NS40Nzk0NQ==)'><text x='1002.38' y='80.37' style='font-size: 5.69px; fill: none; font-family: Arial;' textLength='16.00px' lengthAdjust='spacingAndGlyphs'>(18%)</text></g>
<g clip-path='url(#cpNDQxLjE1OXwxMTQ2LjUyfDI0OC4zNjZ8NS40Nzk0NQ==)'><text x='1088.46' y='72.17' style='font-size: 5.69px; fill: none; font-family: Arial;' textLength='6.67px' lengthAdjust='spacingAndGlyphs'>27</text></g>
<g clip-path='url(#cpNDQxLjE1OXwxMTQ2LjUyfDI0OC4zNjZ8NS40Nzk0NQ==)'><text x='1085.46' y='80.37' style='font-size: 5.69px; fill: none; font-family: Arial;' textLength='12.67px' lengthAdjust='spacingAndGlyphs'>(7%)</text></g>
<g clip-path='url(#cpNDQxLjE1OXwxMTQ2LjUyfDI0OC4zNjZ8NS40Nzk0NQ==)'><text x='491.76' y='45.77' style='font-size: 5.69px; fill: none; font-family: Arial;' textLength='6.67px' lengthAdjust='spacingAndGlyphs'>26</text></g>
<g clip-path='url(#cpNDQxLjE1OXwxMTQ2LjUyfDI0OC4zNjZ8NS40Nzk0NQ==)'><text x='488.77' y='53.97' style='font-size: 5.69px; fill: none; font-family: Arial;' textLength='12.67px' lengthAdjust='spacingAndGlyphs'>(7%)</text></g>
<g clip-path='url(#cpNDQxLjE1OXwxMTQ2LjUyfDI0OC4zNjZ8NS40Nzk0NQ==)'><text x='567.50' y='45.77' style='font-size: 5.69px; fill: none; font-family: Arial;' textLength='6.67px' lengthAdjust='spacingAndGlyphs'>64</text></g>
<g clip-path='url(#cpNDQxLjE1OXwxMTQ2LjUyfDI0OC4zNjZ8NS40Nzk0NQ==)'><text x='562.83' y='53.97' style='font-size: 5.69px; fill: none; font-family: Arial;' textLength='16.00px' lengthAdjust='spacingAndGlyphs'>(17%)</text></g>
<g clip-path='url(#cpNDQxLjE1OXwxMTQ2LjUyfDI0OC4zNjZ8NS40Nzk0NQ==)'><text x='693.73' y='45.77' style='font-size: 5.69px; fill: none; font-family: Arial;' textLength='6.67px' lengthAdjust='spacingAndGlyphs'>86</text></g>
<g clip-path='url(#cpNDQxLjE1OXwxMTQ2LjUyfDI0OC4zNjZ8NS40Nzk0NQ==)'><text x='689.06' y='53.97' style='font-size: 5.69px; fill: none; font-family: Arial;' textLength='16.00px' lengthAdjust='spacingAndGlyphs'>(23%)</text></g>
<g clip-path='url(#cpNDQxLjE1OXwxMTQ2LjUyfDI0OC4zNjZ8NS40Nzk0NQ==)'><text x='835.94' y='45.77' style='font-size: 5.69px; fill: none; font-family: Arial;' textLength='6.67px' lengthAdjust='spacingAndGlyphs'>83</text></g>
<g clip-path='url(#cpNDQxLjE1OXwxMTQ2LjUyfDI0OC4zNjZ8NS40Nzk0NQ==)'><text x='831.28' y='53.97' style='font-size: 5.69px; fill: none; font-family: Arial;' textLength='16.00px' lengthAdjust='spacingAndGlyphs'>(22%)</text></g>
<g clip-path='url(#cpNDQxLjE1OXwxMTQ2LjUyfDI0OC4zNjZ8NS40Nzk0NQ==)'><text x='973.95' y='45.77' style='font-size: 5.69px; fill: none; font-family: Arial;' textLength='6.67px' lengthAdjust='spacingAndGlyphs'>81</text></g>
<g clip-path='url(#cpNDQxLjE1OXwxMTQ2LjUyfDI0OC4zNjZ8NS40Nzk0NQ==)'><text x='969.29' y='53.97' style='font-size: 5.69px; fill: none; font-family: Arial;' textLength='16.00px' lengthAdjust='spacingAndGlyphs'>(21%)</text></g>
<g clip-path='url(#cpNDQxLjE1OXwxMTQ2LjUyfDI0OC4zNjZ8NS40Nzk0NQ==)'><text x='1065.68' y='45.77' style='font-size: 5.69px; fill: none; font-family: Arial;' textLength='6.67px' lengthAdjust='spacingAndGlyphs'>28</text></g>
<g clip-path='url(#cpNDQxLjE1OXwxMTQ2LjUyfDI0OC4zNjZ8NS40Nzk0NQ==)'><text x='1062.68' y='53.97' style='font-size: 5.69px; fill: none; font-family: Arial;' textLength='12.67px' lengthAdjust='spacingAndGlyphs'>(7%)</text></g>
<g clip-path='url(#cpNDQxLjE1OXwxMTQ2LjUyfDI0OC4zNjZ8NS40Nzk0NQ==)'><text x='1100.18' y='45.77' style='font-size: 5.69px; fill: none; font-family: Arial;' textLength='6.67px' lengthAdjust='spacingAndGlyphs'>13</text></g>
<g clip-path='url(#cpNDQxLjE1OXwxMTQ2LjUyfDI0OC4zNjZ8NS40Nzk0NQ==)'><text x='1097.18' y='53.97' style='font-size: 5.69px; fill: none; font-family: Arial;' textLength='12.67px' lengthAdjust='spacingAndGlyphs'>(3%)</text></g>
<g clip-path='url(#cpNDQxLjE1OXwxMTQ2LjUyfDI0OC4zNjZ8NS40Nzk0NQ==)'><text x='499.26' y='19.37' style='font-size: 5.69px; fill: none; font-family: Arial;' textLength='6.67px' lengthAdjust='spacingAndGlyphs'>35</text></g>
<g clip-path='url(#cpNDQxLjE1OXwxMTQ2LjUyfDI0OC4zNjZ8NS40Nzk0NQ==)'><text x='496.26' y='27.57' style='font-size: 5.69px; fill: none; font-family: Arial;' textLength='12.67px' lengthAdjust='spacingAndGlyphs'>(9%)</text></g>
<g clip-path='url(#cpNDQxLjE1OXwxMTQ2LjUyfDI0OC4zNjZ8NS40Nzk0NQ==)'><text x='584.03' y='19.37' style='font-size: 5.69px; fill: none; font-family: Arial;' textLength='6.67px' lengthAdjust='spacingAndGlyphs'>66</text></g>
<g clip-path='url(#cpNDQxLjE1OXwxMTQ2LjUyfDI0OC4zNjZ8NS40Nzk0NQ==)'><text x='579.37' y='27.57' style='font-size: 5.69px; fill: none; font-family: Arial;' textLength='16.00px' lengthAdjust='spacingAndGlyphs'>(17%)</text></g>
<g clip-path='url(#cpNDQxLjE1OXwxMTQ2LjUyfDI0OC4zNjZ8NS40Nzk0NQ==)'><text x='695.66' y='19.37' style='font-size: 5.69px; fill: none; font-family: Arial;' textLength='6.67px' lengthAdjust='spacingAndGlyphs'>67</text></g>
<g clip-path='url(#cpNDQxLjE1OXwxMTQ2LjUyfDI0OC4zNjZ8NS40Nzk0NQ==)'><text x='690.99' y='27.57' style='font-size: 5.69px; fill: none; font-family: Arial;' textLength='16.00px' lengthAdjust='spacingAndGlyphs'>(18%)</text></g>
<g clip-path='url(#cpNDQxLjE1OXwxMTQ2LjUyfDI0OC4zNjZ8NS40Nzk0NQ==)'><text x='829.95' y='19.37' style='font-size: 5.69px; fill: none; font-family: Arial;' textLength='6.67px' lengthAdjust='spacingAndGlyphs'>93</text></g>
<g clip-path='url(#cpNDQxLjE1OXwxMTQ2LjUyfDI0OC4zNjZ8NS40Nzk0NQ==)'><text x='825.29' y='27.57' style='font-size: 5.69px; fill: none; font-family: Arial;' textLength='16.00px' lengthAdjust='spacingAndGlyphs'>(24%)</text></g>
<g clip-path='url(#cpNDQxLjE1OXwxMTQ2LjUyfDI0OC4zNjZ8NS40Nzk0NQ==)'><text x='967.60' y='19.37' style='font-size: 5.69px; fill: none; font-family: Arial;' textLength='6.67px' lengthAdjust='spacingAndGlyphs'>71</text></g>
<g clip-path='url(#cpNDQxLjE1OXwxMTQ2LjUyfDI0OC4zNjZ8NS40Nzk0NQ==)'><text x='962.93' y='27.57' style='font-size: 5.69px; fill: none; font-family: Arial;' textLength='16.00px' lengthAdjust='spacingAndGlyphs'>(19%)</text></g>
<g clip-path='url(#cpNDQxLjE1OXwxMTQ2LjUyfDI0OC4zNjZ8NS40Nzk0NQ==)'><text x='1057.41' y='19.37' style='font-size: 5.69px; fill: none; font-family: Arial;' textLength='6.67px' lengthAdjust='spacingAndGlyphs'>36</text></g>
<g clip-path='url(#cpNDQxLjE1OXwxMTQ2LjUyfDI0OC4zNjZ8NS40Nzk0NQ==)'><text x='1054.41' y='27.57' style='font-size: 5.69px; fill: none; font-family: Arial;' textLength='12.67px' lengthAdjust='spacingAndGlyphs'>(9%)</text></g>
<g clip-path='url(#cpNDQxLjE1OXwxMTQ2LjUyfDI0OC4zNjZ8NS40Nzk0NQ==)'><text x='1099.37' y='19.37' style='font-size: 5.69px; fill: none; font-family: Arial;' textLength='6.67px' lengthAdjust='spacingAndGlyphs'>14</text></g>
<g clip-path='url(#cpNDQxLjE1OXwxMTQ2LjUyfDI0OC4zNjZ8NS40Nzk0NQ==)'><text x='1096.37' y='27.57' style='font-size: 5.69px; fill: none; font-family: Arial;' textLength='12.67px' lengthAdjust='spacingAndGlyphs'>(4%)</text></g>
<defs>
  <clipPath id='cpMHwxMTUyfDI4OHww'>
    <rect x='0.00' y='0.00' width='1152.00' height='288.00' />
  </clipPath>
</defs>
<g clip-path='url(#cpMHwxMTUyfDI4OHww)'><text x='125.72' y='240.04' style='font-size: 20.80px; fill: #4D4D4D; font-family: Arial;' textLength='298.85px' lengthAdjust='spacingAndGlyphs'>De eerste hulp in het ziekenhuis</text></g>
<g clip-path='url(#cpMHwxMTUyfDI4OHww)'><text x='57.99' y='213.64' style='font-size: 20.80px; fill: #4D4D4D; font-family: Arial;' textLength='366.58px' lengthAdjust='spacingAndGlyphs'>De eerste hulp bij een groot buitenfeest</text></g>
<g clip-path='url(#cpMHwxMTUyfDI4OHww)'><text x='52.14' y='187.24' style='font-size: 20.80px; fill: #4D4D4D; font-family: Arial;' textLength='372.42px' lengthAdjust='spacingAndGlyphs'>De eerste hulp bij een groot binnenfeest</text></g>
<g clip-path='url(#cpMHwxMTUyfDI4OHww)'><text x='185.26' y='160.84' style='font-size: 20.80px; fill: #4D4D4D; font-family: Arial;' textLength='239.31px' lengthAdjust='spacingAndGlyphs'>Mijn vrienden/vriendinnen</text></g>
<g clip-path='url(#cpMHwxMTUyfDI4OHww)'><text x='62.66' y='134.44' style='font-size: 20.80px; fill: #4D4D4D; font-family: Arial;' textLength='361.91px' lengthAdjust='spacingAndGlyphs'>De beveiliging bij een groot buitenfeest</text></g>
<g clip-path='url(#cpMHwxMTUyfDI4OHww)'><text x='5.48' y='108.04' style='font-size: 20.80px; fill: #4D4D4D; font-family: Arial;' textLength='419.09px' lengthAdjust='spacingAndGlyphs'>De eerste hulp in een cafe, club of klein feest</text></g>
<g clip-path='url(#cpMHwxMTUyfDI4OHww)'><text x='56.81' y='81.64' style='font-size: 20.80px; fill: #4D4D4D; font-family: Arial;' textLength='367.76px' lengthAdjust='spacingAndGlyphs'>De beveiliging bij een groot binnenfeest</text></g>
<g clip-path='url(#cpMHwxMTUyfDI4OHww)'><text x='263.47' y='55.24' style='font-size: 20.80px; fill: #4D4D4D; font-family: Arial;' textLength='161.10px' lengthAdjust='spacingAndGlyphs'>Het barpersoneel</text></g>
<g clip-path='url(#cpMHwxMTUyfDI4OHww)'><text x='10.14' y='28.84' style='font-size: 20.80px; fill: #4D4D4D; font-family: Arial;' textLength='414.42px' lengthAdjust='spacingAndGlyphs'>De beveiliging in een cafe, club of klein feest</text></g>
<polyline points='473.22,262.77 473.22,248.37 ' style='stroke-width: 2.13;' clip-path='url(#cpMHwxMTUyfDI4OHww)' />
<polyline points='537.34,262.77 537.34,248.37 ' style='stroke-width: 2.13;' clip-path='url(#cpMHwxMTUyfDI4OHww)' />
<polyline points='601.47,262.77 601.47,248.37 ' style='stroke-width: 2.13;' clip-path='url(#cpMHwxMTUyfDI4OHww)' />
<polyline points='665.59,262.77 665.59,248.37 ' style='stroke-width: 2.13;' clip-path='url(#cpMHwxMTUyfDI4OHww)' />
<polyline points='729.72,262.77 729.72,248.37 ' style='stroke-width: 2.13;' clip-path='url(#cpMHwxMTUyfDI4OHww)' />
<polyline points='793.84,262.77 793.84,248.37 ' style='stroke-width: 2.13;' clip-path='url(#cpMHwxMTUyfDI4OHww)' />
<polyline points='857.96,262.77 857.96,248.37 ' style='stroke-width: 2.13;' clip-path='url(#cpMHwxMTUyfDI4OHww)' />
<polyline points='922.09,262.77 922.09,248.37 ' style='stroke-width: 2.13;' clip-path='url(#cpMHwxMTUyfDI4OHww)' />
<polyline points='986.21,262.77 986.21,248.37 ' style='stroke-width: 2.13;' clip-path='url(#cpMHwxMTUyfDI4OHww)' />
<polyline points='1050.33,262.77 1050.33,248.37 ' style='stroke-width: 2.13;' clip-path='url(#cpMHwxMTUyfDI4OHww)' />
<polyline points='1114.46,262.77 1114.46,248.37 ' style='stroke-width: 2.13;' clip-path='url(#cpMHwxMTUyfDI4OHww)' />
<g clip-path='url(#cpMHwxMTUyfDI4OHww)'><text x='467.38' y='279.99' style='font-size: 20.80px; fill: #4D4D4D; font-family: Arial;' textLength='11.68px' lengthAdjust='spacingAndGlyphs'>0</text></g>
<g clip-path='url(#cpMHwxMTUyfDI4OHww)'><text x='525.67' y='279.99' style='font-size: 20.80px; fill: #4D4D4D; font-family: Arial;' textLength='23.36px' lengthAdjust='spacingAndGlyphs'>10</text></g>
<g clip-path='url(#cpMHwxMTUyfDI4OHww)'><text x='589.79' y='279.99' style='font-size: 20.80px; fill: #4D4D4D; font-family: Arial;' textLength='23.36px' lengthAdjust='spacingAndGlyphs'>20</text></g>
<g clip-path='url(#cpMHwxMTUyfDI4OHww)'><text x='653.91' y='279.99' style='font-size: 20.80px; fill: #4D4D4D; font-family: Arial;' textLength='23.36px' lengthAdjust='spacingAndGlyphs'>30</text></g>
<g clip-path='url(#cpMHwxMTUyfDI4OHww)'><text x='718.04' y='279.99' style='font-size: 20.80px; fill: #4D4D4D; font-family: Arial;' textLength='23.36px' lengthAdjust='spacingAndGlyphs'>40</text></g>
<g clip-path='url(#cpMHwxMTUyfDI4OHww)'><text x='782.16' y='279.99' style='font-size: 20.80px; fill: #4D4D4D; font-family: Arial;' textLength='23.36px' lengthAdjust='spacingAndGlyphs'>50</text></g>
<g clip-path='url(#cpMHwxMTUyfDI4OHww)'><text x='846.28' y='279.99' style='font-size: 20.80px; fill: #4D4D4D; font-family: Arial;' textLength='23.36px' lengthAdjust='spacingAndGlyphs'>60</text></g>
<g clip-path='url(#cpMHwxMTUyfDI4OHww)'><text x='910.41' y='279.99' style='font-size: 20.80px; fill: #4D4D4D; font-family: Arial;' textLength='23.36px' lengthAdjust='spacingAndGlyphs'>70</text></g>
<g clip-path='url(#cpMHwxMTUyfDI4OHww)'><text x='974.53' y='279.99' style='font-size: 20.80px; fill: #4D4D4D; font-family: Arial;' textLength='23.36px' lengthAdjust='spacingAndGlyphs'>80</text></g>
<g clip-path='url(#cpMHwxMTUyfDI4OHww)'><text x='1038.66' y='279.99' style='font-size: 20.80px; fill: #4D4D4D; font-family: Arial;' textLength='23.36px' lengthAdjust='spacingAndGlyphs'>90</text></g>
<g clip-path='url(#cpMHwxMTUyfDI4OHww)'><text x='1096.94' y='279.99' style='font-size: 20.80px; fill: #4D4D4D; font-family: Arial;' textLength='35.04px' lengthAdjust='spacingAndGlyphs'>100</text></g>
</svg>
