<?xml version='1.0' encoding='UTF-8' ?>
<svg xmlns='http://www.w3.org/2000/svg' xmlns:xlink='http://www.w3.org/1999/xlink' class='svglite' width='720.00pt' height='576.00pt' viewBox='0 0 720.00 576.00'>
<defs>
  <style type='text/css'><![CDATA[
    .svglite line, .svglite polyline, .svglite polygon, .svglite path, .svglite rect, .svglite circle {
      fill: none;
      stroke: #000000;
      stroke-linecap: round;
      stroke-linejoin: round;
      stroke-miterlimit: 10.00;
    }
  ]]></style>
</defs>
<rect width='100%' height='100%' style='stroke: none; fill: none;'/>
<defs>
  <clipPath id='cpMC4wMHw3MjAuMDB8MC4wMHw1NzYuMDA='>
    <rect x='0.00' y='0.00' width='720.00' height='576.00' />
  </clipPath>
</defs>
<g clip-path='url(#cpMC4wMHw3MjAuMDB8MC4wMHw1NzYuMDA=)'>
</g>
<defs>
  <clipPath id='cpMTgyLjEzfDcxNC41Mnw1LjQ4fDQ5NS40OA=='>
    <rect x='182.13' y='5.48' width='532.39' height='490.00' />
  </clipPath>
</defs>
<g clip-path='url(#cpMTgyLjEzfDcxNC41Mnw1LjQ4fDQ5NS40OA==)'>
<polyline points='266.83,495.48 266.83,5.48 ' style='stroke-width: 0.53; stroke: #EBEBEB; stroke-linecap: butt;' />
<polyline points='387.83,495.48 387.83,5.48 ' style='stroke-width: 0.53; stroke: #EBEBEB; stroke-linecap: butt;' />
<polyline points='508.82,495.48 508.82,5.48 ' style='stroke-width: 0.53; stroke: #EBEBEB; stroke-linecap: butt;' />
<polyline points='629.82,495.48 629.82,5.48 ' style='stroke-width: 0.53; stroke: #EBEBEB; stroke-linecap: butt;' />
<polyline points='182.13,459.63 714.52,459.63 ' style='stroke-width: 1.07; stroke: #EBEBEB; stroke-linecap: butt;' />
<polyline points='182.13,399.87 714.52,399.87 ' style='stroke-width: 1.07; stroke: #EBEBEB; stroke-linecap: butt;' />
<polyline points='182.13,340.11 714.52,340.11 ' style='stroke-width: 1.07; stroke: #EBEBEB; stroke-linecap: butt;' />
<polyline points='182.13,280.36 714.52,280.36 ' style='stroke-width: 1.07; stroke: #EBEBEB; stroke-linecap: butt;' />
<polyline points='182.13,220.60 714.52,220.60 ' style='stroke-width: 1.07; stroke: #EBEBEB; stroke-linecap: butt;' />
<polyline points='182.13,160.85 714.52,160.85 ' style='stroke-width: 1.07; stroke: #EBEBEB; stroke-linecap: butt;' />
<polyline points='182.13,101.09 714.52,101.09 ' style='stroke-width: 1.07; stroke: #EBEBEB; stroke-linecap: butt;' />
<polyline points='182.13,41.33 714.52,41.33 ' style='stroke-width: 1.07; stroke: #EBEBEB; stroke-linecap: butt;' />
<polyline points='206.33,495.48 206.33,5.48 ' style='stroke-width: 1.07; stroke: #EBEBEB; stroke-linecap: butt;' />
<polyline points='327.33,495.48 327.33,5.48 ' style='stroke-width: 1.07; stroke: #EBEBEB; stroke-linecap: butt;' />
<polyline points='448.33,495.48 448.33,5.48 ' style='stroke-width: 1.07; stroke: #EBEBEB; stroke-linecap: butt;' />
<polyline points='569.32,495.48 569.32,5.48 ' style='stroke-width: 1.07; stroke: #EBEBEB; stroke-linecap: butt;' />
<polyline points='690.32,495.48 690.32,5.48 ' style='stroke-width: 1.07; stroke: #EBEBEB; stroke-linecap: butt;' />
<rect x='206.33' y='432.74' width='329.83' height='53.78' style='stroke-width: 1.07; stroke: none; stroke-linecap: square; stroke-linejoin: miter; fill: #440154;' />
<rect x='536.16' y='432.74' width='129.12' height='53.78' style='stroke-width: 1.07; stroke: none; stroke-linecap: square; stroke-linejoin: miter; fill: #21908C;' />
<rect x='665.29' y='432.74' width='25.03' height='53.78' style='stroke-width: 1.07; stroke: none; stroke-linecap: square; stroke-linejoin: miter; fill: #FDE725;' />
<rect x='206.33' y='372.98' width='381.13' height='53.78' style='stroke-width: 1.07; stroke: none; stroke-linecap: square; stroke-linejoin: miter; fill: #440154;' />
<rect x='587.46' y='372.98' width='86.60' height='53.78' style='stroke-width: 1.07; stroke: none; stroke-linecap: square; stroke-linejoin: miter; fill: #21908C;' />
<rect x='674.06' y='372.98' width='16.26' height='53.78' style='stroke-width: 1.07; stroke: none; stroke-linecap: square; stroke-linejoin: miter; fill: #FDE725;' />
<rect x='206.33' y='313.22' width='398.50' height='53.78' style='stroke-width: 1.07; stroke: none; stroke-linecap: square; stroke-linejoin: miter; fill: #440154;' />
<rect x='604.83' y='313.22' width='72.77' height='53.78' style='stroke-width: 1.07; stroke: none; stroke-linecap: square; stroke-linejoin: miter; fill: #21908C;' />
<rect x='677.61' y='313.22' width='12.71' height='53.78' style='stroke-width: 1.07; stroke: none; stroke-linecap: square; stroke-linejoin: miter; fill: #FDE725;' />
<rect x='206.33' y='253.47' width='342.77' height='53.78' style='stroke-width: 1.07; stroke: none; stroke-linecap: square; stroke-linejoin: miter; fill: #440154;' />
<rect x='549.10' y='253.47' width='111.49' height='53.78' style='stroke-width: 1.07; stroke: none; stroke-linecap: square; stroke-linejoin: miter; fill: #21908C;' />
<rect x='660.59' y='253.47' width='29.73' height='53.78' style='stroke-width: 1.07; stroke: none; stroke-linecap: square; stroke-linejoin: miter; fill: #FDE725;' />
<rect x='206.33' y='193.71' width='391.72' height='53.78' style='stroke-width: 1.07; stroke: none; stroke-linecap: square; stroke-linejoin: miter; fill: #440154;' />
<rect x='598.05' y='193.71' width='77.91' height='53.78' style='stroke-width: 1.07; stroke: none; stroke-linecap: square; stroke-linejoin: miter; fill: #21908C;' />
<rect x='675.96' y='193.71' width='14.36' height='53.78' style='stroke-width: 1.07; stroke: none; stroke-linecap: square; stroke-linejoin: miter; fill: #FDE725;' />
<rect x='206.33' y='133.96' width='201.16' height='53.78' style='stroke-width: 1.07; stroke: none; stroke-linecap: square; stroke-linejoin: miter; fill: #440154;' />
<rect x='407.49' y='133.96' width='137.72' height='53.78' style='stroke-width: 1.07; stroke: none; stroke-linecap: square; stroke-linejoin: miter; fill: #21908C;' />
<rect x='545.21' y='133.96' width='145.11' height='53.78' style='stroke-width: 1.07; stroke: none; stroke-linecap: square; stroke-linejoin: miter; fill: #FDE725;' />
<rect x='206.33' y='74.20' width='104.42' height='53.78' style='stroke-width: 1.07; stroke: none; stroke-linecap: square; stroke-linejoin: miter; fill: #440154;' />
<rect x='310.75' y='74.20' width='107.89' height='53.78' style='stroke-width: 1.07; stroke: none; stroke-linecap: square; stroke-linejoin: miter; fill: #21908C;' />
<rect x='418.65' y='74.20' width='271.68' height='53.78' style='stroke-width: 1.07; stroke: none; stroke-linecap: square; stroke-linejoin: miter; fill: #FDE725;' />
<rect x='206.33' y='14.44' width='69.08' height='53.78' style='stroke-width: 1.07; stroke: none; stroke-linecap: square; stroke-linejoin: miter; fill: #440154;' />
<rect x='275.41' y='14.44' width='196.88' height='53.78' style='stroke-width: 1.07; stroke: none; stroke-linecap: square; stroke-linejoin: miter; fill: #21908C;' />
<rect x='472.29' y='14.44' width='218.03' height='53.78' style='stroke-width: 1.07; stroke: none; stroke-linecap: square; stroke-linejoin: miter; fill: #FDE725;' />
<text x='371.25' y='457.57' text-anchor='middle' style='font-size: 5.69px; fill: none; font-family: Arial;' textLength='9.48px' lengthAdjust='spacingAndGlyphs'>751</text>
<text x='371.25' y='465.76' text-anchor='middle' style='font-size: 5.69px; fill: none; font-family: Arial;' textLength='15.16px' lengthAdjust='spacingAndGlyphs'>(68%)</text>
<text x='600.73' y='457.57' text-anchor='middle' style='font-size: 5.69px; fill: none; font-family: Arial;' textLength='9.48px' lengthAdjust='spacingAndGlyphs'>294</text>
<text x='600.73' y='465.76' text-anchor='middle' style='font-size: 5.69px; fill: none; font-family: Arial;' textLength='15.16px' lengthAdjust='spacingAndGlyphs'>(27%)</text>
<text x='677.80' y='457.57' text-anchor='middle' style='font-size: 5.69px; fill: none; font-family: Arial;' textLength='6.32px' lengthAdjust='spacingAndGlyphs'>57</text>
<text x='677.80' y='465.76' text-anchor='middle' style='font-size: 5.69px; fill: none; font-family: Arial;' textLength='12.00px' lengthAdjust='spacingAndGlyphs'>(5%)</text>
<text x='396.89' y='397.81' text-anchor='middle' style='font-size: 5.69px; fill: none; font-family: Arial;' textLength='9.48px' lengthAdjust='spacingAndGlyphs'>867</text>
<text x='396.89' y='406.01' text-anchor='middle' style='font-size: 5.69px; fill: none; font-family: Arial;' textLength='15.16px' lengthAdjust='spacingAndGlyphs'>(79%)</text>
<text x='630.76' y='397.81' text-anchor='middle' style='font-size: 5.69px; fill: none; font-family: Arial;' textLength='9.48px' lengthAdjust='spacingAndGlyphs'>197</text>
<text x='630.76' y='406.01' text-anchor='middle' style='font-size: 5.69px; fill: none; font-family: Arial;' textLength='15.16px' lengthAdjust='spacingAndGlyphs'>(18%)</text>
<text x='682.19' y='397.81' text-anchor='middle' style='font-size: 5.69px; fill: none; font-family: Arial;' textLength='6.32px' lengthAdjust='spacingAndGlyphs'>37</text>
<text x='682.19' y='406.01' text-anchor='middle' style='font-size: 5.69px; fill: none; font-family: Arial;' textLength='12.00px' lengthAdjust='spacingAndGlyphs'>(3%)</text>
<text x='405.58' y='338.06' text-anchor='middle' style='font-size: 5.69px; fill: none; font-family: Arial;' textLength='9.48px' lengthAdjust='spacingAndGlyphs'>909</text>
<text x='405.58' y='346.25' text-anchor='middle' style='font-size: 5.69px; fill: none; font-family: Arial;' textLength='15.16px' lengthAdjust='spacingAndGlyphs'>(82%)</text>
<text x='641.22' y='338.06' text-anchor='middle' style='font-size: 5.69px; fill: none; font-family: Arial;' textLength='9.48px' lengthAdjust='spacingAndGlyphs'>166</text>
<text x='641.22' y='346.25' text-anchor='middle' style='font-size: 5.69px; fill: none; font-family: Arial;' textLength='15.16px' lengthAdjust='spacingAndGlyphs'>(15%)</text>
<text x='683.96' y='338.06' text-anchor='middle' style='font-size: 5.69px; fill: none; font-family: Arial;' textLength='6.32px' lengthAdjust='spacingAndGlyphs'>29</text>
<text x='683.96' y='346.25' text-anchor='middle' style='font-size: 5.69px; fill: none; font-family: Arial;' textLength='12.00px' lengthAdjust='spacingAndGlyphs'>(3%)</text>
<text x='377.72' y='278.30' text-anchor='middle' style='font-size: 5.69px; fill: none; font-family: Arial;' textLength='9.48px' lengthAdjust='spacingAndGlyphs'>784</text>
<text x='377.72' y='286.49' text-anchor='middle' style='font-size: 5.69px; fill: none; font-family: Arial;' textLength='15.16px' lengthAdjust='spacingAndGlyphs'>(71%)</text>
<text x='604.85' y='278.30' text-anchor='middle' style='font-size: 5.69px; fill: none; font-family: Arial;' textLength='9.48px' lengthAdjust='spacingAndGlyphs'>255</text>
<text x='604.85' y='286.49' text-anchor='middle' style='font-size: 5.69px; fill: none; font-family: Arial;' textLength='15.16px' lengthAdjust='spacingAndGlyphs'>(23%)</text>
<text x='675.46' y='278.30' text-anchor='middle' style='font-size: 5.69px; fill: none; font-family: Arial;' textLength='6.32px' lengthAdjust='spacingAndGlyphs'>68</text>
<text x='675.46' y='286.49' text-anchor='middle' style='font-size: 5.69px; fill: none; font-family: Arial;' textLength='12.00px' lengthAdjust='spacingAndGlyphs'>(6%)</text>
<text x='402.19' y='218.54' text-anchor='middle' style='font-size: 5.69px; fill: none; font-family: Arial;' textLength='9.48px' lengthAdjust='spacingAndGlyphs'>900</text>
<text x='402.19' y='226.74' text-anchor='middle' style='font-size: 5.69px; fill: none; font-family: Arial;' textLength='15.16px' lengthAdjust='spacingAndGlyphs'>(81%)</text>
<text x='637.00' y='218.54' text-anchor='middle' style='font-size: 5.69px; fill: none; font-family: Arial;' textLength='9.48px' lengthAdjust='spacingAndGlyphs'>179</text>
<text x='637.00' y='226.74' text-anchor='middle' style='font-size: 5.69px; fill: none; font-family: Arial;' textLength='15.16px' lengthAdjust='spacingAndGlyphs'>(16%)</text>
<text x='683.14' y='218.54' text-anchor='middle' style='font-size: 5.69px; fill: none; font-family: Arial;' textLength='6.32px' lengthAdjust='spacingAndGlyphs'>33</text>
<text x='683.14' y='226.74' text-anchor='middle' style='font-size: 5.69px; fill: none; font-family: Arial;' textLength='12.00px' lengthAdjust='spacingAndGlyphs'>(3%)</text>
<text x='306.91' y='158.79' text-anchor='middle' style='font-size: 5.69px; fill: none; font-family: Arial;' textLength='9.48px' lengthAdjust='spacingAndGlyphs'>463</text>
<text x='306.91' y='166.98' text-anchor='middle' style='font-size: 5.69px; fill: none; font-family: Arial;' textLength='15.16px' lengthAdjust='spacingAndGlyphs'>(42%)</text>
<text x='476.35' y='158.79' text-anchor='middle' style='font-size: 5.69px; fill: none; font-family: Arial;' textLength='9.48px' lengthAdjust='spacingAndGlyphs'>317</text>
<text x='476.35' y='166.98' text-anchor='middle' style='font-size: 5.69px; fill: none; font-family: Arial;' textLength='15.16px' lengthAdjust='spacingAndGlyphs'>(28%)</text>
<text x='617.77' y='158.79' text-anchor='middle' style='font-size: 5.69px; fill: none; font-family: Arial;' textLength='9.48px' lengthAdjust='spacingAndGlyphs'>334</text>
<text x='617.77' y='166.98' text-anchor='middle' style='font-size: 5.69px; fill: none; font-family: Arial;' textLength='15.16px' lengthAdjust='spacingAndGlyphs'>(30%)</text>
<text x='258.54' y='99.03' text-anchor='middle' style='font-size: 5.69px; fill: none; font-family: Arial;' textLength='9.48px' lengthAdjust='spacingAndGlyphs'>241</text>
<text x='258.54' y='107.22' text-anchor='middle' style='font-size: 5.69px; fill: none; font-family: Arial;' textLength='15.16px' lengthAdjust='spacingAndGlyphs'>(22%)</text>
<text x='364.70' y='99.03' text-anchor='middle' style='font-size: 5.69px; fill: none; font-family: Arial;' textLength='9.48px' lengthAdjust='spacingAndGlyphs'>249</text>
<text x='364.70' y='107.22' text-anchor='middle' style='font-size: 5.69px; fill: none; font-family: Arial;' textLength='15.16px' lengthAdjust='spacingAndGlyphs'>(22%)</text>
<text x='554.48' y='99.03' text-anchor='middle' style='font-size: 5.69px; fill: none; font-family: Arial;' textLength='9.48px' lengthAdjust='spacingAndGlyphs'>627</text>
<text x='554.48' y='107.22' text-anchor='middle' style='font-size: 5.69px; fill: none; font-family: Arial;' textLength='15.16px' lengthAdjust='spacingAndGlyphs'>(56%)</text>
<text x='240.87' y='39.27' text-anchor='middle' style='font-size: 5.69px; fill: none; font-family: Arial;' textLength='9.48px' lengthAdjust='spacingAndGlyphs'>160</text>
<text x='240.87' y='47.47' text-anchor='middle' style='font-size: 5.69px; fill: none; font-family: Arial;' textLength='15.16px' lengthAdjust='spacingAndGlyphs'>(14%)</text>
<text x='373.85' y='39.27' text-anchor='middle' style='font-size: 5.69px; fill: none; font-family: Arial;' textLength='9.48px' lengthAdjust='spacingAndGlyphs'>456</text>
<text x='373.85' y='47.47' text-anchor='middle' style='font-size: 5.69px; fill: none; font-family: Arial;' textLength='15.16px' lengthAdjust='spacingAndGlyphs'>(41%)</text>
<text x='581.30' y='39.27' text-anchor='middle' style='font-size: 5.69px; fill: none; font-family: Arial;' textLength='9.48px' lengthAdjust='spacingAndGlyphs'>505</text>
<text x='581.30' y='47.47' text-anchor='middle' style='font-size: 5.69px; fill: none; font-family: Arial;' textLength='15.16px' lengthAdjust='spacingAndGlyphs'>(45%)</text>
</g>
<g clip-path='url(#cpMC4wMHw3MjAuMDB8MC4wMHw1NzYuMDA=)'>
<text x='177.20' y='462.78' text-anchor='end' style='font-size: 8.80px; fill: #4D4D4D; font-family: Arial;' textLength='162.94px' lengthAdjust='spacingAndGlyphs'>goingOutFreq_cat_three_bigPartyOutside</text>
<text x='177.20' y='403.02' text-anchor='end' style='font-size: 8.80px; fill: #4D4D4D; font-family: Arial;' textLength='171.72px' lengthAdjust='spacingAndGlyphs'>goingOutFreq_cat_three_smallPartyOutside</text>
<text x='177.20' y='343.26' text-anchor='end' style='font-size: 8.80px; fill: #4D4D4D; font-family: Arial;' textLength='156.09px' lengthAdjust='spacingAndGlyphs'>goingOutFreq_cat_three_bigPartyInside</text>
<text x='177.20' y='283.51' text-anchor='end' style='font-size: 8.80px; fill: #4D4D4D; font-family: Arial;' textLength='164.87px' lengthAdjust='spacingAndGlyphs'>goingOutFreq_cat_three_smallPartyInside</text>
<text x='177.20' y='223.75' text-anchor='end' style='font-size: 8.80px; fill: #4D4D4D; font-family: Arial;' textLength='119.90px' lengthAdjust='spacingAndGlyphs'>goingOutFreq_cat_three_band</text>
<text x='177.20' y='164.00' text-anchor='end' style='font-size: 8.80px; fill: #4D4D4D; font-family: Arial;' textLength='120.86px' lengthAdjust='spacingAndGlyphs'>goingOutFreq_cat_three_disco</text>
<text x='177.20' y='104.24' text-anchor='end' style='font-size: 8.80px; fill: #4D4D4D; font-family: Arial;' textLength='116.96px' lengthAdjust='spacingAndGlyphs'>goingOutFreq_cat_three_cafe</text>
<text x='177.20' y='44.48' text-anchor='end' style='font-size: 8.80px; fill: #4D4D4D; font-family: Arial;' textLength='143.87px' lengthAdjust='spacingAndGlyphs'>goingOutFreq_cat_three_houseparty</text>
<text x='206.33' y='506.71' text-anchor='middle' style='font-size: 8.80px; fill: #4D4D4D; font-family: Arial;' textLength='4.90px' lengthAdjust='spacingAndGlyphs'>0</text>
<text x='327.33' y='506.71' text-anchor='middle' style='font-size: 8.80px; fill: #4D4D4D; font-family: Arial;' textLength='9.79px' lengthAdjust='spacingAndGlyphs'>25</text>
<text x='448.33' y='506.71' text-anchor='middle' style='font-size: 8.80px; fill: #4D4D4D; font-family: Arial;' textLength='9.79px' lengthAdjust='spacingAndGlyphs'>50</text>
<text x='569.32' y='506.71' text-anchor='middle' style='font-size: 8.80px; fill: #4D4D4D; font-family: Arial;' textLength='9.79px' lengthAdjust='spacingAndGlyphs'>75</text>
<text x='690.32' y='506.71' text-anchor='middle' style='font-size: 8.80px; fill: #4D4D4D; font-family: Arial;' textLength='14.69px' lengthAdjust='spacingAndGlyphs'>100</text>
<rect x='314.30' y='525.71' width='15.86' height='15.86' style='stroke-width: 1.07; stroke: none; stroke-linecap: square; stroke-linejoin: miter; fill: #440154;' />
<rect x='429.96' y='525.71' width='15.86' height='15.86' style='stroke-width: 1.07; stroke: none; stroke-linecap: square; stroke-linejoin: miter; fill: #21908C;' />
<rect x='314.30' y='548.47' width='15.86' height='15.86' style='stroke-width: 1.07; stroke: none; stroke-linecap: square; stroke-linejoin: miter; fill: #FDE725;' />
<text x='336.35' y='536.79' style='font-size: 8.80px; font-family: Arial;' textLength='79.74px' lengthAdjust='spacingAndGlyphs'>Twee keer of minder</text>
<text x='452.01' y='536.79' style='font-size: 8.80px; font-family: Arial;' textLength='136.53px' lengthAdjust='spacingAndGlyphs'>Elke maand tot elke paar maanden</text>
<text x='336.35' y='559.55' style='font-size: 8.80px; font-family: Arial;' textLength='87.42px' lengthAdjust='spacingAndGlyphs'>Vaker dan elke maand</text>
</g>
</svg>
