<?xml version='1.0' encoding='UTF-8' ?>
<svg xmlns='http://www.w3.org/2000/svg' xmlns:xlink='http://www.w3.org/1999/xlink' class='svglite' width='566.93pt' height='340.16pt' viewBox='0 0 566.93 340.16'>
<defs>
  <style type='text/css'><![CDATA[
    .svglite line, .svglite polyline, .svglite polygon, .svglite path, .svglite rect, .svglite circle {
      fill: none;
      stroke: #000000;
      stroke-linecap: round;
      stroke-linejoin: round;
      stroke-miterlimit: 10.00;
    }
  ]]></style>
</defs>
<rect width='100%' height='100%' style='stroke: none; fill: none;'/>
<defs>
  <clipPath id='cpMC4wMHw1NjYuOTN8MC4wMHwzNDAuMTY='>
    <rect x='0.00' y='0.00' width='566.93' height='340.16' />
  </clipPath>
</defs>
<g clip-path='url(#cpMC4wMHw1NjYuOTN8MC4wMHwzNDAuMTY=)'>
</g>
<defs>
  <clipPath id='cpOTAuMTd8NTYxLjQ1fDMxLjUwfDMwOC42Ng=='>
    <rect x='90.17' y='31.50' width='471.28' height='277.16' />
  </clipPath>
</defs>
<g clip-path='url(#cpOTAuMTd8NTYxLjQ1fDMxLjUwfDMwOC42Ng==)'>
<polyline points='167.21,308.66 167.21,31.50 ' style='stroke-width: 0.53; stroke: #EBEBEB; stroke-linecap: butt;' />
<polyline points='266.33,308.66 266.33,31.50 ' style='stroke-width: 0.53; stroke: #EBEBEB; stroke-linecap: butt;' />
<polyline points='365.46,308.66 365.46,31.50 ' style='stroke-width: 0.53; stroke: #EBEBEB; stroke-linecap: butt;' />
<polyline points='464.58,308.66 464.58,31.50 ' style='stroke-width: 0.53; stroke: #EBEBEB; stroke-linecap: butt;' />
<polyline points='90.17,233.64 561.45,233.64 ' style='stroke-width: 1.07; stroke: #EBEBEB; stroke-linecap: butt;' />
<polyline points='117.64,308.66 117.64,31.50 ' style='stroke-width: 1.07; stroke: #EBEBEB; stroke-linecap: butt;' />
<polyline points='216.77,308.66 216.77,31.50 ' style='stroke-width: 1.07; stroke: #EBEBEB; stroke-linecap: butt;' />
<polyline points='315.89,308.66 315.89,31.50 ' style='stroke-width: 1.07; stroke: #EBEBEB; stroke-linecap: butt;' />
<polyline points='415.02,308.66 415.02,31.50 ' style='stroke-width: 1.07; stroke: #EBEBEB; stroke-linecap: butt;' />
<polyline points='514.15,308.66 514.15,31.50 ' style='stroke-width: 1.07; stroke: #EBEBEB; stroke-linecap: butt;' />
<polygon points='111.59,230.63 112.43,224.81 113.26,211.55 114.10,186.42 114.94,147.34 115.78,98.98 116.62,54.63 117.46,31.50 118.29,40.56 119.13,77.94 119.97,126.60 120.81,170.25 121.65,199.75 122.49,213.19 123.33,211.83 124.16,197.21 125.00,171.85 125.84,141.64 126.68,116.34 127.52,105.87 128.36,114.68 129.19,138.97 130.03,169.27 130.87,196.15 131.71,214.46 132.55,223.58 133.39,225.12 134.23,220.93 135.06,212.72 135.90,202.93 136.74,195.04 137.58,192.47 138.42,196.49 139.26,205.37 140.09,215.52 140.93,223.76 141.77,228.61 142.61,230.19 143.45,229.01 144.29,225.44 145.12,220.13 145.96,214.51 146.80,210.58 147.64,209.95 148.48,212.85 149.32,218.03 150.16,223.59 150.99,228.05 151.83,230.80 152.67,231.94 153.51,231.80 154.35,230.71 155.19,229.03 156.02,227.30 156.86,226.16 157.70,226.11 158.54,227.20 159.38,228.96 160.22,230.76 161.06,232.12 161.89,232.88 162.73,233.09 163.57,232.87 164.41,232.30 165.25,231.51 166.09,230.77 166.92,230.36 167.76,230.46 168.60,231.02 169.44,231.79 170.28,232.48 171.12,232.89 171.95,232.86 172.79,232.23 173.63,230.85 174.47,228.71 175.31,226.15 176.15,223.92 176.99,222.85 177.82,223.39 178.66,225.33 179.50,227.90 180.34,230.26 181.18,231.94 182.02,232.88 182.85,233.25 183.69,233.27 184.53,233.10 185.37,232.84 186.21,232.61 187.05,232.51 187.88,232.61 188.72,232.85 189.56,233.12 190.40,233.36 191.24,233.51 192.08,233.59 192.92,233.62 193.75,233.64 194.59,233.64 195.43,233.64 196.27,233.64 197.11,233.64 197.95,233.64 198.78,233.64 199.62,233.64 200.46,233.64 201.30,233.64 202.14,233.64 202.98,233.64 203.82,233.64 204.65,233.64 205.49,233.64 206.33,233.64 207.17,233.64 208.01,233.64 208.85,233.64 209.68,233.64 210.52,233.63 211.36,233.61 212.20,233.55 213.04,233.43 213.88,233.23 214.71,232.96 215.55,232.71 216.39,232.56 217.23,232.58 218.07,232.74 218.91,233.00 219.75,233.25 220.58,233.43 221.42,233.55 222.26,233.61 223.10,233.63 223.94,233.64 224.78,233.64 225.61,233.64 226.45,233.64 227.29,233.64 228.13,233.64 228.97,233.64 229.81,233.62 230.65,233.58 231.48,233.44 232.32,233.14 233.16,232.57 234.00,231.65 234.84,230.55 235.68,229.60 236.51,229.18 237.35,229.49 238.19,230.36 239.03,231.44 239.87,232.38 240.71,233.03 241.54,233.39 242.38,233.55 243.22,233.62 244.06,233.64 244.90,233.64 245.74,233.64 246.58,233.64 247.41,233.64 248.25,233.64 249.09,233.64 249.93,233.64 250.77,233.64 251.61,233.64 252.44,233.64 253.28,233.64 254.12,233.64 254.96,233.64 255.80,233.64 256.64,233.64 257.48,233.64 258.31,233.64 259.15,233.64 259.99,233.64 260.83,233.64 261.67,233.64 262.51,233.64 263.34,233.64 264.18,233.64 265.02,233.64 265.86,233.64 266.70,233.64 267.54,233.64 268.37,233.64 269.21,233.64 270.05,233.64 270.89,233.64 271.73,233.64 272.57,233.64 273.41,233.64 274.24,233.64 275.08,233.64 275.92,233.64 276.76,233.64 277.60,233.64 278.44,233.64 279.27,233.64 280.11,233.64 280.95,233.64 281.79,233.64 282.63,233.64 283.47,233.64 284.30,233.64 285.14,233.64 285.98,233.64 286.82,233.64 287.66,233.64 288.50,233.64 289.34,233.64 290.17,233.64 291.01,233.64 291.85,233.64 292.69,233.64 293.53,233.64 294.37,233.64 295.20,233.64 296.04,233.64 296.88,233.64 297.72,233.64 298.56,233.64 299.40,233.64 300.24,233.64 301.07,233.64 301.91,233.64 302.75,233.64 303.59,233.64 304.43,233.64 305.27,233.64 306.10,233.64 306.94,233.64 307.78,233.64 308.62,233.64 309.46,233.64 310.30,233.64 311.13,233.64 311.97,233.64 312.81,233.64 313.65,233.64 314.49,233.64 315.33,233.64 316.17,233.64 317.00,233.64 317.84,233.64 318.68,233.64 319.52,233.64 320.36,233.64 321.20,233.64 322.03,233.64 322.87,233.64 323.71,233.64 324.55,233.64 325.39,233.64 326.23,233.64 327.07,233.64 327.90,233.64 328.74,233.64 329.58,233.64 330.42,233.64 331.26,233.64 332.10,233.64 332.93,233.64 333.77,233.64 334.61,233.64 335.45,233.64 336.29,233.64 337.13,233.64 337.96,233.64 338.80,233.64 339.64,233.64 340.48,233.64 341.32,233.64 342.16,233.64 343.00,233.64 343.83,233.64 344.67,233.64 345.51,233.64 346.35,233.64 347.19,233.64 348.03,233.64 348.86,233.64 349.70,233.62 350.54,233.58 351.38,233.49 352.22,233.34 353.06,233.10 353.90,232.84 354.73,232.63 355.57,232.55 356.41,232.64 357.25,232.86 358.09,233.12 358.93,233.34 359.76,233.50 360.60,233.58 361.44,233.62 362.28,233.64 363.12,233.64 363.96,233.64 364.79,233.64 365.63,233.64 366.47,233.64 367.31,233.64 368.15,233.64 368.99,233.62 369.83,233.58 370.66,233.47 371.50,233.26 372.34,232.89 373.18,232.38 374.02,231.86 374.86,231.52 375.69,231.49 376.53,231.78 377.37,232.26 378.21,232.77 379.05,233.17 379.89,233.42 380.73,233.56 381.56,233.61 382.40,233.63 383.24,233.64 384.08,233.64 384.92,233.64 385.76,233.64 386.59,233.64 387.43,233.64 388.27,233.64 389.11,233.64 389.95,233.64 390.79,233.64 391.62,233.64 392.46,233.64 393.30,233.64 394.14,233.64 394.98,233.64 395.82,233.64 396.66,233.64 397.49,233.64 398.33,233.64 399.17,233.64 400.01,233.64 400.85,233.64 401.69,233.64 402.52,233.64 403.36,233.64 404.20,233.64 405.04,233.64 405.88,233.64 406.72,233.64 407.55,233.64 408.39,233.64 409.23,233.64 410.07,233.64 410.91,233.64 411.75,233.64 412.59,233.64 413.42,233.64 414.26,233.64 415.10,233.64 415.94,233.64 416.78,233.64 417.62,233.64 418.45,233.64 419.29,233.64 420.13,233.64 420.97,233.64 421.81,233.64 422.65,233.64 423.49,233.64 424.32,233.64 425.16,233.64 426.00,233.64 426.84,233.64 427.68,233.64 428.52,233.64 429.35,233.64 430.19,233.64 431.03,233.64 431.87,233.64 432.71,233.64 433.55,233.64 434.38,233.64 435.22,233.64 436.06,233.64 436.90,233.64 437.74,233.64 438.58,233.64 439.42,233.64 440.25,233.64 441.09,233.64 441.93,233.64 442.77,233.64 443.61,233.64 444.45,233.64 445.28,233.64 446.12,233.64 446.96,233.64 447.80,233.64 448.64,233.64 449.48,233.64 450.32,233.64 451.15,233.64 451.99,233.64 452.83,233.64 453.67,233.64 454.51,233.64 455.35,233.64 456.18,233.64 457.02,233.64 457.86,233.64 458.70,233.64 459.54,233.64 460.38,233.64 461.21,233.64 462.05,233.64 462.89,233.64 463.73,233.64 464.57,233.64 465.41,233.64 466.25,233.64 467.08,233.64 467.92,233.64 468.76,233.64 469.60,233.64 470.44,233.64 471.28,233.64 472.11,233.64 472.95,233.64 473.79,233.64 474.63,233.64 475.47,233.64 476.31,233.64 477.15,233.64 477.98,233.64 478.82,233.64 479.66,233.64 480.50,233.64 481.34,233.64 482.18,233.64 483.01,233.64 483.85,233.64 484.69,233.64 485.53,233.64 486.37,233.64 487.21,233.64 488.04,233.64 488.88,233.64 489.72,233.64 490.56,233.64 491.40,233.64 492.24,233.64 493.08,233.64 493.91,233.64 494.75,233.64 495.59,233.64 496.43,233.64 497.27,233.64 498.11,233.64 498.94,233.64 499.78,233.64 500.62,233.64 501.46,233.64 502.30,233.64 503.14,233.64 503.97,233.64 504.81,233.64 505.65,233.64 506.49,233.64 507.33,233.64 508.17,233.64 509.01,233.64 509.84,233.64 510.68,233.64 511.52,233.64 512.36,233.64 513.20,233.64 514.04,233.64 514.87,233.64 515.71,233.64 516.55,233.64 517.39,233.64 518.23,233.64 519.07,233.64 519.91,233.64 520.74,233.64 521.58,233.64 522.42,233.64 523.26,233.64 524.10,233.64 524.94,233.64 525.77,233.64 526.61,233.64 527.45,233.63 528.29,233.61 529.13,233.57 529.97,233.47 530.80,233.30 531.64,233.06 532.48,232.79 533.32,232.59 534.16,232.54 535.00,232.66 535.84,232.91 536.67,233.17 537.51,233.38 538.35,233.52 539.19,233.59 540.03,233.63 540.03,233.64 539.19,233.64 538.35,233.64 537.51,233.64 536.67,233.64 535.84,233.64 535.00,233.64 534.16,233.64 533.32,233.64 532.48,233.64 531.64,233.64 530.80,233.64 529.97,233.64 529.13,233.64 528.29,233.64 527.45,233.64 526.61,233.64 525.77,233.64 524.94,233.64 524.10,233.64 523.26,233.64 522.42,233.64 521.58,233.64 520.74,233.64 519.91,233.64 519.07,233.64 518.23,233.64 517.39,233.64 516.55,233.64 515.71,233.64 514.87,233.64 514.04,233.64 513.20,233.64 512.36,233.64 511.52,233.64 510.68,233.64 509.84,233.64 509.01,233.64 508.17,233.64 507.33,233.64 506.49,233.64 505.65,233.64 504.81,233.64 503.97,233.64 503.14,233.64 502.30,233.64 501.46,233.64 500.62,233.64 499.78,233.64 498.94,233.64 498.11,233.64 497.27,233.64 496.43,233.64 495.59,233.64 494.75,233.64 493.91,233.64 493.08,233.64 492.24,233.64 491.40,233.64 490.56,233.64 489.72,233.64 488.88,233.64 488.04,233.64 487.21,233.64 486.37,233.64 485.53,233.64 484.69,233.64 483.85,233.64 483.01,233.64 482.18,233.64 481.34,233.64 480.50,233.64 479.66,233.64 478.82,233.64 477.98,233.64 477.15,233.64 476.31,233.64 475.47,233.64 474.63,233.64 473.79,233.64 472.95,233.64 472.11,233.64 471.28,233.64 470.44,233.64 469.60,233.64 468.76,233.64 467.92,233.64 467.08,233.64 466.25,233.64 465.41,233.64 464.57,233.64 463.73,233.64 462.89,233.64 462.05,233.64 461.21,233.64 460.38,233.64 459.54,233.64 458.70,233.64 457.86,233.64 457.02,233.64 456.18,233.64 455.35,233.64 454.51,233.64 453.67,233.64 452.83,233.64 451.99,233.64 451.15,233.64 450.32,233.64 449.48,233.64 448.64,233.64 447.80,233.64 446.96,233.64 446.12,233.64 445.28,233.64 444.45,233.64 443.61,233.64 442.77,233.64 441.93,233.64 441.09,233.64 440.25,233.64 439.42,233.64 438.58,233.64 437.74,233.64 436.90,233.64 436.06,233.64 435.22,233.64 434.38,233.64 433.55,233.64 432.71,233.64 431.87,233.64 431.03,233.64 430.19,233.64 429.35,233.64 428.52,233.64 427.68,233.64 426.84,233.64 426.00,233.64 425.16,233.64 424.32,233.64 423.49,233.64 422.65,233.64 421.81,233.64 420.97,233.64 420.13,233.64 419.29,233.64 418.45,233.64 417.62,233.64 416.78,233.64 415.94,233.64 415.10,233.64 414.26,233.64 413.42,233.64 412.59,233.64 411.75,233.64 410.91,233.64 410.07,233.64 409.23,233.64 408.39,233.64 407.55,233.64 406.72,233.64 405.88,233.64 405.04,233.64 404.20,233.64 403.36,233.64 402.52,233.64 401.69,233.64 400.85,233.64 400.01,233.64 399.17,233.64 398.33,233.64 397.49,233.64 396.66,233.64 395.82,233.64 394.98,233.64 394.14,233.64 393.30,233.64 392.46,233.64 391.62,233.64 390.79,233.64 389.95,233.64 389.11,233.64 388.27,233.64 387.43,233.64 386.59,233.64 385.76,233.64 384.92,233.64 384.08,233.64 383.24,233.64 382.40,233.64 381.56,233.64 380.73,233.64 379.89,233.64 379.05,233.64 378.21,233.64 377.37,233.64 376.53,233.64 375.69,233.64 374.86,233.64 374.02,233.64 373.18,233.64 372.34,233.64 371.50,233.64 370.66,233.64 369.83,233.64 368.99,233.64 368.15,233.64 367.31,233.64 366.47,233.64 365.63,233.64 364.79,233.64 363.96,233.64 363.12,233.64 362.28,233.64 361.44,233.64 360.60,233.64 359.76,233.64 358.93,233.64 358.09,233.64 357.25,233.64 356.41,233.64 355.57,233.64 354.73,233.64 353.90,233.64 353.06,233.64 352.22,233.64 351.38,233.64 350.54,233.64 349.70,233.64 348.86,233.64 348.03,233.64 347.19,233.64 346.35,233.64 345.51,233.64 344.67,233.64 343.83,233.64 343.00,233.64 342.16,233.64 341.32,233.64 340.48,233.64 339.64,233.64 338.80,233.64 337.96,233.64 337.13,233.64 336.29,233.64 335.45,233.64 334.61,233.64 333.77,233.64 332.93,233.64 332.10,233.64 331.26,233.64 330.42,233.64 329.58,233.64 328.74,233.64 327.90,233.64 327.07,233.64 326.23,233.64 325.39,233.64 324.55,233.64 323.71,233.64 322.87,233.64 322.03,233.64 321.20,233.64 320.36,233.64 319.52,233.64 318.68,233.64 317.84,233.64 317.00,233.64 316.17,233.64 315.33,233.64 314.49,233.64 313.65,233.64 312.81,233.64 311.97,233.64 311.13,233.64 310.30,233.64 309.46,233.64 308.62,233.64 307.78,233.64 306.94,233.64 306.10,233.64 305.27,233.64 304.43,233.64 303.59,233.64 302.75,233.64 301.91,233.64 301.07,233.64 300.24,233.64 299.40,233.64 298.56,233.64 297.72,233.64 296.88,233.64 296.04,233.64 295.20,233.64 294.37,233.64 293.53,233.64 292.69,233.64 291.85,233.64 291.01,233.64 290.17,233.64 289.34,233.64 288.50,233.64 287.66,233.64 286.82,233.64 285.98,233.64 285.14,233.64 284.30,233.64 283.47,233.64 282.63,233.64 281.79,233.64 280.95,233.64 280.11,233.64 279.27,233.64 278.44,233.64 277.60,233.64 276.76,233.64 275.92,233.64 275.08,233.64 274.24,233.64 273.41,233.64 272.57,233.64 271.73,233.64 270.89,233.64 270.05,233.64 269.21,233.64 268.37,233.64 267.54,233.64 266.70,233.64 265.86,233.64 265.02,233.64 264.18,233.64 263.34,233.64 262.51,233.64 261.67,233.64 260.83,233.64 259.99,233.64 259.15,233.64 258.31,233.64 257.48,233.64 256.64,233.64 255.80,233.64 254.96,233.64 254.12,233.64 253.28,233.64 252.44,233.64 251.61,233.64 250.77,233.64 249.93,233.64 249.09,233.64 248.25,233.64 247.41,233.64 246.58,233.64 245.74,233.64 244.90,233.64 244.06,233.64 243.22,233.64 242.38,233.64 241.54,233.64 240.71,233.64 239.87,233.64 239.03,233.64 238.19,233.64 237.35,233.64 236.51,233.64 235.68,233.64 234.84,233.64 234.00,233.64 233.16,233.64 232.32,233.64 231.48,233.64 230.65,233.64 229.81,233.64 228.97,233.64 228.13,233.64 227.29,233.64 226.45,233.64 225.61,233.64 224.78,233.64 223.94,233.64 223.10,233.64 222.26,233.64 221.42,233.64 220.58,233.64 219.75,233.64 218.91,233.64 218.07,233.64 217.23,233.64 216.39,233.64 215.55,233.64 214.71,233.64 213.88,233.64 213.04,233.64 212.20,233.64 211.36,233.64 210.52,233.64 209.68,233.64 208.85,233.64 208.01,233.64 207.17,233.64 206.33,233.64 205.49,233.64 204.65,233.64 203.82,233.64 202.98,233.64 202.14,233.64 201.30,233.64 200.46,233.64 199.62,233.64 198.78,233.64 197.95,233.64 197.11,233.64 196.27,233.64 195.43,233.64 194.59,233.64 193.75,233.64 192.92,233.64 192.08,233.64 191.24,233.64 190.40,233.64 189.56,233.64 188.72,233.64 187.88,233.64 187.05,233.64 186.21,233.64 185.37,233.64 184.53,233.64 183.69,233.64 182.85,233.64 182.02,233.64 181.18,233.64 180.34,233.64 179.50,233.64 178.66,233.64 177.82,233.64 176.99,233.64 176.15,233.64 175.31,233.64 174.47,233.64 173.63,233.64 172.79,233.64 171.95,233.64 171.12,233.64 170.28,233.64 169.44,233.64 168.60,233.64 167.76,233.64 166.92,233.64 166.09,233.64 165.25,233.64 164.41,233.64 163.57,233.64 162.73,233.64 161.89,233.64 161.06,233.64 160.22,233.64 159.38,233.64 158.54,233.64 157.70,233.64 156.86,233.64 156.02,233.64 155.19,233.64 154.35,233.64 153.51,233.64 152.67,233.64 151.83,233.64 150.99,233.64 150.16,233.64 149.32,233.64 148.48,233.64 147.64,233.64 146.80,233.64 145.96,233.64 145.12,233.64 144.29,233.64 143.45,233.64 142.61,233.64 141.77,233.64 140.93,233.64 140.09,233.64 139.26,233.64 138.42,233.64 137.58,233.64 136.74,233.64 135.90,233.64 135.06,233.64 134.23,233.64 133.39,233.64 132.55,233.64 131.71,233.64 130.87,233.64 130.03,233.64 129.19,233.64 128.36,233.64 127.52,233.64 126.68,233.64 125.84,233.64 125.00,233.64 124.16,233.64 123.33,233.64 122.49,233.64 121.65,233.64 120.81,233.64 119.97,233.64 119.13,233.64 118.29,233.64 117.46,233.64 116.62,233.64 115.78,233.64 114.94,233.64 114.10,233.64 113.26,233.64 112.43,233.64 111.59,233.64 ' style='stroke-width: 0.75; stroke: none; fill: #B3B3B3; fill-opacity: 0.25;' />
<polyline points='111.59,230.63 112.43,224.81 113.26,211.55 114.10,186.42 114.94,147.34 115.78,98.98 116.62,54.63 117.46,31.50 118.29,40.56 119.13,77.94 119.97,126.60 120.81,170.25 121.65,199.75 122.49,213.19 123.33,211.83 124.16,197.21 125.00,171.85 125.84,141.64 126.68,116.34 127.52,105.87 128.36,114.68 129.19,138.97 130.03,169.27 130.87,196.15 131.71,214.46 132.55,223.58 133.39,225.12 134.23,220.93 135.06,212.72 135.90,202.93 136.74,195.04 137.58,192.47 138.42,196.49 139.26,205.37 140.09,215.52 140.93,223.76 141.77,228.61 142.61,230.19 143.45,229.01 144.29,225.44 145.12,220.13 145.96,214.51 146.80,210.58 147.64,209.95 148.48,212.85 149.32,218.03 150.16,223.59 150.99,228.05 151.83,230.80 152.67,231.94 153.51,231.80 154.35,230.71 155.19,229.03 156.02,227.30 156.86,226.16 157.70,226.11 158.54,227.20 159.38,228.96 160.22,230.76 161.06,232.12 161.89,232.88 162.73,233.09 163.57,232.87 164.41,232.30 165.25,231.51 166.09,230.77 166.92,230.36 167.76,230.46 168.60,231.02 169.44,231.79 170.28,232.48 171.12,232.89 171.95,232.86 172.79,232.23 173.63,230.85 174.47,228.71 175.31,226.15 176.15,223.92 176.99,222.85 177.82,223.39 178.66,225.33 179.50,227.90 180.34,230.26 181.18,231.94 182.02,232.88 182.85,233.25 183.69,233.27 184.53,233.10 185.37,232.84 186.21,232.61 187.05,232.51 187.88,232.61 188.72,232.85 189.56,233.12 190.40,233.36 191.24,233.51 192.08,233.59 192.92,233.62 193.75,233.64 194.59,233.64 195.43,233.64 196.27,233.64 197.11,233.64 197.95,233.64 198.78,233.64 199.62,233.64 200.46,233.64 201.30,233.64 202.14,233.64 202.98,233.64 203.82,233.64 204.65,233.64 205.49,233.64 206.33,233.64 207.17,233.64 208.01,233.64 208.85,233.64 209.68,233.64 210.52,233.63 211.36,233.61 212.20,233.55 213.04,233.43 213.88,233.23 214.71,232.96 215.55,232.71 216.39,232.56 217.23,232.58 218.07,232.74 218.91,233.00 219.75,233.25 220.58,233.43 221.42,233.55 222.26,233.61 223.10,233.63 223.94,233.64 224.78,233.64 225.61,233.64 226.45,233.64 227.29,233.64 228.13,233.64 228.97,233.64 229.81,233.62 230.65,233.58 231.48,233.44 232.32,233.14 233.16,232.57 234.00,231.65 234.84,230.55 235.68,229.60 236.51,229.18 237.35,229.49 238.19,230.36 239.03,231.44 239.87,232.38 240.71,233.03 241.54,233.39 242.38,233.55 243.22,233.62 244.06,233.64 244.90,233.64 245.74,233.64 246.58,233.64 247.41,233.64 248.25,233.64 249.09,233.64 249.93,233.64 250.77,233.64 251.61,233.64 252.44,233.64 253.28,233.64 254.12,233.64 254.96,233.64 255.80,233.64 256.64,233.64 257.48,233.64 258.31,233.64 259.15,233.64 259.99,233.64 260.83,233.64 261.67,233.64 262.51,233.64 263.34,233.64 264.18,233.64 265.02,233.64 265.86,233.64 266.70,233.64 267.54,233.64 268.37,233.64 269.21,233.64 270.05,233.64 270.89,233.64 271.73,233.64 272.57,233.64 273.41,233.64 274.24,233.64 275.08,233.64 275.92,233.64 276.76,233.64 277.60,233.64 278.44,233.64 279.27,233.64 280.11,233.64 280.95,233.64 281.79,233.64 282.63,233.64 283.47,233.64 284.30,233.64 285.14,233.64 285.98,233.64 286.82,233.64 287.66,233.64 288.50,233.64 289.34,233.64 290.17,233.64 291.01,233.64 291.85,233.64 292.69,233.64 293.53,233.64 294.37,233.64 295.20,233.64 296.04,233.64 296.88,233.64 297.72,233.64 298.56,233.64 299.40,233.64 300.24,233.64 301.07,233.64 301.91,233.64 302.75,233.64 303.59,233.64 304.43,233.64 305.27,233.64 306.10,233.64 306.94,233.64 307.78,233.64 308.62,233.64 309.46,233.64 310.30,233.64 311.13,233.64 311.97,233.64 312.81,233.64 313.65,233.64 314.49,233.64 315.33,233.64 316.17,233.64 317.00,233.64 317.84,233.64 318.68,233.64 319.52,233.64 320.36,233.64 321.20,233.64 322.03,233.64 322.87,233.64 323.71,233.64 324.55,233.64 325.39,233.64 326.23,233.64 327.07,233.64 327.90,233.64 328.74,233.64 329.58,233.64 330.42,233.64 331.26,233.64 332.10,233.64 332.93,233.64 333.77,233.64 334.61,233.64 335.45,233.64 336.29,233.64 337.13,233.64 337.96,233.64 338.80,233.64 339.64,233.64 340.48,233.64 341.32,233.64 342.16,233.64 343.00,233.64 343.83,233.64 344.67,233.64 345.51,233.64 346.35,233.64 347.19,233.64 348.03,233.64 348.86,233.64 349.70,233.62 350.54,233.58 351.38,233.49 352.22,233.34 353.06,233.10 353.90,232.84 354.73,232.63 355.57,232.55 356.41,232.64 357.25,232.86 358.09,233.12 358.93,233.34 359.76,233.50 360.60,233.58 361.44,233.62 362.28,233.64 363.12,233.64 363.96,233.64 364.79,233.64 365.63,233.64 366.47,233.64 367.31,233.64 368.15,233.64 368.99,233.62 369.83,233.58 370.66,233.47 371.50,233.26 372.34,232.89 373.18,232.38 374.02,231.86 374.86,231.52 375.69,231.49 376.53,231.78 377.37,232.26 378.21,232.77 379.05,233.17 379.89,233.42 380.73,233.56 381.56,233.61 382.40,233.63 383.24,233.64 384.08,233.64 384.92,233.64 385.76,233.64 386.59,233.64 387.43,233.64 388.27,233.64 389.11,233.64 389.95,233.64 390.79,233.64 391.62,233.64 392.46,233.64 393.30,233.64 394.14,233.64 394.98,233.64 395.82,233.64 396.66,233.64 397.49,233.64 398.33,233.64 399.17,233.64 400.01,233.64 400.85,233.64 401.69,233.64 402.52,233.64 403.36,233.64 404.20,233.64 405.04,233.64 405.88,233.64 406.72,233.64 407.55,233.64 408.39,233.64 409.23,233.64 410.07,233.64 410.91,233.64 411.75,233.64 412.59,233.64 413.42,233.64 414.26,233.64 415.10,233.64 415.94,233.64 416.78,233.64 417.62,233.64 418.45,233.64 419.29,233.64 420.13,233.64 420.97,233.64 421.81,233.64 422.65,233.64 423.49,233.64 424.32,233.64 425.16,233.64 426.00,233.64 426.84,233.64 427.68,233.64 428.52,233.64 429.35,233.64 430.19,233.64 431.03,233.64 431.87,233.64 432.71,233.64 433.55,233.64 434.38,233.64 435.22,233.64 436.06,233.64 436.90,233.64 437.74,233.64 438.58,233.64 439.42,233.64 440.25,233.64 441.09,233.64 441.93,233.64 442.77,233.64 443.61,233.64 444.45,233.64 445.28,233.64 446.12,233.64 446.96,233.64 447.80,233.64 448.64,233.64 449.48,233.64 450.32,233.64 451.15,233.64 451.99,233.64 452.83,233.64 453.67,233.64 454.51,233.64 455.35,233.64 456.18,233.64 457.02,233.64 457.86,233.64 458.70,233.64 459.54,233.64 460.38,233.64 461.21,233.64 462.05,233.64 462.89,233.64 463.73,233.64 464.57,233.64 465.41,233.64 466.25,233.64 467.08,233.64 467.92,233.64 468.76,233.64 469.60,233.64 470.44,233.64 471.28,233.64 472.11,233.64 472.95,233.64 473.79,233.64 474.63,233.64 475.47,233.64 476.31,233.64 477.15,233.64 477.98,233.64 478.82,233.64 479.66,233.64 480.50,233.64 481.34,233.64 482.18,233.64 483.01,233.64 483.85,233.64 484.69,233.64 485.53,233.64 486.37,233.64 487.21,233.64 488.04,233.64 488.88,233.64 489.72,233.64 490.56,233.64 491.40,233.64 492.24,233.64 493.08,233.64 493.91,233.64 494.75,233.64 495.59,233.64 496.43,233.64 497.27,233.64 498.11,233.64 498.94,233.64 499.78,233.64 500.62,233.64 501.46,233.64 502.30,233.64 503.14,233.64 503.97,233.64 504.81,233.64 505.65,233.64 506.49,233.64 507.33,233.64 508.17,233.64 509.01,233.64 509.84,233.64 510.68,233.64 511.52,233.64 512.36,233.64 513.20,233.64 514.04,233.64 514.87,233.64 515.71,233.64 516.55,233.64 517.39,233.64 518.23,233.64 519.07,233.64 519.91,233.64 520.74,233.64 521.58,233.64 522.42,233.64 523.26,233.64 524.10,233.64 524.94,233.64 525.77,233.64 526.61,233.64 527.45,233.63 528.29,233.61 529.13,233.57 529.97,233.47 530.80,233.30 531.64,233.06 532.48,232.79 533.32,232.59 534.16,232.54 535.00,232.66 535.84,232.91 536.67,233.17 537.51,233.38 538.35,233.52 539.19,233.59 540.03,233.63 ' style='stroke-width: 1.07;' />
</g>
<g clip-path='url(#cpMC4wMHw1NjYuOTN8MC4wMHwzNDAuMTY=)'>
<text x='176.97' y='26.56' text-anchor='middle' style='font-size: 8.80px; fill: #4D4D4D; font-family: Arial;' textLength='26.91px' lengthAdjust='spacingAndGlyphs'>maand</text>
<text x='375.58' y='26.56' text-anchor='middle' style='font-size: 8.80px; fill: #4D4D4D; font-family: Arial;' textLength='20.54px' lengthAdjust='spacingAndGlyphs'>week</text>
<polyline points='176.97,31.50 176.97,28.76 ' style='stroke-width: 1.07; stroke-linecap: butt;' />
<polyline points='375.58,31.50 375.58,28.76 ' style='stroke-width: 1.07; stroke-linecap: butt;' />
<text x='85.23' y='236.79' text-anchor='end' style='font-size: 8.80px; fill: #4D4D4D; font-family: Arial;' textLength='79.75px' lengthAdjust='spacingAndGlyphs'>testingBehFreq_freq</text>
<polyline points='117.64,311.40 117.64,308.66 ' style='stroke-width: 1.07; stroke-linecap: butt;' />
<polyline points='216.77,311.40 216.77,308.66 ' style='stroke-width: 1.07; stroke-linecap: butt;' />
<polyline points='315.89,311.40 315.89,308.66 ' style='stroke-width: 1.07; stroke-linecap: butt;' />
<polyline points='415.02,311.40 415.02,308.66 ' style='stroke-width: 1.07; stroke-linecap: butt;' />
<polyline points='514.15,311.40 514.15,308.66 ' style='stroke-width: 1.07; stroke-linecap: butt;' />
<text x='117.64' y='319.89' text-anchor='middle' style='font-size: 8.80px; fill: #4D4D4D; font-family: Arial;' textLength='4.90px' lengthAdjust='spacingAndGlyphs'>0</text>
<text x='216.77' y='319.89' text-anchor='middle' style='font-size: 8.80px; fill: #4D4D4D; font-family: Arial;' textLength='9.79px' lengthAdjust='spacingAndGlyphs'>10</text>
<text x='315.89' y='319.89' text-anchor='middle' style='font-size: 8.80px; fill: #4D4D4D; font-family: Arial;' textLength='9.79px' lengthAdjust='spacingAndGlyphs'>20</text>
<text x='415.02' y='319.89' text-anchor='middle' style='font-size: 8.80px; fill: #4D4D4D; font-family: Arial;' textLength='9.79px' lengthAdjust='spacingAndGlyphs'>30</text>
<text x='514.15' y='319.89' text-anchor='middle' style='font-size: 8.80px; fill: #4D4D4D; font-family: Arial;' textLength='9.79px' lengthAdjust='spacingAndGlyphs'>40</text>
<text x='325.81' y='15.67' text-anchor='middle' style='font-size: 11.00px; font-family: Arial;' textLength='180.43px' lengthAdjust='spacingAndGlyphs'>frequency (times in the last half year)</text>
<text x='325.81' y='332.36' text-anchor='middle' style='font-size: 11.00px; font-family: Arial;' textLength='180.43px' lengthAdjust='spacingAndGlyphs'>frequency (times in the last half year)</text>
</g>
</svg>
