<?xml version='1.0' encoding='UTF-8' ?>
<svg xmlns='http://www.w3.org/2000/svg' xmlns:xlink='http://www.w3.org/1999/xlink' class='svglite' width='340.16pt' height='340.16pt' viewBox='0 0 340.16 340.16'>
<defs>
  <style type='text/css'><![CDATA[
    .svglite line, .svglite polyline, .svglite polygon, .svglite path, .svglite rect, .svglite circle {
      fill: none;
      stroke: #000000;
      stroke-linecap: round;
      stroke-linejoin: round;
      stroke-miterlimit: 10.00;
    }
  ]]></style>
</defs>
<rect width='100%' height='100%' style='stroke: none; fill: none;'/>
<defs>
  <clipPath id='cpMC4wMHwzNDAuMTZ8MC4wMHwzNDAuMTY='>
    <rect x='0.00' y='0.00' width='340.16' height='340.16' />
  </clipPath>
</defs>
<g clip-path='url(#cpMC4wMHwzNDAuMTZ8MC4wMHwzNDAuMTY=)'>
</g>
<defs>
  <clipPath id='cpMjAyLjY5fDMzNC42OHw1LjQ4fDI1OS42NA=='>
    <rect x='202.69' y='5.48' width='131.98' height='254.16' />
  </clipPath>
</defs>
<g clip-path='url(#cpMjAyLjY5fDMzNC42OHw1LjQ4fDI1OS42NA==)'>
<polyline points='223.69,259.64 223.69,5.48 ' style='stroke-width: 0.53; stroke: #EBEBEB; stroke-linecap: butt;' />
<polyline points='253.69,259.64 253.69,5.48 ' style='stroke-width: 0.53; stroke: #EBEBEB; stroke-linecap: butt;' />
<polyline points='283.68,259.64 283.68,5.48 ' style='stroke-width: 0.53; stroke: #EBEBEB; stroke-linecap: butt;' />
<polyline points='313.68,259.64 313.68,5.48 ' style='stroke-width: 0.53; stroke: #EBEBEB; stroke-linecap: butt;' />
<polyline points='202.69,238.46 334.68,238.46 ' style='stroke-width: 1.07; stroke: #EBEBEB; stroke-linecap: butt;' />
<polyline points='202.69,203.16 334.68,203.16 ' style='stroke-width: 1.07; stroke: #EBEBEB; stroke-linecap: butt;' />
<polyline points='202.69,167.86 334.68,167.86 ' style='stroke-width: 1.07; stroke: #EBEBEB; stroke-linecap: butt;' />
<polyline points='202.69,132.56 334.68,132.56 ' style='stroke-width: 1.07; stroke: #EBEBEB; stroke-linecap: butt;' />
<polyline points='202.69,97.26 334.68,97.26 ' style='stroke-width: 1.07; stroke: #EBEBEB; stroke-linecap: butt;' />
<polyline points='202.69,61.96 334.68,61.96 ' style='stroke-width: 1.07; stroke: #EBEBEB; stroke-linecap: butt;' />
<polyline points='202.69,26.66 334.68,26.66 ' style='stroke-width: 1.07; stroke: #EBEBEB; stroke-linecap: butt;' />
<polyline points='208.69,259.64 208.69,5.48 ' style='stroke-width: 1.07; stroke: #EBEBEB; stroke-linecap: butt;' />
<polyline points='238.69,259.64 238.69,5.48 ' style='stroke-width: 1.07; stroke: #EBEBEB; stroke-linecap: butt;' />
<polyline points='268.69,259.64 268.69,5.48 ' style='stroke-width: 1.07; stroke: #EBEBEB; stroke-linecap: butt;' />
<polyline points='298.68,259.64 298.68,5.48 ' style='stroke-width: 1.07; stroke: #EBEBEB; stroke-linecap: butt;' />
<polyline points='328.68,259.64 328.68,5.48 ' style='stroke-width: 1.07; stroke: #EBEBEB; stroke-linecap: butt;' />
<rect x='208.69' y='222.57' width='82.24' height='31.77' style='stroke-width: 1.07; stroke: none; stroke-linecap: square; stroke-linejoin: miter; fill: #440154;' />
<rect x='290.94' y='222.57' width='37.74' height='31.77' style='stroke-width: 1.07; stroke: none; stroke-linecap: square; stroke-linejoin: miter; fill: #FDE725;' />
<rect x='208.69' y='81.37' width='105.34' height='31.77' style='stroke-width: 1.07; stroke: none; stroke-linecap: square; stroke-linejoin: miter; fill: #440154;' />
<rect x='314.03' y='81.37' width='14.65' height='31.77' style='stroke-width: 1.07; stroke: none; stroke-linecap: square; stroke-linejoin: miter; fill: #FDE725;' />
<rect x='208.69' y='187.27' width='83.37' height='31.77' style='stroke-width: 1.07; stroke: none; stroke-linecap: square; stroke-linejoin: miter; fill: #440154;' />
<rect x='292.06' y='187.27' width='36.62' height='31.77' style='stroke-width: 1.07; stroke: none; stroke-linecap: square; stroke-linejoin: miter; fill: #FDE725;' />
<rect x='208.69' y='151.97' width='103.65' height='31.77' style='stroke-width: 1.07; stroke: none; stroke-linecap: square; stroke-linejoin: miter; fill: #440154;' />
<rect x='312.34' y='151.97' width='16.34' height='31.77' style='stroke-width: 1.07; stroke: none; stroke-linecap: square; stroke-linejoin: miter; fill: #FDE725;' />
<rect x='208.69' y='116.67' width='104.21' height='31.77' style='stroke-width: 1.07; stroke: none; stroke-linecap: square; stroke-linejoin: miter; fill: #440154;' />
<rect x='312.91' y='116.67' width='15.77' height='31.77' style='stroke-width: 1.07; stroke: none; stroke-linecap: square; stroke-linejoin: miter; fill: #FDE725;' />
<rect x='208.69' y='46.07' width='105.34' height='31.77' style='stroke-width: 1.07; stroke: none; stroke-linecap: square; stroke-linejoin: miter; fill: #440154;' />
<rect x='314.03' y='46.07' width='14.65' height='31.77' style='stroke-width: 1.07; stroke: none; stroke-linecap: square; stroke-linejoin: miter; fill: #FDE725;' />
<rect x='208.69' y='10.77' width='117.17' height='31.77' style='stroke-width: 1.07; stroke: none; stroke-linecap: square; stroke-linejoin: miter; fill: #440154;' />
<rect x='325.86' y='10.77' width='2.82' height='31.77' style='stroke-width: 1.07; stroke: none; stroke-linecap: square; stroke-linejoin: miter; fill: #FDE725;' />
<text x='249.82' y='236.40' text-anchor='middle' style='font-size: 5.69px; fill: #FFFFFF; font-family: Arial;' textLength='9.48px' lengthAdjust='spacingAndGlyphs'>146</text>
<text x='249.82' y='244.59' text-anchor='middle' style='font-size: 5.69px; fill: #FFFFFF; font-family: Arial;' textLength='15.16px' lengthAdjust='spacingAndGlyphs'>(69%)</text>
<text x='309.81' y='236.40' text-anchor='middle' style='font-size: 5.69px; fill: #FFFFFF; font-family: Arial;' textLength='6.32px' lengthAdjust='spacingAndGlyphs'>67</text>
<text x='309.81' y='244.59' text-anchor='middle' style='font-size: 5.69px; fill: #FFFFFF; font-family: Arial;' textLength='15.16px' lengthAdjust='spacingAndGlyphs'>(31%)</text>
<text x='261.36' y='95.20' text-anchor='middle' style='font-size: 5.69px; fill: #FFFFFF; font-family: Arial;' textLength='9.48px' lengthAdjust='spacingAndGlyphs'>187</text>
<text x='261.36' y='103.39' text-anchor='middle' style='font-size: 5.69px; fill: #FFFFFF; font-family: Arial;' textLength='15.16px' lengthAdjust='spacingAndGlyphs'>(88%)</text>
<text x='321.36' y='95.20' text-anchor='middle' style='font-size: 5.69px; fill: #FFFFFF; font-family: Arial;' textLength='6.32px' lengthAdjust='spacingAndGlyphs'>26</text>
<text x='321.36' y='103.39' text-anchor='middle' style='font-size: 5.69px; fill: #FFFFFF; font-family: Arial;' textLength='15.16px' lengthAdjust='spacingAndGlyphs'>(12%)</text>
<text x='250.38' y='201.10' text-anchor='middle' style='font-size: 5.69px; fill: #FFFFFF; font-family: Arial;' textLength='9.48px' lengthAdjust='spacingAndGlyphs'>148</text>
<text x='250.38' y='209.29' text-anchor='middle' style='font-size: 5.69px; fill: #FFFFFF; font-family: Arial;' textLength='15.16px' lengthAdjust='spacingAndGlyphs'>(69%)</text>
<text x='310.37' y='201.10' text-anchor='middle' style='font-size: 5.69px; fill: #FFFFFF; font-family: Arial;' textLength='6.32px' lengthAdjust='spacingAndGlyphs'>65</text>
<text x='310.37' y='209.29' text-anchor='middle' style='font-size: 5.69px; fill: #FFFFFF; font-family: Arial;' textLength='15.16px' lengthAdjust='spacingAndGlyphs'>(31%)</text>
<text x='260.52' y='165.80' text-anchor='middle' style='font-size: 5.69px; fill: #FFFFFF; font-family: Arial;' textLength='9.48px' lengthAdjust='spacingAndGlyphs'>184</text>
<text x='260.52' y='173.99' text-anchor='middle' style='font-size: 5.69px; fill: #FFFFFF; font-family: Arial;' textLength='15.16px' lengthAdjust='spacingAndGlyphs'>(86%)</text>
<text x='320.51' y='165.80' text-anchor='middle' style='font-size: 5.69px; fill: #FFFFFF; font-family: Arial;' textLength='6.32px' lengthAdjust='spacingAndGlyphs'>29</text>
<text x='320.51' y='173.99' text-anchor='middle' style='font-size: 5.69px; fill: #FFFFFF; font-family: Arial;' textLength='15.16px' lengthAdjust='spacingAndGlyphs'>(14%)</text>
<text x='260.80' y='130.50' text-anchor='middle' style='font-size: 5.69px; fill: #FFFFFF; font-family: Arial;' textLength='9.48px' lengthAdjust='spacingAndGlyphs'>185</text>
<text x='260.80' y='138.69' text-anchor='middle' style='font-size: 5.69px; fill: #FFFFFF; font-family: Arial;' textLength='15.16px' lengthAdjust='spacingAndGlyphs'>(87%)</text>
<text x='320.79' y='130.50' text-anchor='middle' style='font-size: 5.69px; fill: #FFFFFF; font-family: Arial;' textLength='6.32px' lengthAdjust='spacingAndGlyphs'>28</text>
<text x='320.79' y='138.69' text-anchor='middle' style='font-size: 5.69px; fill: #FFFFFF; font-family: Arial;' textLength='15.16px' lengthAdjust='spacingAndGlyphs'>(13%)</text>
<text x='261.36' y='59.90' text-anchor='middle' style='font-size: 5.69px; fill: #FFFFFF; font-family: Arial;' textLength='9.48px' lengthAdjust='spacingAndGlyphs'>187</text>
<text x='261.36' y='68.09' text-anchor='middle' style='font-size: 5.69px; fill: #FFFFFF; font-family: Arial;' textLength='15.16px' lengthAdjust='spacingAndGlyphs'>(88%)</text>
<text x='321.36' y='59.90' text-anchor='middle' style='font-size: 5.69px; fill: #FFFFFF; font-family: Arial;' textLength='6.32px' lengthAdjust='spacingAndGlyphs'>26</text>
<text x='321.36' y='68.09' text-anchor='middle' style='font-size: 5.69px; fill: #FFFFFF; font-family: Arial;' textLength='15.16px' lengthAdjust='spacingAndGlyphs'>(12%)</text>
<text x='267.28' y='24.60' text-anchor='middle' style='font-size: 5.69px; fill: #FFFFFF; font-family: Arial;' textLength='9.48px' lengthAdjust='spacingAndGlyphs'>208</text>
<text x='267.28' y='32.79' text-anchor='middle' style='font-size: 5.69px; fill: #FFFFFF; font-family: Arial;' textLength='15.16px' lengthAdjust='spacingAndGlyphs'>(98%)</text>
<text x='327.27' y='24.60' text-anchor='middle' style='font-size: 5.69px; fill: #FFFFFF; font-family: Arial;' textLength='3.16px' lengthAdjust='spacingAndGlyphs'>5</text>
<text x='327.27' y='32.79' text-anchor='middle' style='font-size: 5.69px; fill: #FFFFFF; font-family: Arial;' textLength='12.00px' lengthAdjust='spacingAndGlyphs'>(2%)</text>
</g>
<g clip-path='url(#cpMC4wMHwzNDAuMTZ8MC4wMHwzNDAuMTY=)'>
<text x='197.76' y='241.61' text-anchor='end' style='font-size: 8.80px; fill: #4D4D4D; font-family: Arial;' textLength='71.45px' lengthAdjust='spacingAndGlyphs'>Ik had een wondje</text>
<text x='197.76' y='206.31' text-anchor='end' style='font-size: 8.80px; fill: #4D4D4D; font-family: Arial;' textLength='192.28px' lengthAdjust='spacingAndGlyphs'>Ik ben met een vriend(in) naar de EHBO geweest</text>
<text x='197.76' y='171.01' text-anchor='end' style='font-size: 8.80px; fill: #4D4D4D; font-family: Arial;' textLength='136.04px' lengthAdjust='spacingAndGlyphs'>Ik had drugs-gerelateerde klachten</text>
<text x='197.76' y='135.71' text-anchor='end' style='font-size: 8.80px; fill: #4D4D4D; font-family: Arial;' textLength='141.90px' lengthAdjust='spacingAndGlyphs'>Ik had alcohol-gerelateerde klachten</text>
<text x='197.76' y='100.41' text-anchor='end' style='font-size: 8.80px; fill: #4D4D4D; font-family: Arial;' textLength='104.72px' lengthAdjust='spacingAndGlyphs'>Ik had een verstuikte enkel</text>
<text x='197.76' y='60.36' text-anchor='end' style='font-size: 8.80px; fill: #4D4D4D; font-family: Arial;' textLength='187.86px' lengthAdjust='spacingAndGlyphs'>Ik had hoofdpijn of was misselijk (maar niet door</text>
<text x='197.76' y='69.86' text-anchor='end' style='font-size: 8.80px; fill: #4D4D4D; font-family: Arial;' textLength='65.07px' lengthAdjust='spacingAndGlyphs'>drugs of alcohol)</text>
<text x='197.76' y='25.06' text-anchor='end' style='font-size: 8.80px; fill: #4D4D4D; font-family: Arial;' textLength='175.67px' lengthAdjust='spacingAndGlyphs'>Ik had het te warm of te koud (maar niet door</text>
<text x='197.76' y='34.56' text-anchor='end' style='font-size: 8.80px; fill: #4D4D4D; font-family: Arial;' textLength='65.07px' lengthAdjust='spacingAndGlyphs'>drugs of alcohol)</text>
<text x='208.69' y='270.87' text-anchor='middle' style='font-size: 8.80px; fill: #4D4D4D; font-family: Arial;' textLength='4.90px' lengthAdjust='spacingAndGlyphs'>0</text>
<text x='238.69' y='270.87' text-anchor='middle' style='font-size: 8.80px; fill: #4D4D4D; font-family: Arial;' textLength='9.79px' lengthAdjust='spacingAndGlyphs'>25</text>
<text x='268.69' y='270.87' text-anchor='middle' style='font-size: 8.80px; fill: #4D4D4D; font-family: Arial;' textLength='9.79px' lengthAdjust='spacingAndGlyphs'>50</text>
<text x='298.68' y='270.87' text-anchor='middle' style='font-size: 8.80px; fill: #4D4D4D; font-family: Arial;' textLength='9.79px' lengthAdjust='spacingAndGlyphs'>75</text>
<text x='328.68' y='270.87' text-anchor='middle' style='font-size: 8.80px; fill: #4D4D4D; font-family: Arial;' textLength='14.69px' lengthAdjust='spacingAndGlyphs'>100</text>
<rect x='258.31' y='289.87' width='15.86' height='15.86' style='stroke-width: 1.07; stroke: none; stroke-linecap: square; stroke-linejoin: miter; fill: #440154;' />
<rect x='258.31' y='312.63' width='15.86' height='15.86' style='stroke-width: 1.07; stroke: none; stroke-linecap: square; stroke-linejoin: miter; fill: #FDE725;' />
<text x='280.36' y='300.95' style='font-size: 8.80px; font-family: Arial;' textLength='4.90px' lengthAdjust='spacingAndGlyphs'>0</text>
<text x='280.36' y='323.71' style='font-size: 8.80px; font-family: Arial;' textLength='4.90px' lengthAdjust='spacingAndGlyphs'>1</text>
</g>
</svg>
