<?xml version='1.0' encoding='UTF-8' ?>
<svg xmlns='http://www.w3.org/2000/svg' xmlns:xlink='http://www.w3.org/1999/xlink' viewBox='0 0 1152.00 288.00'>
<defs>
  <style type='text/css'><![CDATA[
    line, polyline, path, rect, circle {
      fill: none;
      stroke: #000000;
      stroke-linecap: round;
      stroke-linejoin: round;
      stroke-miterlimit: 10.00;
    }
  ]]></style>
</defs>
<rect width='100%' height='100%' style='stroke: none; fill: none;'/>
<rect x='0.00' y='0.00' width='1152.00' height='288.00' style='stroke-width: 1.07; stroke: none;' />
<defs>
  <clipPath id='cpMjMyLjE4NHwxMTQ2LjUyfDI0OC4zNjZ8NS40Nzk0NQ=='>
    <rect x='232.18' y='5.48' width='914.34' height='242.89' />
  </clipPath>
</defs>
<rect x='273.74' y='187.64' width='4.26' height='52.05' style='stroke-width: 1.07; stroke: none; stroke-linecap: butt; fill: #440154;' clip-path='url(#cpMjMyLjE4NHwxMTQ2LjUyfDI0OC4zNjZ8NS40Nzk0NQ==)' />
<rect x='278.01' y='187.64' width='12.79' height='52.05' style='stroke-width: 1.07; stroke: none; stroke-linecap: butt; fill: #443A83;' clip-path='url(#cpMjMyLjE4NHwxMTQ2LjUyfDI0OC4zNjZ8NS40Nzk0NQ==)' />
<rect x='290.80' y='187.64' width='17.05' height='52.05' style='stroke-width: 1.07; stroke: none; stroke-linecap: butt; fill: #31688E;' clip-path='url(#cpMjMyLjE4NHwxMTQ2LjUyfDI0OC4zNjZ8NS40Nzk0NQ==)' />
<rect x='307.85' y='187.64' width='76.73' height='52.05' style='stroke-width: 1.07; stroke: none; stroke-linecap: butt; fill: #21908C;' clip-path='url(#cpMjMyLjE4NHwxMTQ2LjUyfDI0OC4zNjZ8NS40Nzk0NQ==)' />
<rect x='384.57' y='187.64' width='153.46' height='52.05' style='stroke-width: 1.07; stroke: none; stroke-linecap: butt; fill: #35B779;' clip-path='url(#cpMjMyLjE4NHwxMTQ2LjUyfDI0OC4zNjZ8NS40Nzk0NQ==)' />
<rect x='538.03' y='187.64' width='221.66' height='52.05' style='stroke-width: 1.07; stroke: none; stroke-linecap: butt; fill: #8FD744;' clip-path='url(#cpMjMyLjE4NHwxMTQ2LjUyfDI0OC4zNjZ8NS40Nzk0NQ==)' />
<rect x='759.69' y='187.64' width='345.27' height='52.05' style='stroke-width: 1.07; stroke: none; stroke-linecap: butt; fill: #FDE725;' clip-path='url(#cpMjMyLjE4NHwxMTQ2LjUyfDI0OC4zNjZ8NS40Nzk0NQ==)' />
<rect x='273.74' y='129.81' width='24.76' height='52.05' style='stroke-width: 1.07; stroke: none; stroke-linecap: butt; fill: #440154;' clip-path='url(#cpMjMyLjE4NHwxMTQ2LjUyfDI0OC4zNjZ8NS40Nzk0NQ==)' />
<rect x='298.51' y='129.81' width='31.22' height='52.05' style='stroke-width: 1.07; stroke: none; stroke-linecap: butt; fill: #443A83;' clip-path='url(#cpMjMyLjE4NHwxMTQ2LjUyfDI0OC4zNjZ8NS40Nzk0NQ==)' />
<rect x='329.73' y='129.81' width='64.60' height='52.05' style='stroke-width: 1.07; stroke: none; stroke-linecap: butt; fill: #31688E;' clip-path='url(#cpMjMyLjE4NHwxMTQ2LjUyfDI0OC4zNjZ8NS40Nzk0NQ==)' />
<rect x='394.34' y='129.81' width='185.19' height='52.05' style='stroke-width: 1.07; stroke: none; stroke-linecap: butt; fill: #21908C;' clip-path='url(#cpMjMyLjE4NHwxMTQ2LjUyfDI0OC4zNjZ8NS40Nzk0NQ==)' />
<rect x='579.53' y='129.81' width='157.20' height='52.05' style='stroke-width: 1.07; stroke: none; stroke-linecap: butt; fill: #35B779;' clip-path='url(#cpMjMyLjE4NHwxMTQ2LjUyfDI0OC4zNjZ8NS40Nzk0NQ==)' />
<rect x='736.73' y='129.81' width='152.89' height='52.05' style='stroke-width: 1.07; stroke: none; stroke-linecap: butt; fill: #8FD744;' clip-path='url(#cpMjMyLjE4NHwxMTQ2LjUyfDI0OC4zNjZ8NS40Nzk0NQ==)' />
<rect x='889.62' y='129.81' width='215.34' height='52.05' style='stroke-width: 1.07; stroke: none; stroke-linecap: butt; fill: #FDE725;' clip-path='url(#cpMjMyLjE4NHwxMTQ2LjUyfDI0OC4zNjZ8NS40Nzk0NQ==)' />
<rect x='273.74' y='71.98' width='34.77' height='52.05' style='stroke-width: 1.07; stroke: none; stroke-linecap: butt; fill: #440154;' clip-path='url(#cpMjMyLjE4NHwxMTQ2LjUyfDI0OC4zNjZ8NS40Nzk0NQ==)' />
<rect x='308.51' y='71.98' width='66.37' height='52.05' style='stroke-width: 1.07; stroke: none; stroke-linecap: butt; fill: #443A83;' clip-path='url(#cpMjMyLjE4NHwxMTQ2LjUyfDI0OC4zNjZ8NS40Nzk0NQ==)' />
<rect x='374.88' y='71.98' width='107.46' height='52.05' style='stroke-width: 1.07; stroke: none; stroke-linecap: butt; fill: #31688E;' clip-path='url(#cpMjMyLjE4NHwxMTQ2LjUyfDI0OC4zNjZ8NS40Nzk0NQ==)' />
<rect x='482.34' y='71.98' width='259.16' height='52.05' style='stroke-width: 1.07; stroke: none; stroke-linecap: butt; fill: #21908C;' clip-path='url(#cpMjMyLjE4NHwxMTQ2LjUyfDI0OC4zNjZ8NS40Nzk0NQ==)' />
<rect x='741.50' y='71.98' width='173.83' height='52.05' style='stroke-width: 1.07; stroke: none; stroke-linecap: butt; fill: #35B779;' clip-path='url(#cpMjMyLjE4NHwxMTQ2LjUyfDI0OC4zNjZ8NS40Nzk0NQ==)' />
<rect x='915.33' y='71.98' width='110.62' height='52.05' style='stroke-width: 1.07; stroke: none; stroke-linecap: butt; fill: #8FD744;' clip-path='url(#cpMjMyLjE4NHwxMTQ2LjUyfDI0OC4zNjZ8NS40Nzk0NQ==)' />
<rect x='1025.95' y='71.98' width='79.01' height='52.05' style='stroke-width: 1.07; stroke: none; stroke-linecap: butt; fill: #FDE725;' clip-path='url(#cpMjMyLjE4NHwxMTQ2LjUyfDI0OC4zNjZ8NS40Nzk0NQ==)' />
<rect x='273.74' y='14.15' width='66.50' height='52.05' style='stroke-width: 1.07; stroke: none; stroke-linecap: butt; fill: #440154;' clip-path='url(#cpMjMyLjE4NHwxMTQ2LjUyfDI0OC4zNjZ8NS40Nzk0NQ==)' />
<rect x='340.24' y='14.15' width='96.05' height='52.05' style='stroke-width: 1.07; stroke: none; stroke-linecap: butt; fill: #443A83;' clip-path='url(#cpMjMyLjE4NHwxMTQ2LjUyfDI0OC4zNjZ8NS40Nzk0NQ==)' />
<rect x='436.29' y='14.15' width='129.30' height='52.05' style='stroke-width: 1.07; stroke: none; stroke-linecap: butt; fill: #31688E;' clip-path='url(#cpMjMyLjE4NHwxMTQ2LjUyfDI0OC4zNjZ8NS40Nzk0NQ==)' />
<rect x='565.59' y='14.15' width='217.96' height='52.05' style='stroke-width: 1.07; stroke: none; stroke-linecap: butt; fill: #21908C;' clip-path='url(#cpMjMyLjE4NHwxMTQ2LjUyfDI0OC4zNjZ8NS40Nzk0NQ==)' />
<rect x='783.56' y='14.15' width='162.55' height='52.05' style='stroke-width: 1.07; stroke: none; stroke-linecap: butt; fill: #35B779;' clip-path='url(#cpMjMyLjE4NHwxMTQ2LjUyfDI0OC4zNjZ8NS40Nzk0NQ==)' />
<rect x='946.11' y='14.15' width='62.80' height='52.05' style='stroke-width: 1.07; stroke: none; stroke-linecap: butt; fill: #8FD744;' clip-path='url(#cpMjMyLjE4NHwxMTQ2LjUyfDI0OC4zNjZ8NS40Nzk0NQ==)' />
<rect x='1008.91' y='14.15' width='96.05' height='52.05' style='stroke-width: 1.07; stroke: none; stroke-linecap: butt; fill: #FDE725;' clip-path='url(#cpMjMyLjE4NHwxMTQ2LjUyfDI0OC4zNjZ8NS40Nzk0NQ==)' />
<g clip-path='url(#cpMjMyLjE4NHwxMTQ2LjUyfDI0OC4zNjZ8NS40Nzk0NQ==)'><text x='274.21' y='211.72' style='font-size: 5.69px; fill: none; font-family: Arial;' textLength='3.34px' lengthAdjust='spacingAndGlyphs'>1</text></g>
<g clip-path='url(#cpMjMyLjE4NHwxMTQ2LjUyfDI0OC4zNjZ8NS40Nzk0NQ==)'><text x='269.54' y='219.91' style='font-size: 5.69px; fill: none; font-family: Arial;' textLength='12.67px' lengthAdjust='spacingAndGlyphs'>(1%)</text></g>
<g clip-path='url(#cpMjMyLjE4NHwxMTQ2LjUyfDI0OC4zNjZ8NS40Nzk0NQ==)'><text x='282.73' y='211.72' style='font-size: 5.69px; fill: none; font-family: Arial;' textLength='3.34px' lengthAdjust='spacingAndGlyphs'>3</text></g>
<g clip-path='url(#cpMjMyLjE4NHwxMTQ2LjUyfDI0OC4zNjZ8NS40Nzk0NQ==)'><text x='278.07' y='219.91' style='font-size: 5.69px; fill: none; font-family: Arial;' textLength='12.67px' lengthAdjust='spacingAndGlyphs'>(2%)</text></g>
<g clip-path='url(#cpMjMyLjE4NHwxMTQ2LjUyfDI0OC4zNjZ8NS40Nzk0NQ==)'><text x='297.65' y='211.72' style='font-size: 5.69px; fill: none; font-family: Arial;' textLength='3.34px' lengthAdjust='spacingAndGlyphs'>4</text></g>
<g clip-path='url(#cpMjMyLjE4NHwxMTQ2LjUyfDI0OC4zNjZ8NS40Nzk0NQ==)'><text x='292.99' y='219.91' style='font-size: 5.69px; fill: none; font-family: Arial;' textLength='12.67px' lengthAdjust='spacingAndGlyphs'>(2%)</text></g>
<g clip-path='url(#cpMjMyLjE4NHwxMTQ2LjUyfDI0OC4zNjZ8NS40Nzk0NQ==)'><text x='342.87' y='211.72' style='font-size: 5.69px; fill: none; font-family: Arial;' textLength='6.67px' lengthAdjust='spacingAndGlyphs'>18</text></g>
<g clip-path='url(#cpMjMyLjE4NHwxMTQ2LjUyfDI0OC4zNjZ8NS40Nzk0NQ==)'><text x='339.88' y='219.91' style='font-size: 5.69px; fill: none; font-family: Arial;' textLength='12.67px' lengthAdjust='spacingAndGlyphs'>(9%)</text></g>
<g clip-path='url(#cpMjMyLjE4NHwxMTQ2LjUyfDI0OC4zNjZ8NS40Nzk0NQ==)'><text x='457.96' y='211.72' style='font-size: 5.69px; fill: none; font-family: Arial;' textLength='6.67px' lengthAdjust='spacingAndGlyphs'>36</text></g>
<g clip-path='url(#cpMjMyLjE4NHwxMTQ2LjUyfDI0OC4zNjZ8NS40Nzk0NQ==)'><text x='453.30' y='219.91' style='font-size: 5.69px; fill: none; font-family: Arial;' textLength='16.00px' lengthAdjust='spacingAndGlyphs'>(18%)</text></g>
<g clip-path='url(#cpMjMyLjE4NHwxMTQ2LjUyfDI0OC4zNjZ8NS40Nzk0NQ==)'><text x='645.52' y='211.72' style='font-size: 5.69px; fill: none; font-family: Arial;' textLength='6.67px' lengthAdjust='spacingAndGlyphs'>52</text></g>
<g clip-path='url(#cpMjMyLjE4NHwxMTQ2LjUyfDI0OC4zNjZ8NS40Nzk0NQ==)'><text x='640.85' y='219.91' style='font-size: 5.69px; fill: none; font-family: Arial;' textLength='16.00px' lengthAdjust='spacingAndGlyphs'>(27%)</text></g>
<g clip-path='url(#cpMjMyLjE4NHwxMTQ2LjUyfDI0OC4zNjZ8NS40Nzk0NQ==)'><text x='928.99' y='211.72' style='font-size: 5.69px; fill: none; font-family: Arial;' textLength='6.67px' lengthAdjust='spacingAndGlyphs'>81</text></g>
<g clip-path='url(#cpMjMyLjE4NHwxMTQ2LjUyfDI0OC4zNjZ8NS40Nzk0NQ==)'><text x='924.32' y='219.91' style='font-size: 5.69px; fill: none; font-family: Arial;' textLength='16.00px' lengthAdjust='spacingAndGlyphs'>(42%)</text></g>
<g clip-path='url(#cpMjMyLjE4NHwxMTQ2LjUyfDI0OC4zNjZ8NS40Nzk0NQ==)'><text x='282.79' y='153.89' style='font-size: 5.69px; fill: none; font-family: Arial;' textLength='6.67px' lengthAdjust='spacingAndGlyphs'>23</text></g>
<g clip-path='url(#cpMjMyLjE4NHwxMTQ2LjUyfDI0OC4zNjZ8NS40Nzk0NQ==)'><text x='279.79' y='162.08' style='font-size: 5.69px; fill: none; font-family: Arial;' textLength='12.67px' lengthAdjust='spacingAndGlyphs'>(3%)</text></g>
<g clip-path='url(#cpMjMyLjE4NHwxMTQ2LjUyfDI0OC4zNjZ8NS40Nzk0NQ==)'><text x='310.78' y='153.89' style='font-size: 5.69px; fill: none; font-family: Arial;' textLength='6.67px' lengthAdjust='spacingAndGlyphs'>29</text></g>
<g clip-path='url(#cpMjMyLjE4NHwxMTQ2LjUyfDI0OC4zNjZ8NS40Nzk0NQ==)'><text x='307.79' y='162.08' style='font-size: 5.69px; fill: none; font-family: Arial;' textLength='12.67px' lengthAdjust='spacingAndGlyphs'>(4%)</text></g>
<g clip-path='url(#cpMjMyLjE4NHwxMTQ2LjUyfDI0OC4zNjZ8NS40Nzk0NQ==)'><text x='358.70' y='153.89' style='font-size: 5.69px; fill: none; font-family: Arial;' textLength='6.67px' lengthAdjust='spacingAndGlyphs'>60</text></g>
<g clip-path='url(#cpMjMyLjE4NHwxMTQ2LjUyfDI0OC4zNjZ8NS40Nzk0NQ==)'><text x='355.70' y='162.08' style='font-size: 5.69px; fill: none; font-family: Arial;' textLength='12.67px' lengthAdjust='spacingAndGlyphs'>(8%)</text></g>
<g clip-path='url(#cpMjMyLjE4NHwxMTQ2LjUyfDI0OC4zNjZ8NS40Nzk0NQ==)'><text x='481.93' y='153.89' style='font-size: 5.69px; fill: none; font-family: Arial;' textLength='10.01px' lengthAdjust='spacingAndGlyphs'>172</text></g>
<g clip-path='url(#cpMjMyLjE4NHwxMTQ2LjUyfDI0OC4zNjZ8NS40Nzk0NQ==)'><text x='478.93' y='162.08' style='font-size: 5.69px; fill: none; font-family: Arial;' textLength='16.00px' lengthAdjust='spacingAndGlyphs'>(22%)</text></g>
<g clip-path='url(#cpMjMyLjE4NHwxMTQ2LjUyfDI0OC4zNjZ8NS40Nzk0NQ==)'><text x='653.12' y='153.89' style='font-size: 5.69px; fill: none; font-family: Arial;' textLength='10.01px' lengthAdjust='spacingAndGlyphs'>146</text></g>
<g clip-path='url(#cpMjMyLjE4NHwxMTQ2LjUyfDI0OC4zNjZ8NS40Nzk0NQ==)'><text x='650.13' y='162.08' style='font-size: 5.69px; fill: none; font-family: Arial;' textLength='16.00px' lengthAdjust='spacingAndGlyphs'>(19%)</text></g>
<g clip-path='url(#cpMjMyLjE4NHwxMTQ2LjUyfDI0OC4zNjZ8NS40Nzk0NQ==)'><text x='808.17' y='153.89' style='font-size: 5.69px; fill: none; font-family: Arial;' textLength='10.01px' lengthAdjust='spacingAndGlyphs'>142</text></g>
<g clip-path='url(#cpMjMyLjE4NHwxMTQ2LjUyfDI0OC4zNjZ8NS40Nzk0NQ==)'><text x='805.17' y='162.08' style='font-size: 5.69px; fill: none; font-family: Arial;' textLength='16.00px' lengthAdjust='spacingAndGlyphs'>(18%)</text></g>
<g clip-path='url(#cpMjMyLjE4NHwxMTQ2LjUyfDI0OC4zNjZ8NS40Nzk0NQ==)'><text x='992.28' y='153.89' style='font-size: 5.69px; fill: none; font-family: Arial;' textLength='10.01px' lengthAdjust='spacingAndGlyphs'>200</text></g>
<g clip-path='url(#cpMjMyLjE4NHwxMTQ2LjUyfDI0OC4zNjZ8NS40Nzk0NQ==)'><text x='989.29' y='162.08' style='font-size: 5.69px; fill: none; font-family: Arial;' textLength='16.00px' lengthAdjust='spacingAndGlyphs'>(26%)</text></g>
<g clip-path='url(#cpMjMyLjE4NHwxMTQ2LjUyfDI0OC4zNjZ8NS40Nzk0NQ==)'><text x='287.79' y='96.06' style='font-size: 5.69px; fill: none; font-family: Arial;' textLength='6.67px' lengthAdjust='spacingAndGlyphs'>11</text></g>
<g clip-path='url(#cpMjMyLjE4NHwxMTQ2LjUyfDI0OC4zNjZ8NS40Nzk0NQ==)'><text x='284.79' y='104.25' style='font-size: 5.69px; fill: none; font-family: Arial;' textLength='12.67px' lengthAdjust='spacingAndGlyphs'>(4%)</text></g>
<g clip-path='url(#cpMjMyLjE4NHwxMTQ2LjUyfDI0OC4zNjZ8NS40Nzk0NQ==)'><text x='338.36' y='96.06' style='font-size: 5.69px; fill: none; font-family: Arial;' textLength='6.67px' lengthAdjust='spacingAndGlyphs'>21</text></g>
<g clip-path='url(#cpMjMyLjE4NHwxMTQ2LjUyfDI0OC4zNjZ8NS40Nzk0NQ==)'><text x='335.36' y='104.25' style='font-size: 5.69px; fill: none; font-family: Arial;' textLength='12.67px' lengthAdjust='spacingAndGlyphs'>(8%)</text></g>
<g clip-path='url(#cpMjMyLjE4NHwxMTQ2LjUyfDI0OC4zNjZ8NS40Nzk0NQ==)'><text x='425.27' y='96.06' style='font-size: 5.69px; fill: none; font-family: Arial;' textLength='6.67px' lengthAdjust='spacingAndGlyphs'>34</text></g>
<g clip-path='url(#cpMjMyLjE4NHwxMTQ2LjUyfDI0OC4zNjZ8NS40Nzk0NQ==)'><text x='420.61' y='104.25' style='font-size: 5.69px; fill: none; font-family: Arial;' textLength='16.00px' lengthAdjust='spacingAndGlyphs'>(13%)</text></g>
<g clip-path='url(#cpMjMyLjE4NHwxMTQ2LjUyfDI0OC4zNjZ8NS40Nzk0NQ==)'><text x='608.58' y='96.06' style='font-size: 5.69px; fill: none; font-family: Arial;' textLength='6.67px' lengthAdjust='spacingAndGlyphs'>82</text></g>
<g clip-path='url(#cpMjMyLjE4NHwxMTQ2LjUyfDI0OC4zNjZ8NS40Nzk0NQ==)'><text x='603.92' y='104.25' style='font-size: 5.69px; fill: none; font-family: Arial;' textLength='16.00px' lengthAdjust='spacingAndGlyphs'>(31%)</text></g>
<g clip-path='url(#cpMjMyLjE4NHwxMTQ2LjUyfDI0OC4zNjZ8NS40Nzk0NQ==)'><text x='825.08' y='96.06' style='font-size: 5.69px; fill: none; font-family: Arial;' textLength='6.67px' lengthAdjust='spacingAndGlyphs'>55</text></g>
<g clip-path='url(#cpMjMyLjE4NHwxMTQ2LjUyfDI0OC4zNjZ8NS40Nzk0NQ==)'><text x='820.41' y='104.25' style='font-size: 5.69px; fill: none; font-family: Arial;' textLength='16.00px' lengthAdjust='spacingAndGlyphs'>(21%)</text></g>
<g clip-path='url(#cpMjMyLjE4NHwxMTQ2LjUyfDI0OC4zNjZ8NS40Nzk0NQ==)'><text x='967.30' y='96.06' style='font-size: 5.69px; fill: none; font-family: Arial;' textLength='6.67px' lengthAdjust='spacingAndGlyphs'>35</text></g>
<g clip-path='url(#cpMjMyLjE4NHwxMTQ2LjUyfDI0OC4zNjZ8NS40Nzk0NQ==)'><text x='962.64' y='104.25' style='font-size: 5.69px; fill: none; font-family: Arial;' textLength='16.00px' lengthAdjust='spacingAndGlyphs'>(13%)</text></g>
<g clip-path='url(#cpMjMyLjE4NHwxMTQ2LjUyfDI0OC4zNjZ8NS40Nzk0NQ==)'><text x='1062.12' y='96.06' style='font-size: 5.69px; fill: none; font-family: Arial;' textLength='6.67px' lengthAdjust='spacingAndGlyphs'>25</text></g>
<g clip-path='url(#cpMjMyLjE4NHwxMTQ2LjUyfDI0OC4zNjZ8NS40Nzk0NQ==)'><text x='1057.45' y='104.25' style='font-size: 5.69px; fill: none; font-family: Arial;' textLength='16.00px' lengthAdjust='spacingAndGlyphs'>(10%)</text></g>
<g clip-path='url(#cpMjMyLjE4NHwxMTQ2LjUyfDI0OC4zNjZ8NS40Nzk0NQ==)'><text x='303.66' y='38.23' style='font-size: 5.69px; fill: none; font-family: Arial;' textLength='6.67px' lengthAdjust='spacingAndGlyphs'>18</text></g>
<g clip-path='url(#cpMjMyLjE4NHwxMTQ2LjUyfDI0OC4zNjZ8NS40Nzk0NQ==)'><text x='300.66' y='46.42' style='font-size: 5.69px; fill: none; font-family: Arial;' textLength='12.67px' lengthAdjust='spacingAndGlyphs'>(8%)</text></g>
<g clip-path='url(#cpMjMyLjE4NHwxMTQ2LjUyfDI0OC4zNjZ8NS40Nzk0NQ==)'><text x='384.93' y='38.23' style='font-size: 5.69px; fill: none; font-family: Arial;' textLength='6.67px' lengthAdjust='spacingAndGlyphs'>26</text></g>
<g clip-path='url(#cpMjMyLjE4NHwxMTQ2LjUyfDI0OC4zNjZ8NS40Nzk0NQ==)'><text x='380.27' y='46.42' style='font-size: 5.69px; fill: none; font-family: Arial;' textLength='16.00px' lengthAdjust='spacingAndGlyphs'>(12%)</text></g>
<g clip-path='url(#cpMjMyLjE4NHwxMTQ2LjUyfDI0OC4zNjZ8NS40Nzk0NQ==)'><text x='497.61' y='38.23' style='font-size: 5.69px; fill: none; font-family: Arial;' textLength='6.67px' lengthAdjust='spacingAndGlyphs'>35</text></g>
<g clip-path='url(#cpMjMyLjE4NHwxMTQ2LjUyfDI0OC4zNjZ8NS40Nzk0NQ==)'><text x='492.94' y='46.42' style='font-size: 5.69px; fill: none; font-family: Arial;' textLength='16.00px' lengthAdjust='spacingAndGlyphs'>(16%)</text></g>
<g clip-path='url(#cpMjMyLjE4NHwxMTQ2LjUyfDI0OC4zNjZ8NS40Nzk0NQ==)'><text x='671.24' y='38.23' style='font-size: 5.69px; fill: none; font-family: Arial;' textLength='6.67px' lengthAdjust='spacingAndGlyphs'>59</text></g>
<g clip-path='url(#cpMjMyLjE4NHwxMTQ2LjUyfDI0OC4zNjZ8NS40Nzk0NQ==)'><text x='666.57' y='46.42' style='font-size: 5.69px; fill: none; font-family: Arial;' textLength='16.00px' lengthAdjust='spacingAndGlyphs'>(26%)</text></g>
<g clip-path='url(#cpMjMyLjE4NHwxMTQ2LjUyfDI0OC4zNjZ8NS40Nzk0NQ==)'><text x='861.49' y='38.23' style='font-size: 5.69px; fill: none; font-family: Arial;' textLength='6.67px' lengthAdjust='spacingAndGlyphs'>44</text></g>
<g clip-path='url(#cpMjMyLjE4NHwxMTQ2LjUyfDI0OC4zNjZ8NS40Nzk0NQ==)'><text x='856.83' y='46.42' style='font-size: 5.69px; fill: none; font-family: Arial;' textLength='16.00px' lengthAdjust='spacingAndGlyphs'>(20%)</text></g>
<g clip-path='url(#cpMjMyLjE4NHwxMTQ2LjUyfDI0OC4zNjZ8NS40Nzk0NQ==)'><text x='974.17' y='38.23' style='font-size: 5.69px; fill: none; font-family: Arial;' textLength='6.67px' lengthAdjust='spacingAndGlyphs'>17</text></g>
<g clip-path='url(#cpMjMyLjE4NHwxMTQ2LjUyfDI0OC4zNjZ8NS40Nzk0NQ==)'><text x='971.17' y='46.42' style='font-size: 5.69px; fill: none; font-family: Arial;' textLength='12.67px' lengthAdjust='spacingAndGlyphs'>(8%)</text></g>
<g clip-path='url(#cpMjMyLjE4NHwxMTQ2LjUyfDI0OC4zNjZ8NS40Nzk0NQ==)'><text x='1053.60' y='38.23' style='font-size: 5.69px; fill: none; font-family: Arial;' textLength='6.67px' lengthAdjust='spacingAndGlyphs'>26</text></g>
<g clip-path='url(#cpMjMyLjE4NHwxMTQ2LjUyfDI0OC4zNjZ8NS40Nzk0NQ==)'><text x='1048.93' y='46.42' style='font-size: 5.69px; fill: none; font-family: Arial;' textLength='16.00px' lengthAdjust='spacingAndGlyphs'>(12%)</text></g>
<defs>
  <clipPath id='cpMHwxMTUyfDI4OHww'>
    <rect x='0.00' y='0.00' width='1152.00' height='288.00' />
  </clipPath>
</defs>
<g clip-path='url(#cpMHwxMTUyfDI4OHww)'><text x='24.16' y='221.18' style='font-size: 20.80px; fill: #4D4D4D; font-family: Arial;' textLength='191.43px' lengthAdjust='spacingAndGlyphs'>Met een lichte klacht</text></g>
<g clip-path='url(#cpMHwxMTUyfDI4OHww)'><text x='46.35' y='163.35' style='font-size: 20.80px; fill: #4D4D4D; font-family: Arial;' textLength='169.24px' lengthAdjust='spacingAndGlyphs'>Met een vriend(in)</text></g>
<g clip-path='url(#cpMHwxMTUyfDI4OHww)'><text x='19.50' y='105.52' style='font-size: 20.80px; fill: #4D4D4D; font-family: Arial;' textLength='196.10px' lengthAdjust='spacingAndGlyphs'>Met een drugs-klacht</text></g>
<g clip-path='url(#cpMHwxMTUyfDI4OHww)'><text x='5.48' y='47.69' style='font-size: 20.80px; fill: #4D4D4D; font-family: Arial;' textLength='210.11px' lengthAdjust='spacingAndGlyphs'>Met een alcohol-klacht</text></g>
<polyline points='273.74,262.77 273.74,248.37 ' style='stroke-width: 2.13;' clip-path='url(#cpMHwxMTUyfDI4OHww)' />
<polyline points='356.87,262.77 356.87,248.37 ' style='stroke-width: 2.13;' clip-path='url(#cpMHwxMTUyfDI4OHww)' />
<polyline points='439.99,262.77 439.99,248.37 ' style='stroke-width: 2.13;' clip-path='url(#cpMHwxMTUyfDI4OHww)' />
<polyline points='523.11,262.77 523.11,248.37 ' style='stroke-width: 2.13;' clip-path='url(#cpMHwxMTUyfDI4OHww)' />
<polyline points='606.23,262.77 606.23,248.37 ' style='stroke-width: 2.13;' clip-path='url(#cpMHwxMTUyfDI4OHww)' />
<polyline points='689.35,262.77 689.35,248.37 ' style='stroke-width: 2.13;' clip-path='url(#cpMHwxMTUyfDI4OHww)' />
<polyline points='772.47,262.77 772.47,248.37 ' style='stroke-width: 2.13;' clip-path='url(#cpMHwxMTUyfDI4OHww)' />
<polyline points='855.60,262.77 855.60,248.37 ' style='stroke-width: 2.13;' clip-path='url(#cpMHwxMTUyfDI4OHww)' />
<polyline points='938.72,262.77 938.72,248.37 ' style='stroke-width: 2.13;' clip-path='url(#cpMHwxMTUyfDI4OHww)' />
<polyline points='1021.84,262.77 1021.84,248.37 ' style='stroke-width: 2.13;' clip-path='url(#cpMHwxMTUyfDI4OHww)' />
<polyline points='1104.96,262.77 1104.96,248.37 ' style='stroke-width: 2.13;' clip-path='url(#cpMHwxMTUyfDI4OHww)' />
<g clip-path='url(#cpMHwxMTUyfDI4OHww)'><text x='267.91' y='279.99' style='font-size: 20.80px; fill: #4D4D4D; font-family: Arial;' textLength='11.68px' lengthAdjust='spacingAndGlyphs'>0</text></g>
<g clip-path='url(#cpMHwxMTUyfDI4OHww)'><text x='345.19' y='279.99' style='font-size: 20.80px; fill: #4D4D4D; font-family: Arial;' textLength='23.36px' lengthAdjust='spacingAndGlyphs'>10</text></g>
<g clip-path='url(#cpMHwxMTUyfDI4OHww)'><text x='428.31' y='279.99' style='font-size: 20.80px; fill: #4D4D4D; font-family: Arial;' textLength='23.36px' lengthAdjust='spacingAndGlyphs'>20</text></g>
<g clip-path='url(#cpMHwxMTUyfDI4OHww)'><text x='511.43' y='279.99' style='font-size: 20.80px; fill: #4D4D4D; font-family: Arial;' textLength='23.36px' lengthAdjust='spacingAndGlyphs'>30</text></g>
<g clip-path='url(#cpMHwxMTUyfDI4OHww)'><text x='594.55' y='279.99' style='font-size: 20.80px; fill: #4D4D4D; font-family: Arial;' textLength='23.36px' lengthAdjust='spacingAndGlyphs'>40</text></g>
<g clip-path='url(#cpMHwxMTUyfDI4OHww)'><text x='677.67' y='279.99' style='font-size: 20.80px; fill: #4D4D4D; font-family: Arial;' textLength='23.36px' lengthAdjust='spacingAndGlyphs'>50</text></g>
<g clip-path='url(#cpMHwxMTUyfDI4OHww)'><text x='760.79' y='279.99' style='font-size: 20.80px; fill: #4D4D4D; font-family: Arial;' textLength='23.36px' lengthAdjust='spacingAndGlyphs'>60</text></g>
<g clip-path='url(#cpMHwxMTUyfDI4OHww)'><text x='843.92' y='279.99' style='font-size: 20.80px; fill: #4D4D4D; font-family: Arial;' textLength='23.36px' lengthAdjust='spacingAndGlyphs'>70</text></g>
<g clip-path='url(#cpMHwxMTUyfDI4OHww)'><text x='927.04' y='279.99' style='font-size: 20.80px; fill: #4D4D4D; font-family: Arial;' textLength='23.36px' lengthAdjust='spacingAndGlyphs'>80</text></g>
<g clip-path='url(#cpMHwxMTUyfDI4OHww)'><text x='1010.16' y='279.99' style='font-size: 20.80px; fill: #4D4D4D; font-family: Arial;' textLength='23.36px' lengthAdjust='spacingAndGlyphs'>90</text></g>
<g clip-path='url(#cpMHwxMTUyfDI4OHww)'><text x='1087.44' y='279.99' style='font-size: 20.80px; fill: #4D4D4D; font-family: Arial;' textLength='35.04px' lengthAdjust='spacingAndGlyphs'>100</text></g>
</svg>
