<?xml version='1.0' encoding='UTF-8' ?>
<svg xmlns='http://www.w3.org/2000/svg' xmlns:xlink='http://www.w3.org/1999/xlink' class='svglite' width='1152.00pt' height='288.00pt' viewBox='0 0 1152.00 288.00'>
<defs>
  <style type='text/css'><![CDATA[
    .svglite line, .svglite polyline, .svglite polygon, .svglite path, .svglite rect, .svglite circle {
      fill: none;
      stroke: #000000;
      stroke-linecap: round;
      stroke-linejoin: round;
      stroke-miterlimit: 10.00;
    }
  ]]></style>
</defs>
<rect width='100%' height='100%' style='stroke: none; fill: none;'/>
<defs>
  <clipPath id='cpMC4wMHwxMTUyLjAwfDAuMDB8Mjg4LjAw'>
    <rect x='0.00' y='0.00' width='1152.00' height='288.00' />
  </clipPath>
</defs>
<g clip-path='url(#cpMC4wMHwxMTUyLjAwfDAuMDB8Mjg4LjAw)'>
<rect x='0.00' y='0.00' width='1152.00' height='288.00' style='stroke-width: 1.07; stroke: none;' />
</g>
<defs>
  <clipPath id='cpNDM2Ljk5fDExNDYuNTJ8NS40OHwyNDYuNjY='>
    <rect x='436.99' y='5.48' width='709.53' height='241.18' />
  </clipPath>
</defs>
<g clip-path='url(#cpNDM2Ljk5fDExNDYuNTJ8NS40OHwyNDYuNjY=)'>
<rect x='469.24' y='114.27' width='32.08' height='23.59' style='stroke-width: 1.07; stroke: none; stroke-linecap: square; stroke-linejoin: miter; fill: #440154;' />
<rect x='501.33' y='114.27' width='54.03' height='23.59' style='stroke-width: 1.07; stroke: none; stroke-linecap: square; stroke-linejoin: miter; fill: #443A83;' />
<rect x='555.36' y='114.27' width='91.18' height='23.59' style='stroke-width: 1.07; stroke: none; stroke-linecap: square; stroke-linejoin: miter; fill: #31688E;' />
<rect x='646.54' y='114.27' width='148.59' height='23.59' style='stroke-width: 1.07; stroke: none; stroke-linecap: square; stroke-linejoin: miter; fill: #21908C;' />
<rect x='795.13' y='114.27' width='148.59' height='23.59' style='stroke-width: 1.07; stroke: none; stroke-linecap: square; stroke-linejoin: miter; fill: #35B779;' />
<rect x='943.73' y='114.27' width='106.38' height='23.59' style='stroke-width: 1.07; stroke: none; stroke-linecap: square; stroke-linejoin: miter; fill: #8FD744;' />
<rect x='1050.10' y='114.27' width='64.16' height='23.59' style='stroke-width: 1.07; stroke: none; stroke-linecap: square; stroke-linejoin: miter; fill: #FDE725;' />
<rect x='469.24' y='166.70' width='1.69' height='23.59' style='stroke-width: 1.07; stroke: none; stroke-linecap: square; stroke-linejoin: miter; fill: #440154;' />
<rect x='470.93' y='166.70' width='1.69' height='23.59' style='stroke-width: 1.07; stroke: none; stroke-linecap: square; stroke-linejoin: miter; fill: #443A83;' />
<rect x='472.62' y='166.70' width='16.89' height='23.59' style='stroke-width: 1.07; stroke: none; stroke-linecap: square; stroke-linejoin: miter; fill: #31688E;' />
<rect x='489.51' y='166.70' width='54.03' height='23.59' style='stroke-width: 1.07; stroke: none; stroke-linecap: square; stroke-linejoin: miter; fill: #21908C;' />
<rect x='543.54' y='166.70' width='119.89' height='23.59' style='stroke-width: 1.07; stroke: none; stroke-linecap: square; stroke-linejoin: miter; fill: #35B779;' />
<rect x='663.43' y='166.70' width='236.40' height='23.59' style='stroke-width: 1.07; stroke: none; stroke-linecap: square; stroke-linejoin: miter; fill: #8FD744;' />
<rect x='899.82' y='166.70' width='214.45' height='23.59' style='stroke-width: 1.07; stroke: none; stroke-linecap: square; stroke-linejoin: miter; fill: #FDE725;' />
<rect x='469.24' y='192.92' width='1.69' height='23.59' style='stroke-width: 1.07; stroke: none; stroke-linecap: square; stroke-linejoin: miter; fill: #440154;' />
<rect x='470.93' y='192.92' width='1.69' height='23.59' style='stroke-width: 1.07; stroke: none; stroke-linecap: square; stroke-linejoin: miter; fill: #443A83;' />
<rect x='472.62' y='192.92' width='5.07' height='23.59' style='stroke-width: 1.07; stroke: none; stroke-linecap: square; stroke-linejoin: miter; fill: #31688E;' />
<rect x='477.69' y='192.92' width='50.66' height='23.59' style='stroke-width: 1.07; stroke: none; stroke-linecap: square; stroke-linejoin: miter; fill: #21908C;' />
<rect x='528.34' y='192.92' width='101.31' height='23.59' style='stroke-width: 1.07; stroke: none; stroke-linecap: square; stroke-linejoin: miter; fill: #35B779;' />
<rect x='629.66' y='192.92' width='234.71' height='23.59' style='stroke-width: 1.07; stroke: none; stroke-linecap: square; stroke-linejoin: miter; fill: #8FD744;' />
<rect x='864.36' y='192.92' width='249.91' height='23.59' style='stroke-width: 1.07; stroke: none; stroke-linecap: square; stroke-linejoin: miter; fill: #FDE725;' />
<rect x='469.24' y='9.41' width='62.48' height='23.59' style='stroke-width: 1.07; stroke: none; stroke-linecap: square; stroke-linejoin: miter; fill: #440154;' />
<rect x='531.72' y='9.41' width='111.44' height='23.59' style='stroke-width: 1.07; stroke: none; stroke-linecap: square; stroke-linejoin: miter; fill: #443A83;' />
<rect x='643.16' y='9.41' width='113.13' height='23.59' style='stroke-width: 1.07; stroke: none; stroke-linecap: square; stroke-linejoin: miter; fill: #31688E;' />
<rect x='756.30' y='9.41' width='155.35' height='23.59' style='stroke-width: 1.07; stroke: none; stroke-linecap: square; stroke-linejoin: miter; fill: #21908C;' />
<rect x='911.64' y='9.41' width='116.51' height='23.59' style='stroke-width: 1.07; stroke: none; stroke-linecap: square; stroke-linejoin: miter; fill: #35B779;' />
<rect x='1028.15' y='9.41' width='59.10' height='23.59' style='stroke-width: 1.07; stroke: none; stroke-linecap: square; stroke-linejoin: miter; fill: #8FD744;' />
<rect x='1087.25' y='9.41' width='27.02' height='23.59' style='stroke-width: 1.07; stroke: none; stroke-linecap: square; stroke-linejoin: miter; fill: #FDE725;' />
<rect x='469.24' y='61.84' width='33.77' height='23.59' style='stroke-width: 1.07; stroke: none; stroke-linecap: square; stroke-linejoin: miter; fill: #440154;' />
<rect x='503.02' y='61.84' width='72.61' height='23.59' style='stroke-width: 1.07; stroke: none; stroke-linecap: square; stroke-linejoin: miter; fill: #443A83;' />
<rect x='575.62' y='61.84' width='92.87' height='23.59' style='stroke-width: 1.07; stroke: none; stroke-linecap: square; stroke-linejoin: miter; fill: #31688E;' />
<rect x='668.49' y='61.84' width='140.15' height='23.59' style='stroke-width: 1.07; stroke: none; stroke-linecap: square; stroke-linejoin: miter; fill: #21908C;' />
<rect x='808.64' y='61.84' width='143.53' height='23.59' style='stroke-width: 1.07; stroke: none; stroke-linecap: square; stroke-linejoin: miter; fill: #35B779;' />
<rect x='952.17' y='61.84' width='116.51' height='23.59' style='stroke-width: 1.07; stroke: none; stroke-linecap: square; stroke-linejoin: miter; fill: #8FD744;' />
<rect x='1068.68' y='61.84' width='45.59' height='23.59' style='stroke-width: 1.07; stroke: none; stroke-linecap: square; stroke-linejoin: miter; fill: #FDE725;' />
<rect x='469.24' y='88.06' width='27.02' height='23.59' style='stroke-width: 1.07; stroke: none; stroke-linecap: square; stroke-linejoin: miter; fill: #440154;' />
<rect x='496.26' y='88.06' width='74.30' height='23.59' style='stroke-width: 1.07; stroke: none; stroke-linecap: square; stroke-linejoin: miter; fill: #443A83;' />
<rect x='570.56' y='88.06' width='84.43' height='23.59' style='stroke-width: 1.07; stroke: none; stroke-linecap: square; stroke-linejoin: miter; fill: #31688E;' />
<rect x='654.98' y='88.06' width='136.77' height='23.59' style='stroke-width: 1.07; stroke: none; stroke-linecap: square; stroke-linejoin: miter; fill: #21908C;' />
<rect x='791.76' y='88.06' width='138.46' height='23.59' style='stroke-width: 1.07; stroke: none; stroke-linecap: square; stroke-linejoin: miter; fill: #35B779;' />
<rect x='930.22' y='88.06' width='128.33' height='23.59' style='stroke-width: 1.07; stroke: none; stroke-linecap: square; stroke-linejoin: miter; fill: #8FD744;' />
<rect x='1058.55' y='88.06' width='55.72' height='23.59' style='stroke-width: 1.07; stroke: none; stroke-linecap: square; stroke-linejoin: miter; fill: #FDE725;' />
<rect x='469.24' y='140.49' width='6.77' height='23.59' style='stroke-width: 1.07; stroke: none; stroke-linecap: square; stroke-linejoin: miter; fill: #440154;' />
<rect x='476.02' y='140.49' width='44.02' height='23.59' style='stroke-width: 1.07; stroke: none; stroke-linecap: square; stroke-linejoin: miter; fill: #443A83;' />
<rect x='520.03' y='140.49' width='72.80' height='23.59' style='stroke-width: 1.07; stroke: none; stroke-linecap: square; stroke-linejoin: miter; fill: #31688E;' />
<rect x='592.83' y='140.49' width='148.98' height='23.59' style='stroke-width: 1.07; stroke: none; stroke-linecap: square; stroke-linejoin: miter; fill: #21908C;' />
<rect x='741.81' y='140.49' width='193.00' height='23.59' style='stroke-width: 1.07; stroke: none; stroke-linecap: square; stroke-linejoin: miter; fill: #35B779;' />
<rect x='934.81' y='140.49' width='123.59' height='23.59' style='stroke-width: 1.07; stroke: none; stroke-linecap: square; stroke-linejoin: miter; fill: #8FD744;' />
<rect x='1058.40' y='140.49' width='55.87' height='23.59' style='stroke-width: 1.07; stroke: none; stroke-linecap: square; stroke-linejoin: miter; fill: #FDE725;' />
<rect x='469.24' y='35.63' width='44.02' height='23.59' style='stroke-width: 1.07; stroke: none; stroke-linecap: square; stroke-linejoin: miter; fill: #440154;' />
<rect x='513.26' y='35.63' width='108.35' height='23.59' style='stroke-width: 1.07; stroke: none; stroke-linecap: square; stroke-linejoin: miter; fill: #443A83;' />
<rect x='621.61' y='35.63' width='147.29' height='23.59' style='stroke-width: 1.07; stroke: none; stroke-linecap: square; stroke-linejoin: miter; fill: #31688E;' />
<rect x='768.90' y='35.63' width='140.52' height='23.59' style='stroke-width: 1.07; stroke: none; stroke-linecap: square; stroke-linejoin: miter; fill: #21908C;' />
<rect x='909.42' y='35.63' width='132.05' height='23.59' style='stroke-width: 1.07; stroke: none; stroke-linecap: square; stroke-linejoin: miter; fill: #35B779;' />
<rect x='1041.47' y='35.63' width='49.10' height='23.59' style='stroke-width: 1.07; stroke: none; stroke-linecap: square; stroke-linejoin: miter; fill: #8FD744;' />
<rect x='1090.57' y='35.63' width='23.70' height='23.59' style='stroke-width: 1.07; stroke: none; stroke-linecap: square; stroke-linejoin: miter; fill: #FDE725;' />
<rect x='469.24' y='219.14' width='1.69' height='23.59' style='stroke-width: 1.07; stroke: none; stroke-linecap: square; stroke-linejoin: miter; fill: #31688E;' />
<rect x='470.94' y='219.14' width='22.01' height='23.59' style='stroke-width: 1.07; stroke: none; stroke-linecap: square; stroke-linejoin: miter; fill: #21908C;' />
<rect x='492.95' y='219.14' width='8.46' height='23.59' style='stroke-width: 1.07; stroke: none; stroke-linecap: square; stroke-linejoin: miter; fill: #35B779;' />
<rect x='501.41' y='219.14' width='71.11' height='23.59' style='stroke-width: 1.07; stroke: none; stroke-linecap: square; stroke-linejoin: miter; fill: #8FD744;' />
<rect x='572.52' y='219.14' width='541.75' height='23.59' style='stroke-width: 1.07; stroke: none; stroke-linecap: square; stroke-linejoin: miter; fill: #FDE725;' />
<text x='485.29' y='124.01' text-anchor='middle' style='font-size: 5.69px; fill: none; font-family: Arial;' textLength='6.32px' lengthAdjust='spacingAndGlyphs'>19</text>
<text x='485.29' y='132.21' text-anchor='middle' style='font-size: 5.69px; fill: none; font-family: Arial;' textLength='12.00px' lengthAdjust='spacingAndGlyphs'>(5%)</text>
<text x='528.34' y='124.01' text-anchor='middle' style='font-size: 5.69px; fill: none; font-family: Arial;' textLength='6.32px' lengthAdjust='spacingAndGlyphs'>32</text>
<text x='528.34' y='132.21' text-anchor='middle' style='font-size: 5.69px; fill: none; font-family: Arial;' textLength='12.00px' lengthAdjust='spacingAndGlyphs'>(8%)</text>
<text x='600.95' y='124.01' text-anchor='middle' style='font-size: 5.69px; fill: none; font-family: Arial;' textLength='6.32px' lengthAdjust='spacingAndGlyphs'>54</text>
<text x='600.95' y='132.21' text-anchor='middle' style='font-size: 5.69px; fill: none; font-family: Arial;' textLength='15.16px' lengthAdjust='spacingAndGlyphs'>(14%)</text>
<text x='720.84' y='124.01' text-anchor='middle' style='font-size: 5.69px; fill: none; font-family: Arial;' textLength='6.32px' lengthAdjust='spacingAndGlyphs'>88</text>
<text x='720.84' y='132.21' text-anchor='middle' style='font-size: 5.69px; fill: none; font-family: Arial;' textLength='15.16px' lengthAdjust='spacingAndGlyphs'>(23%)</text>
<text x='869.43' y='124.01' text-anchor='middle' style='font-size: 5.69px; fill: none; font-family: Arial;' textLength='6.32px' lengthAdjust='spacingAndGlyphs'>88</text>
<text x='869.43' y='132.21' text-anchor='middle' style='font-size: 5.69px; fill: none; font-family: Arial;' textLength='15.16px' lengthAdjust='spacingAndGlyphs'>(23%)</text>
<text x='996.92' y='124.01' text-anchor='middle' style='font-size: 5.69px; fill: none; font-family: Arial;' textLength='6.32px' lengthAdjust='spacingAndGlyphs'>63</text>
<text x='996.92' y='132.21' text-anchor='middle' style='font-size: 5.69px; fill: none; font-family: Arial;' textLength='15.16px' lengthAdjust='spacingAndGlyphs'>(16%)</text>
<text x='1082.19' y='124.01' text-anchor='middle' style='font-size: 5.69px; fill: none; font-family: Arial;' textLength='6.32px' lengthAdjust='spacingAndGlyphs'>38</text>
<text x='1082.19' y='132.21' text-anchor='middle' style='font-size: 5.69px; fill: none; font-family: Arial;' textLength='15.16px' lengthAdjust='spacingAndGlyphs'>(10%)</text>
<text x='481.06' y='176.44' text-anchor='middle' style='font-size: 5.69px; fill: none; font-family: Arial;' textLength='6.32px' lengthAdjust='spacingAndGlyphs'>10</text>
<text x='481.06' y='184.64' text-anchor='middle' style='font-size: 5.69px; fill: none; font-family: Arial;' textLength='12.00px' lengthAdjust='spacingAndGlyphs'>(3%)</text>
<text x='516.52' y='176.44' text-anchor='middle' style='font-size: 5.69px; fill: none; font-family: Arial;' textLength='6.32px' lengthAdjust='spacingAndGlyphs'>32</text>
<text x='516.52' y='184.64' text-anchor='middle' style='font-size: 5.69px; fill: none; font-family: Arial;' textLength='12.00px' lengthAdjust='spacingAndGlyphs'>(8%)</text>
<text x='603.48' y='176.44' text-anchor='middle' style='font-size: 5.69px; fill: none; font-family: Arial;' textLength='6.32px' lengthAdjust='spacingAndGlyphs'>71</text>
<text x='603.48' y='184.64' text-anchor='middle' style='font-size: 5.69px; fill: none; font-family: Arial;' textLength='15.16px' lengthAdjust='spacingAndGlyphs'>(19%)</text>
<text x='781.63' y='176.44' text-anchor='middle' style='font-size: 5.69px; fill: none; font-family: Arial;' textLength='9.48px' lengthAdjust='spacingAndGlyphs'>140</text>
<text x='781.63' y='184.64' text-anchor='middle' style='font-size: 5.69px; fill: none; font-family: Arial;' textLength='15.16px' lengthAdjust='spacingAndGlyphs'>(37%)</text>
<text x='1007.05' y='176.44' text-anchor='middle' style='font-size: 5.69px; fill: none; font-family: Arial;' textLength='9.48px' lengthAdjust='spacingAndGlyphs'>127</text>
<text x='1007.05' y='184.64' text-anchor='middle' style='font-size: 5.69px; fill: none; font-family: Arial;' textLength='15.16px' lengthAdjust='spacingAndGlyphs'>(33%)</text>
<text x='475.15' y='202.66' text-anchor='middle' style='font-size: 5.69px; fill: none; font-family: Arial;' textLength='3.16px' lengthAdjust='spacingAndGlyphs'>3</text>
<text x='475.15' y='210.85' text-anchor='middle' style='font-size: 5.69px; fill: none; font-family: Arial;' textLength='12.00px' lengthAdjust='spacingAndGlyphs'>(1%)</text>
<text x='503.02' y='202.66' text-anchor='middle' style='font-size: 5.69px; fill: none; font-family: Arial;' textLength='6.32px' lengthAdjust='spacingAndGlyphs'>30</text>
<text x='503.02' y='210.85' text-anchor='middle' style='font-size: 5.69px; fill: none; font-family: Arial;' textLength='12.00px' lengthAdjust='spacingAndGlyphs'>(8%)</text>
<text x='579.00' y='202.66' text-anchor='middle' style='font-size: 5.69px; fill: none; font-family: Arial;' textLength='6.32px' lengthAdjust='spacingAndGlyphs'>60</text>
<text x='579.00' y='210.85' text-anchor='middle' style='font-size: 5.69px; fill: none; font-family: Arial;' textLength='15.16px' lengthAdjust='spacingAndGlyphs'>(16%)</text>
<text x='747.01' y='202.66' text-anchor='middle' style='font-size: 5.69px; fill: none; font-family: Arial;' textLength='9.48px' lengthAdjust='spacingAndGlyphs'>139</text>
<text x='747.01' y='210.85' text-anchor='middle' style='font-size: 5.69px; fill: none; font-family: Arial;' textLength='15.16px' lengthAdjust='spacingAndGlyphs'>(36%)</text>
<text x='989.32' y='202.66' text-anchor='middle' style='font-size: 5.69px; fill: none; font-family: Arial;' textLength='9.48px' lengthAdjust='spacingAndGlyphs'>148</text>
<text x='989.32' y='210.85' text-anchor='middle' style='font-size: 5.69px; fill: none; font-family: Arial;' textLength='15.16px' lengthAdjust='spacingAndGlyphs'>(39%)</text>
<text x='500.48' y='19.15' text-anchor='middle' style='font-size: 5.69px; fill: none; font-family: Arial;' textLength='6.32px' lengthAdjust='spacingAndGlyphs'>37</text>
<text x='500.48' y='27.34' text-anchor='middle' style='font-size: 5.69px; fill: none; font-family: Arial;' textLength='15.16px' lengthAdjust='spacingAndGlyphs'>(10%)</text>
<text x='587.44' y='19.15' text-anchor='middle' style='font-size: 5.69px; fill: none; font-family: Arial;' textLength='6.32px' lengthAdjust='spacingAndGlyphs'>66</text>
<text x='587.44' y='27.34' text-anchor='middle' style='font-size: 5.69px; fill: none; font-family: Arial;' textLength='15.16px' lengthAdjust='spacingAndGlyphs'>(17%)</text>
<text x='699.73' y='19.15' text-anchor='middle' style='font-size: 5.69px; fill: none; font-family: Arial;' textLength='6.32px' lengthAdjust='spacingAndGlyphs'>67</text>
<text x='699.73' y='27.34' text-anchor='middle' style='font-size: 5.69px; fill: none; font-family: Arial;' textLength='15.16px' lengthAdjust='spacingAndGlyphs'>(18%)</text>
<text x='833.97' y='19.15' text-anchor='middle' style='font-size: 5.69px; fill: none; font-family: Arial;' textLength='6.32px' lengthAdjust='spacingAndGlyphs'>92</text>
<text x='833.97' y='27.34' text-anchor='middle' style='font-size: 5.69px; fill: none; font-family: Arial;' textLength='15.16px' lengthAdjust='spacingAndGlyphs'>(24%)</text>
<text x='969.90' y='19.15' text-anchor='middle' style='font-size: 5.69px; fill: none; font-family: Arial;' textLength='6.32px' lengthAdjust='spacingAndGlyphs'>69</text>
<text x='969.90' y='27.34' text-anchor='middle' style='font-size: 5.69px; fill: none; font-family: Arial;' textLength='15.16px' lengthAdjust='spacingAndGlyphs'>(18%)</text>
<text x='1057.70' y='19.15' text-anchor='middle' style='font-size: 5.69px; fill: none; font-family: Arial;' textLength='6.32px' lengthAdjust='spacingAndGlyphs'>35</text>
<text x='1057.70' y='27.34' text-anchor='middle' style='font-size: 5.69px; fill: none; font-family: Arial;' textLength='12.00px' lengthAdjust='spacingAndGlyphs'>(9%)</text>
<text x='1100.76' y='19.15' text-anchor='middle' style='font-size: 5.69px; fill: none; font-family: Arial;' textLength='6.32px' lengthAdjust='spacingAndGlyphs'>16</text>
<text x='1100.76' y='27.34' text-anchor='middle' style='font-size: 5.69px; fill: none; font-family: Arial;' textLength='12.00px' lengthAdjust='spacingAndGlyphs'>(4%)</text>
<text x='486.13' y='71.58' text-anchor='middle' style='font-size: 5.69px; fill: none; font-family: Arial;' textLength='6.32px' lengthAdjust='spacingAndGlyphs'>20</text>
<text x='486.13' y='79.77' text-anchor='middle' style='font-size: 5.69px; fill: none; font-family: Arial;' textLength='12.00px' lengthAdjust='spacingAndGlyphs'>(5%)</text>
<text x='539.32' y='71.58' text-anchor='middle' style='font-size: 5.69px; fill: none; font-family: Arial;' textLength='6.32px' lengthAdjust='spacingAndGlyphs'>43</text>
<text x='539.32' y='79.77' text-anchor='middle' style='font-size: 5.69px; fill: none; font-family: Arial;' textLength='14.74px' lengthAdjust='spacingAndGlyphs'>(11%)</text>
<text x='622.06' y='71.58' text-anchor='middle' style='font-size: 5.69px; fill: none; font-family: Arial;' textLength='6.32px' lengthAdjust='spacingAndGlyphs'>55</text>
<text x='622.06' y='79.77' text-anchor='middle' style='font-size: 5.69px; fill: none; font-family: Arial;' textLength='15.16px' lengthAdjust='spacingAndGlyphs'>(14%)</text>
<text x='738.57' y='71.58' text-anchor='middle' style='font-size: 5.69px; fill: none; font-family: Arial;' textLength='6.32px' lengthAdjust='spacingAndGlyphs'>83</text>
<text x='738.57' y='79.77' text-anchor='middle' style='font-size: 5.69px; fill: none; font-family: Arial;' textLength='15.16px' lengthAdjust='spacingAndGlyphs'>(22%)</text>
<text x='880.41' y='71.58' text-anchor='middle' style='font-size: 5.69px; fill: none; font-family: Arial;' textLength='6.32px' lengthAdjust='spacingAndGlyphs'>85</text>
<text x='880.41' y='79.77' text-anchor='middle' style='font-size: 5.69px; fill: none; font-family: Arial;' textLength='15.16px' lengthAdjust='spacingAndGlyphs'>(22%)</text>
<text x='1010.42' y='71.58' text-anchor='middle' style='font-size: 5.69px; fill: none; font-family: Arial;' textLength='6.32px' lengthAdjust='spacingAndGlyphs'>69</text>
<text x='1010.42' y='79.77' text-anchor='middle' style='font-size: 5.69px; fill: none; font-family: Arial;' textLength='15.16px' lengthAdjust='spacingAndGlyphs'>(18%)</text>
<text x='1091.47' y='71.58' text-anchor='middle' style='font-size: 5.69px; fill: none; font-family: Arial;' textLength='6.32px' lengthAdjust='spacingAndGlyphs'>27</text>
<text x='1091.47' y='79.77' text-anchor='middle' style='font-size: 5.69px; fill: none; font-family: Arial;' textLength='12.00px' lengthAdjust='spacingAndGlyphs'>(7%)</text>
<text x='482.75' y='97.80' text-anchor='middle' style='font-size: 5.69px; fill: none; font-family: Arial;' textLength='6.32px' lengthAdjust='spacingAndGlyphs'>16</text>
<text x='482.75' y='105.99' text-anchor='middle' style='font-size: 5.69px; fill: none; font-family: Arial;' textLength='12.00px' lengthAdjust='spacingAndGlyphs'>(4%)</text>
<text x='533.41' y='97.80' text-anchor='middle' style='font-size: 5.69px; fill: none; font-family: Arial;' textLength='6.32px' lengthAdjust='spacingAndGlyphs'>44</text>
<text x='533.41' y='105.99' text-anchor='middle' style='font-size: 5.69px; fill: none; font-family: Arial;' textLength='15.16px' lengthAdjust='spacingAndGlyphs'>(12%)</text>
<text x='612.77' y='97.80' text-anchor='middle' style='font-size: 5.69px; fill: none; font-family: Arial;' textLength='6.32px' lengthAdjust='spacingAndGlyphs'>50</text>
<text x='612.77' y='105.99' text-anchor='middle' style='font-size: 5.69px; fill: none; font-family: Arial;' textLength='15.16px' lengthAdjust='spacingAndGlyphs'>(13%)</text>
<text x='723.37' y='97.80' text-anchor='middle' style='font-size: 5.69px; fill: none; font-family: Arial;' textLength='6.32px' lengthAdjust='spacingAndGlyphs'>81</text>
<text x='723.37' y='105.99' text-anchor='middle' style='font-size: 5.69px; fill: none; font-family: Arial;' textLength='15.16px' lengthAdjust='spacingAndGlyphs'>(21%)</text>
<text x='860.99' y='97.80' text-anchor='middle' style='font-size: 5.69px; fill: none; font-family: Arial;' textLength='6.32px' lengthAdjust='spacingAndGlyphs'>82</text>
<text x='860.99' y='105.99' text-anchor='middle' style='font-size: 5.69px; fill: none; font-family: Arial;' textLength='15.16px' lengthAdjust='spacingAndGlyphs'>(21%)</text>
<text x='994.38' y='97.80' text-anchor='middle' style='font-size: 5.69px; fill: none; font-family: Arial;' textLength='6.32px' lengthAdjust='spacingAndGlyphs'>76</text>
<text x='994.38' y='105.99' text-anchor='middle' style='font-size: 5.69px; fill: none; font-family: Arial;' textLength='15.16px' lengthAdjust='spacingAndGlyphs'>(20%)</text>
<text x='1086.41' y='97.80' text-anchor='middle' style='font-size: 5.69px; fill: none; font-family: Arial;' textLength='6.32px' lengthAdjust='spacingAndGlyphs'>33</text>
<text x='1086.41' y='105.99' text-anchor='middle' style='font-size: 5.69px; fill: none; font-family: Arial;' textLength='12.00px' lengthAdjust='spacingAndGlyphs'>(9%)</text>
<text x='472.63' y='150.23' text-anchor='middle' style='font-size: 5.69px; fill: none; font-family: Arial;' textLength='3.16px' lengthAdjust='spacingAndGlyphs'>4</text>
<text x='472.63' y='158.42' text-anchor='middle' style='font-size: 5.69px; fill: none; font-family: Arial;' textLength='12.00px' lengthAdjust='spacingAndGlyphs'>(1%)</text>
<text x='498.02' y='150.23' text-anchor='middle' style='font-size: 5.69px; fill: none; font-family: Arial;' textLength='6.32px' lengthAdjust='spacingAndGlyphs'>26</text>
<text x='498.02' y='158.42' text-anchor='middle' style='font-size: 5.69px; fill: none; font-family: Arial;' textLength='12.00px' lengthAdjust='spacingAndGlyphs'>(7%)</text>
<text x='556.43' y='150.23' text-anchor='middle' style='font-size: 5.69px; fill: none; font-family: Arial;' textLength='6.32px' lengthAdjust='spacingAndGlyphs'>43</text>
<text x='556.43' y='158.42' text-anchor='middle' style='font-size: 5.69px; fill: none; font-family: Arial;' textLength='14.74px' lengthAdjust='spacingAndGlyphs'>(11%)</text>
<text x='667.32' y='150.23' text-anchor='middle' style='font-size: 5.69px; fill: none; font-family: Arial;' textLength='6.32px' lengthAdjust='spacingAndGlyphs'>88</text>
<text x='667.32' y='158.42' text-anchor='middle' style='font-size: 5.69px; fill: none; font-family: Arial;' textLength='15.16px' lengthAdjust='spacingAndGlyphs'>(23%)</text>
<text x='838.31' y='150.23' text-anchor='middle' style='font-size: 5.69px; fill: none; font-family: Arial;' textLength='9.06px' lengthAdjust='spacingAndGlyphs'>114</text>
<text x='838.31' y='158.42' text-anchor='middle' style='font-size: 5.69px; fill: none; font-family: Arial;' textLength='15.16px' lengthAdjust='spacingAndGlyphs'>(30%)</text>
<text x='996.61' y='150.23' text-anchor='middle' style='font-size: 5.69px; fill: none; font-family: Arial;' textLength='6.32px' lengthAdjust='spacingAndGlyphs'>73</text>
<text x='996.61' y='158.42' text-anchor='middle' style='font-size: 5.69px; fill: none; font-family: Arial;' textLength='15.16px' lengthAdjust='spacingAndGlyphs'>(19%)</text>
<text x='1086.34' y='150.23' text-anchor='middle' style='font-size: 5.69px; fill: none; font-family: Arial;' textLength='6.32px' lengthAdjust='spacingAndGlyphs'>33</text>
<text x='1086.34' y='158.42' text-anchor='middle' style='font-size: 5.69px; fill: none; font-family: Arial;' textLength='12.00px' lengthAdjust='spacingAndGlyphs'>(9%)</text>
<text x='491.25' y='45.36' text-anchor='middle' style='font-size: 5.69px; fill: none; font-family: Arial;' textLength='6.32px' lengthAdjust='spacingAndGlyphs'>26</text>
<text x='491.25' y='53.56' text-anchor='middle' style='font-size: 5.69px; fill: none; font-family: Arial;' textLength='12.00px' lengthAdjust='spacingAndGlyphs'>(7%)</text>
<text x='567.44' y='45.36' text-anchor='middle' style='font-size: 5.69px; fill: none; font-family: Arial;' textLength='6.32px' lengthAdjust='spacingAndGlyphs'>64</text>
<text x='567.44' y='53.56' text-anchor='middle' style='font-size: 5.69px; fill: none; font-family: Arial;' textLength='15.16px' lengthAdjust='spacingAndGlyphs'>(17%)</text>
<text x='695.26' y='45.36' text-anchor='middle' style='font-size: 5.69px; fill: none; font-family: Arial;' textLength='6.32px' lengthAdjust='spacingAndGlyphs'>87</text>
<text x='695.26' y='53.56' text-anchor='middle' style='font-size: 5.69px; fill: none; font-family: Arial;' textLength='15.16px' lengthAdjust='spacingAndGlyphs'>(23%)</text>
<text x='839.16' y='45.36' text-anchor='middle' style='font-size: 5.69px; fill: none; font-family: Arial;' textLength='6.32px' lengthAdjust='spacingAndGlyphs'>83</text>
<text x='839.16' y='53.56' text-anchor='middle' style='font-size: 5.69px; fill: none; font-family: Arial;' textLength='15.16px' lengthAdjust='spacingAndGlyphs'>(22%)</text>
<text x='975.44' y='45.36' text-anchor='middle' style='font-size: 5.69px; fill: none; font-family: Arial;' textLength='6.32px' lengthAdjust='spacingAndGlyphs'>78</text>
<text x='975.44' y='53.56' text-anchor='middle' style='font-size: 5.69px; fill: none; font-family: Arial;' textLength='15.16px' lengthAdjust='spacingAndGlyphs'>(20%)</text>
<text x='1066.02' y='45.36' text-anchor='middle' style='font-size: 5.69px; fill: none; font-family: Arial;' textLength='6.32px' lengthAdjust='spacingAndGlyphs'>29</text>
<text x='1066.02' y='53.56' text-anchor='middle' style='font-size: 5.69px; fill: none; font-family: Arial;' textLength='12.00px' lengthAdjust='spacingAndGlyphs'>(8%)</text>
<text x='1102.42' y='45.36' text-anchor='middle' style='font-size: 5.69px; fill: none; font-family: Arial;' textLength='6.32px' lengthAdjust='spacingAndGlyphs'>14</text>
<text x='1102.42' y='53.56' text-anchor='middle' style='font-size: 5.69px; fill: none; font-family: Arial;' textLength='12.00px' lengthAdjust='spacingAndGlyphs'>(4%)</text>
<text x='481.94' y='228.87' text-anchor='middle' style='font-size: 5.69px; fill: none; font-family: Arial;' textLength='6.32px' lengthAdjust='spacingAndGlyphs'>13</text>
<text x='481.94' y='237.07' text-anchor='middle' style='font-size: 5.69px; fill: none; font-family: Arial;' textLength='12.00px' lengthAdjust='spacingAndGlyphs'>(3%)</text>
<text x='497.18' y='228.87' text-anchor='middle' style='font-size: 5.69px; fill: none; font-family: Arial;' textLength='3.16px' lengthAdjust='spacingAndGlyphs'>5</text>
<text x='497.18' y='237.07' text-anchor='middle' style='font-size: 5.69px; fill: none; font-family: Arial;' textLength='12.00px' lengthAdjust='spacingAndGlyphs'>(1%)</text>
<text x='536.96' y='228.87' text-anchor='middle' style='font-size: 5.69px; fill: none; font-family: Arial;' textLength='6.32px' lengthAdjust='spacingAndGlyphs'>42</text>
<text x='536.96' y='237.07' text-anchor='middle' style='font-size: 5.69px; fill: none; font-family: Arial;' textLength='14.74px' lengthAdjust='spacingAndGlyphs'>(11%)</text>
<text x='843.39' y='228.87' text-anchor='middle' style='font-size: 5.69px; fill: none; font-family: Arial;' textLength='9.48px' lengthAdjust='spacingAndGlyphs'>320</text>
<text x='843.39' y='237.07' text-anchor='middle' style='font-size: 5.69px; fill: none; font-family: Arial;' textLength='15.16px' lengthAdjust='spacingAndGlyphs'>(84%)</text>
</g>
<g clip-path='url(#cpMC4wMHwxMTUyLjAwfDAuMDB8Mjg4LjAw)'>
<text x='420.40' y='238.38' text-anchor='end' style='font-size: 20.80px; fill: #4D4D4D; font-family: Arial;' textLength='295.89px' lengthAdjust='spacingAndGlyphs'>De eerste hulp in het ziekenhuis</text>
<text x='420.40' y='212.16' text-anchor='end' style='font-size: 20.80px; fill: #4D4D4D; font-family: Arial;' textLength='362.94px' lengthAdjust='spacingAndGlyphs'>De eerste hulp bij een groot buitenfeest</text>
<text x='420.40' y='185.95' text-anchor='end' style='font-size: 20.80px; fill: #4D4D4D; font-family: Arial;' textLength='368.73px' lengthAdjust='spacingAndGlyphs'>De eerste hulp bij een groot binnenfeest</text>
<text x='420.40' y='159.73' text-anchor='end' style='font-size: 20.80px; fill: #4D4D4D; font-family: Arial;' textLength='236.95px' lengthAdjust='spacingAndGlyphs'>Mijn vrienden/vriendinnen</text>
<text x='420.40' y='133.52' text-anchor='end' style='font-size: 20.80px; fill: #4D4D4D; font-family: Arial;' textLength='414.92px' lengthAdjust='spacingAndGlyphs'>De eerste hulp in een cafe, club of klein feest</text>
<text x='420.40' y='107.30' text-anchor='end' style='font-size: 20.80px; fill: #4D4D4D; font-family: Arial;' textLength='358.33px' lengthAdjust='spacingAndGlyphs'>De beveiliging bij een groot buitenfeest</text>
<text x='420.40' y='81.08' text-anchor='end' style='font-size: 20.80px; fill: #4D4D4D; font-family: Arial;' textLength='364.12px' lengthAdjust='spacingAndGlyphs'>De beveiliging bij een groot binnenfeest</text>
<text x='420.40' y='54.87' text-anchor='end' style='font-size: 20.80px; fill: #4D4D4D; font-family: Arial;' textLength='159.51px' lengthAdjust='spacingAndGlyphs'>Het barpersoneel</text>
<text x='420.40' y='28.65' text-anchor='end' style='font-size: 20.80px; fill: #4D4D4D; font-family: Arial;' textLength='410.31px' lengthAdjust='spacingAndGlyphs'>De beveiliging in een cafe, club of klein feest</text>
<polyline points='469.24,261.06 469.24,246.66 ' style='stroke-width: 2.13; stroke-linecap: butt;' />
<polyline points='533.75,261.06 533.75,246.66 ' style='stroke-width: 2.13; stroke-linecap: butt;' />
<polyline points='598.25,261.06 598.25,246.66 ' style='stroke-width: 2.13; stroke-linecap: butt;' />
<polyline points='662.75,261.06 662.75,246.66 ' style='stroke-width: 2.13; stroke-linecap: butt;' />
<polyline points='727.25,261.06 727.25,246.66 ' style='stroke-width: 2.13; stroke-linecap: butt;' />
<polyline points='791.76,261.06 791.76,246.66 ' style='stroke-width: 2.13; stroke-linecap: butt;' />
<polyline points='856.26,261.06 856.26,246.66 ' style='stroke-width: 2.13; stroke-linecap: butt;' />
<polyline points='920.76,261.06 920.76,246.66 ' style='stroke-width: 2.13; stroke-linecap: butt;' />
<polyline points='985.26,261.06 985.26,246.66 ' style='stroke-width: 2.13; stroke-linecap: butt;' />
<polyline points='1049.77,261.06 1049.77,246.66 ' style='stroke-width: 2.13; stroke-linecap: butt;' />
<polyline points='1114.27,261.06 1114.27,246.66 ' style='stroke-width: 2.13; stroke-linecap: butt;' />
<text x='469.24' y='278.14' text-anchor='middle' style='font-size: 20.80px; fill: #4D4D4D; font-family: Arial;' textLength='11.56px' lengthAdjust='spacingAndGlyphs'>0</text>
<text x='533.75' y='278.14' text-anchor='middle' style='font-size: 20.80px; fill: #4D4D4D; font-family: Arial;' textLength='23.13px' lengthAdjust='spacingAndGlyphs'>10</text>
<text x='598.25' y='278.14' text-anchor='middle' style='font-size: 20.80px; fill: #4D4D4D; font-family: Arial;' textLength='23.13px' lengthAdjust='spacingAndGlyphs'>20</text>
<text x='662.75' y='278.14' text-anchor='middle' style='font-size: 20.80px; fill: #4D4D4D; font-family: Arial;' textLength='23.13px' lengthAdjust='spacingAndGlyphs'>30</text>
<text x='727.25' y='278.14' text-anchor='middle' style='font-size: 20.80px; fill: #4D4D4D; font-family: Arial;' textLength='23.13px' lengthAdjust='spacingAndGlyphs'>40</text>
<text x='791.76' y='278.14' text-anchor='middle' style='font-size: 20.80px; fill: #4D4D4D; font-family: Arial;' textLength='23.13px' lengthAdjust='spacingAndGlyphs'>50</text>
<text x='856.26' y='278.14' text-anchor='middle' style='font-size: 20.80px; fill: #4D4D4D; font-family: Arial;' textLength='23.13px' lengthAdjust='spacingAndGlyphs'>60</text>
<text x='920.76' y='278.14' text-anchor='middle' style='font-size: 20.80px; fill: #4D4D4D; font-family: Arial;' textLength='23.13px' lengthAdjust='spacingAndGlyphs'>70</text>
<text x='985.26' y='278.14' text-anchor='middle' style='font-size: 20.80px; fill: #4D4D4D; font-family: Arial;' textLength='23.13px' lengthAdjust='spacingAndGlyphs'>80</text>
<text x='1049.77' y='278.14' text-anchor='middle' style='font-size: 20.80px; fill: #4D4D4D; font-family: Arial;' textLength='23.13px' lengthAdjust='spacingAndGlyphs'>90</text>
<text x='1114.27' y='278.14' text-anchor='middle' style='font-size: 20.80px; fill: #4D4D4D; font-family: Arial;' textLength='34.69px' lengthAdjust='spacingAndGlyphs'>100</text>
</g>
</svg>
